segundo_informe/barrido_rl_pasabajos/kHz/6.csv

Record Length,2500,Points,-249.99998277E-6,-199.99998808E-3,,Record Length,2500,Points,-249.99998277E-6,0.0,
Sample Interval,200.00000234E-9,s,-249.79998125E-6,-219.99999881E-3,,Sample Interval,200.00000234E-9,s,-249.79998125E-6,0.0,
Trigger Point,1.2500000E3,Samples,-249.59997972E-6,-219.99999881E-3,,Trigger Point,1.2500000E3,Samples,-249.59997972E-6,0.0,
,,,-249.39997820E-6,-239.99999464E-3,,,,,-249.39997820E-6,-19.9999996E-3,
,,,-249.19997668E-6,-239.99999464E-3,,,,,-249.19997668E-6,-19.9999996E-3,
,,,-248.99997516E-6,-259.99999046E-3,,,,,-248.99997516E-6,-39.99999911E-3,
Source,CH1,,-248.79997363E-6,-280.00000119E-3,,Source,CH2,,-248.79997363E-6,-59.999998659E-3,
Vertical Units,Volts,,-248.59997211E-6,-280.00000119E-3,,Vertical Units,Volts,,-248.59997211E-6,-59.999998659E-3,
Vertical Scale,499.999988824E-3,,-248.39997059E-6,-299.99998212E-3,,Vertical Scale,499.999988824E-3,,-248.39997059E-6,-79.999998212E-3,
Vertical Offset,0,,-248.19996906E-6,-299.99998212E-3,,Vertical Offset,0,,-248.19996906E-6,-79.999998212E-3,
Horizontal Units,s,,-247.99999665E-6,-299.99998212E-3,,Horizontal Units,s,,-247.99999665E-6,-99.999994040E-3,
Horizontal Scale,50.00000058E-6,,-247.79999512E-6,-319.99999285E-3,,Horizontal Scale,50.00000058E-6,,-247.79999512E-6,-99.999994040E-3,
Pt Fmt,Y,,-247.59999360E-6,-340.00000358E-3,,Pt Fmt,Y,,-247.59999360E-6,-119.9999973E-3,
Yzero,0.0,,-247.39999208E-6,-359.99998450E-3,,Yzero,0.0,,-247.39999208E-6,-119.9999973E-3,
Probe Atten,1.000000,,-247.19999055E-6,-359.99998450E-3,,Probe Atten,1.000000,,-247.19999055E-6,-140.0000006E-3,
,,,-246.99998903E-6,-379.99999523E-3,,,,,-246.99998903E-6,-140.0000006E-3,
Note,TBS 1052B-EDU - 02:13:38 p.m.   12/09/2022,,-246.79998751E-6,-379.99999523E-3,,Note,TBS 1052B-EDU - 02:13:38 p.m.   12/09/2022,,-246.79998751E-6,-159.99999642E-3,
,,,-246.59998599E-6,-379.99999523E-3,,,,,-246.59998599E-6,-159.99999642E-3,
,,,-246.39998446E-6,-399.99997616E-3,,,,,-246.39998446E-6,-179.99999225E-3,
,,,-246.19998294E-6,-399.99997616E-3,,,,,-246.19998294E-6,-179.99999225E-3,
,,,-245.99998142E-6,-419.999986887E-3,,,,,-245.99998142E-6,-199.99998808E-3,
,,,-245.79997989E-6,-439.999997616E-3,,,,,-245.79997989E-6,-219.99999881E-3,
,,,-245.59997837E-6,-439.999997616E-3,,,,,-245.59997837E-6,-219.99999881E-3,
,,,-245.39997685E-6,-459.999978542E-3,,,,,-245.39997685E-6,-239.99999464E-3,
,,,-245.19997532E-6,-459.999978542E-3,,,,,-245.19997532E-6,-239.99999464E-3,
,,,-244.99997380E-6,-479.999989271E-3,,,,,-244.99997380E-6,-259.99999046E-3,
,,,-244.79997228E-6,-479.999989271E-3,,,,,-244.79997228E-6,-259.99999046E-3,
,,,-244.59997076E-6,-500.000000000E-3,,,,,-244.59997076E-6,-259.99999046E-3,
,,,-244.39996923E-6,-500.000000000E-3,,,,,-244.39996923E-6,-299.99998212E-3,
,,,-244.19999681E-6,-519.999980927E-3,,,,,-244.19999681E-6,-299.99998212E-3,
,,,-243.99998074E-6,-519.999980927E-3,,,,,-243.99998074E-6,-299.99998212E-3,
,,,-243.79997922E-6,-539.999961853E-3,,,,,-243.79997922E-6,-319.99999285E-3,
,,,-243.59997769E-6,-539.999961853E-3,,,,,-243.59997769E-6,-340.00000358E-3,
,,,-243.39997617E-6,-560.000002384E-3,,,,,-243.39997617E-6,-340.00000358E-3,
,,,-243.19998920E-6,-560.000002384E-3,,,,,-243.19998920E-6,-340.00000358E-3,
,,,-242.99998768E-6,-560.000002384E-3,,,,,-242.99998768E-6,-359.99998450E-3,
,,,-242.79998615E-6,-579.999983311E-3,,,,,-242.79998615E-6,-359.99998450E-3,
,,,-242.59998463E-6,-599.999964237E-3,,,,,-242.59998463E-6,-379.99999523E-3,
,,,-242.39998311E-6,-620.000004768E-3,,,,,-242.39998311E-6,-379.99999523E-3,
,,,-242.19998159E-6,-620.000004768E-3,,,,,-242.19998159E-6,-399.99997616E-3,
,,,-241.99998006E-6,-620.000004768E-3,,,,,-241.99998006E-6,-419.999986887E-3,
,,,-241.79997854E-6,-639.999985695E-3,,,,,-241.79997854E-6,-419.999986887E-3,
,,,-241.59997702E-6,-639.999985695E-3,,,,,-241.59997702E-6,-439.999997616E-3,
,,,-241.39997549E-6,-659.999966621E-3,,,,,-241.39997549E-6,-439.999997616E-3,
,,,-241.19998852E-6,-659.999966621E-3,,,,,-241.19998852E-6,-439.999997616E-3,
,,,-240.99998700E-6,-680.000007153E-3,,,,,-240.99998700E-6,-459.999978542E-3,
,,,-240.79998548E-6,-680.000007153E-3,,,,,-240.79998548E-6,-459.999978542E-3,
,,,-240.59998395E-6,-680.000007153E-3,,,,,-240.59998395E-6,-479.999989271E-3,
,,,-240.39998243E-6,-719.999969006E-3,,,,,-240.39998243E-6,-500.000000000E-3,
,,,-240.19998091E-6,-699.999988079E-3,,,,,-240.19998091E-6,-500.000000000E-3,
,,,-239.99997939E-6,-719.999969006E-3,,,,,-239.99997939E-6,-519.999980927E-3,
,,,-239.79997786E-6,-719.999969006E-3,,,,,-239.79997786E-6,-519.999980927E-3,
,,,-239.59997634E-6,-719.999969006E-3,,,,,-239.59997634E-6,-539.999961853E-3,
,,,-239.39998937E-6,-740.000009537E-3,,,,,-239.39998937E-6,-539.999961853E-3,
,,,-239.19998785E-6,-759.999990463E-3,,,,,-239.19998785E-6,-539.999961853E-3,
,,,-238.99998632E-6,-759.999990463E-3,,,,,-238.99998632E-6,-560.000002384E-3,
,,,-238.79998480E-6,-779.999971390E-3,,,,,-238.79998480E-6,-560.000002384E-3,
,,,-238.59998328E-6,-779.999971390E-3,,,,,-238.59998328E-6,-579.999983311E-3,
,,,-238.39998175E-6,-799.999952316E-3,,,,,-238.39998175E-6,-579.999983311E-3,
,,,-238.19998023E-6,-799.999952316E-3,,,,,-238.19998023E-6,-599.999964237E-3,
,,,-237.99997871E-6,-819.999992847E-3,,,,,-237.99997871E-6,-620.000004768E-3,
,,,-237.79997719E-6,-819.999992847E-3,,,,,-237.79997719E-6,-620.000004768E-3,
,,,-237.59997566E-6,-839.999973774E-3,,,,,-237.59997566E-6,-620.000004768E-3,
,,,-237.39998869E-6,-839.999973774E-3,,,,,-237.39998869E-6,-639.999985695E-3,
,,,-237.19998717E-6,-839.999973774E-3,,,,,-237.19998717E-6,-639.999985695E-3,
,,,-236.99998565E-6,-839.999973774E-3,,,,,-236.99998565E-6,-639.999985695E-3,
,,,-236.79998412E-6,-859.999954700E-3,,,,,-236.79998412E-6,-659.999966621E-3,
,,,-236.59998260E-6,-879.999995232E-3,,,,,-236.59998260E-6,-680.000007153E-3,
,,,-236.39998108E-6,-879.999995232E-3,,,,,-236.39998108E-6,-680.000007153E-3,
,,,-236.19997955E-6,-899.999976158E-3,,,,,-236.19997955E-6,-699.999988079E-3,
,,,-235.99997803E-6,-899.999976158E-3,,,,,-235.99997803E-6,-699.999988079E-3,
,,,-235.79997651E-6,-899.999976158E-3,,,,,-235.79997651E-6,-699.999988079E-3,
,,,-235.59998954E-6,-899.999976158E-3,,,,,-235.59998954E-6,-699.999988079E-3,
,,,-235.39998801E-6,-919.999957085E-3,,,,,-235.39998801E-6,-719.999969006E-3,
,,,-235.19998649E-6,-939.999997616E-3,,,,,-235.19998649E-6,-740.000009537E-3,
,,,-234.99998497E-6,-939.999997616E-3,,,,,-234.99998497E-6,-759.999990463E-3,
,,,-234.79998345E-6,-939.999997616E-3,,,,,-234.79998345E-6,-759.999990463E-3,
,,,-234.59998192E-6,-959.999978542E-3,,,,,-234.59998192E-6,-759.999990463E-3,
,,,-234.39998040E-6,-959.999978542E-3,,,,,-234.39998040E-6,-779.999971390E-3,
,,,-234.19997888E-6,-959.999978542E-3,,,,,-234.19997888E-6,-779.999971390E-3,
,,,-233.99997735E-6,-979.999959469E-3,,,,,-233.99997735E-6,-779.999971390E-3,
,,,-233.79997583E-6,-979.999959469E-3,,,,,-233.79997583E-6,-799.999952316E-3,
,,,-233.59998886E-6,-1.000000,,,,,-233.59998886E-6,-799.999952316E-3,
,,,-233.39998734E-6,-1.000000,,,,,-233.39998734E-6,-819.999992847E-3,
,,,-233.19998581E-6,-1.000000,,,,,-233.19998581E-6,-819.999992847E-3,
,,,-232.99998429E-6,-1.0200000,,,,,-232.99998429E-6,-839.999973774E-3,
,,,-232.79998277E-6,-1.0200000,,,,,-232.79998277E-6,-839.999973774E-3,
,,,-232.59998125E-6,-1.0200000,,,,,-232.59998125E-6,-839.999973774E-3,
,,,-232.39997972E-6,-1.0400000,,,,,-232.39997972E-6,-879.999995232E-3,
,,,-232.19997820E-6,-1.0599999,,,,,-232.19997820E-6,-879.999995232E-3,
,,,-231.99997668E-6,-1.0400000,,,,,-231.99997668E-6,-879.999995232E-3,
,,,-231.79998971E-6,-1.0599999,,,,,-231.79998971E-6,-879.999995232E-3,
,,,-231.59998818E-6,-1.0599999,,,,,-231.59998818E-6,-879.999995232E-3,
,,,-231.39998666E-6,-1.0799999,,,,,-231.39998666E-6,-899.999976158E-3,
,,,-231.19998514E-6,-1.0799999,,,,,-231.19998514E-6,-899.999976158E-3,
,,,-230.99998361E-6,-1.1000000,,,,,-230.99998361E-6,-919.999957085E-3,
,,,-230.79998209E-6,-1.1000000,,,,,-230.79998209E-6,-919.999957085E-3,
,,,-230.59998057E-6,-1.1000000,,,,,-230.59998057E-6,-919.999957085E-3,
,,,-230.39997905E-6,-1.1000000,,,,,-230.39997905E-6,-939.999997616E-3,
,,,-230.19997752E-6,-1.1200000,,,,,-230.19997752E-6,-939.999997616E-3,
,,,-229.99997600E-6,-1.1200000,,,,,-229.99997600E-6,-959.999978542E-3,
,,,-229.79998903E-6,-1.1400000,,,,,-229.79998903E-6,-959.999978542E-3,
,,,-229.59998751E-6,-1.1400000,,,,,-229.59998751E-6,-959.999978542E-3,
,,,-229.39998598E-6,-1.1400000,,,,,-229.39998598E-6,-979.999959469E-3,
,,,-229.19998446E-6,-1.1400000,,,,,-229.19998446E-6,-979.999959469E-3,
,,,-228.99998294E-6,-1.1400000,,,,,-228.99998294E-6,-1.000000,
,,,-228.79998141E-6,-1.1600000,,,,,-228.79998141E-6,-1.000000,
,,,-228.59997989E-6,-1.1600000,,,,,-228.59997989E-6,-1.000000,
,,,-228.39997837E-6,-1.1600000,,,,,-228.39997837E-6,-1.0200000,
,,,-228.19997685E-6,-1.1799999,,,,,-228.19997685E-6,-1.0200000,
,,,-227.99997532E-6,-1.1799999,,,,,-227.99997532E-6,-1.0400000,
,,,-227.79998835E-6,-1.1799999,,,,,-227.79998835E-6,-1.0400000,
,,,-227.59998683E-6,-1.1999999,,,,,-227.59998683E-6,-1.0400000,
,,,-227.39998531E-6,-1.1999999,,,,,-227.39998531E-6,-1.0400000,
,,,-227.19998378E-6,-1.1999999,,,,,-227.19998378E-6,-1.0400000,
,,,-226.99998226E-6,-1.2200000,,,,,-226.99998226E-6,-1.0599999,
,,,-226.79998074E-6,-1.2200000,,,,,-226.79998074E-6,-1.0799999,
,,,-226.59997921E-6,-1.2400000,,,,,-226.59997921E-6,-1.0799999,
,,,-226.39997769E-6,-1.2200000,,,,,-226.39997769E-6,-1.0799999,
,,,-226.19997617E-6,-1.2400000,,,,,-226.19997617E-6,-1.0799999,
,,,-225.99998920E-6,-1.2400000,,,,,-225.99998920E-6,-1.1000000,
,,,-225.79998767E-6,-1.2600000,,,,,-225.79998767E-6,-1.1000000,
,,,-225.59998615E-6,-1.2400000,,,,,-225.59998615E-6,-1.1200000,
,,,-225.39998463E-6,-1.2600000,,,,,-225.39998463E-6,-1.1200000,
,,,-225.19998311E-6,-1.2600000,,,,,-225.19998311E-6,-1.1200000,
,,,-224.99998158E-6,-1.2800000,,,,,-224.99998158E-6,-1.1200000,
,,,-224.79998006E-6,-1.2600000,,,,,-224.79998006E-6,-1.1400000,
,,,-224.59997854E-6,-1.2800000,,,,,-224.59997854E-6,-1.1400000,
,,,-224.39997701E-6,-1.2800000,,,,,-224.39997701E-6,-1.1400000,
,,,-224.19997549E-6,-1.2800000,,,,,-224.19997549E-6,-1.1600000,
,,,-223.99998852E-6,-1.3000000,,,,,-223.99998852E-6,-1.1600000,
,,,-223.79998700E-6,-1.3000000,,,,,-223.79998700E-6,-1.1799999,
,,,-223.59998547E-6,-1.2800000,,,,,-223.59998547E-6,-1.1799999,
,,,-223.39998395E-6,-1.3000000,,,,,-223.39998395E-6,-1.1600000,
,,,-223.19998243E-6,-1.3000000,,,,,-223.19998243E-6,-1.1799999,
,,,-222.99998091E-6,-1.3199999,,,,,-222.99998091E-6,-1.1799999,
,,,-222.79997938E-6,-1.3199999,,,,,-222.79997938E-6,-1.1999999,
,,,-222.59997786E-6,-1.3199999,,,,,-222.59997786E-6,-1.1999999,
,,,-222.39997634E-6,-1.3199999,,,,,-222.39997634E-6,-1.1999999,
,,,-222.19998937E-6,-1.3199999,,,,,-222.19998937E-6,-1.1999999,
,,,-221.99998784E-6,-1.3399999,,,,,-221.99998784E-6,-1.2200000,
,,,-221.79998632E-6,-1.3199999,,,,,-221.79998632E-6,-1.2200000,
,,,-221.59998480E-6,-1.3399999,,,,,-221.59998480E-6,-1.2200000,
,,,-221.39998327E-6,-1.3399999,,,,,-221.39998327E-6,-1.2200000,
,,,-221.19998175E-6,-1.3399999,,,,,-221.19998175E-6,-1.2400000,
,,,-220.99998023E-6,-1.3399999,,,,,-220.99998023E-6,-1.2400000,
,,,-220.79997871E-6,-1.3600000,,,,,-220.79997871E-6,-1.2400000,
,,,-220.59997718E-6,-1.3600000,,,,,-220.59997718E-6,-1.2600000,
,,,-220.39997566E-6,-1.3600000,,,,,-220.39997566E-6,-1.2400000,
,,,-220.19998869E-6,-1.3600000,,,,,-220.19998869E-6,-1.2600000,
,,,-219.99998717E-6,-1.3600000,,,,,-219.99998717E-6,-1.2800000,
,,,-219.79998564E-6,-1.3800000,,,,,-219.79998564E-6,-1.2600000,
,,,-219.59998412E-6,-1.3600000,,,,,-219.59998412E-6,-1.2800000,
,,,-219.39998260E-6,-1.3800000,,,,,-219.39998260E-6,-1.2800000,
,,,-219.19998107E-6,-1.3800000,,,,,-219.19998107E-6,-1.2800000,
,,,-218.99997955E-6,-1.3800000,,,,,-218.99997955E-6,-1.2800000,
,,,-218.79997803E-6,-1.3800000,,,,,-218.79997803E-6,-1.2800000,
,,,-218.59997651E-6,-1.4000000,,,,,-218.59997651E-6,-1.3000000,
,,,-218.39998954E-6,-1.4000000,,,,,-218.39998954E-6,-1.3000000,
,,,-218.19998801E-6,-1.3800000,,,,,-218.19998801E-6,-1.3000000,
,,,-217.99998649E-6,-1.3800000,,,,,-217.99998649E-6,-1.3000000,
,,,-217.79998497E-6,-1.4000000,,,,,-217.79998497E-6,-1.3199999,
,,,-217.59998344E-6,-1.4000000,,,,,-217.59998344E-6,-1.3000000,
,,,-217.39998192E-6,-1.4000000,,,,,-217.39998192E-6,-1.3199999,
,,,-217.19998040E-6,-1.4000000,,,,,-217.19998040E-6,-1.3199999,
,,,-216.99997887E-6,-1.4000000,,,,,-216.99997887E-6,-1.3199999,
,,,-216.79997735E-6,-1.4000000,,,,,-216.79997735E-6,-1.3199999,
,,,-216.59997583E-6,-1.4000000,,,,,-216.59997583E-6,-1.3199999,
,,,-216.39998886E-6,-1.4000000,,,,,-216.39998886E-6,-1.3399999,
,,,-216.19998734E-6,-1.4000000,,,,,-216.19998734E-6,-1.3399999,
,,,-215.99998581E-6,-1.4200000,,,,,-215.99998581E-6,-1.3399999,
,,,-215.79998429E-6,-1.4000000,,,,,-215.79998429E-6,-1.3199999,
,,,-215.59998277E-6,-1.4200000,,,,,-215.59998277E-6,-1.3399999,
,,,-215.39998124E-6,-1.4000000,,,,,-215.39998124E-6,-1.3399999,
,,,-215.19997972E-6,-1.4200000,,,,,-215.19997972E-6,-1.3600000,
,,,-214.99997820E-6,-1.4000000,,,,,-214.99997820E-6,-1.3600000,
,,,-214.79997667E-6,-1.4000000,,,,,-214.79997667E-6,-1.3399999,
,,,-214.59997515E-6,-1.4200000,,,,,-214.59997515E-6,-1.3600000,
,,,-214.39998818E-6,-1.4200000,,,,,-214.39998818E-6,-1.3800000,
,,,-214.19998666E-6,-1.4200000,,,,,-214.19998666E-6,-1.3600000,
,,,-213.99998514E-6,-1.4200000,,,,,-213.99998514E-6,-1.3600000,
,,,-213.79998361E-6,-1.4200000,,,,,-213.79998361E-6,-1.3600000,
,,,-213.59998209E-6,-1.4200000,,,,,-213.59998209E-6,-1.3800000,
,,,-213.39998057E-6,-1.4200000,,,,,-213.39998057E-6,-1.3600000,
,,,-213.19997904E-6,-1.4200000,,,,,-213.19997904E-6,-1.3800000,
,,,-212.99997752E-6,-1.4200000,,,,,-212.99997752E-6,-1.3800000,
,,,-212.79997600E-6,-1.4200000,,,,,-212.79997600E-6,-1.3800000,
,,,-212.59998903E-6,-1.4200000,,,,,-212.59998903E-6,-1.3800000,
,,,-212.39998750E-6,-1.4000000,,,,,-212.39998750E-6,-1.3800000,
,,,-212.19998598E-6,-1.4200000,,,,,-212.19998598E-6,-1.3800000,
,,,-211.99998446E-6,-1.4200000,,,,,-211.99998446E-6,-1.3800000,
,,,-211.79998294E-6,-1.4200000,,,,,-211.79998294E-6,-1.3800000,
,,,-211.59998141E-6,-1.4200000,,,,,-211.59998141E-6,-1.3800000,
,,,-211.39997989E-6,-1.4200000,,,,,-211.39997989E-6,-1.3800000,
,,,-211.19997837E-6,-1.4200000,,,,,-211.19997837E-6,-1.4000000,
,,,-210.99997684E-6,-1.4200000,,,,,-210.99997684E-6,-1.3800000,
,,,-210.79997532E-6,-1.4200000,,,,,-210.79997532E-6,-1.3800000,
,,,-210.59998835E-6,-1.4200000,,,,,-210.59998835E-6,-1.3800000,
,,,-210.39998683E-6,-1.4200000,,,,,-210.39998683E-6,-1.3800000,
,,,-210.19998530E-6,-1.4200000,,,,,-210.19998530E-6,-1.4000000,
,,,-209.99998378E-6,-1.4200000,,,,,-209.99998378E-6,-1.3800000,
,,,-209.79998226E-6,-1.4200000,,,,,-209.79998226E-6,-1.4000000,
,,,-209.59998074E-6,-1.4000000,,,,,-209.59998074E-6,-1.4000000,
,,,-209.39997921E-6,-1.4000000,,,,,-209.39997921E-6,-1.4000000,
,,,-209.19997769E-6,-1.4200000,,,,,-209.19997769E-6,-1.4000000,
,,,-208.99997617E-6,-1.4000000,,,,,-208.99997617E-6,-1.3800000,
,,,-208.79998920E-6,-1.4000000,,,,,-208.79998920E-6,-1.4000000,
,,,-208.59998767E-6,-1.4200000,,,,,-208.59998767E-6,-1.4000000,
,,,-208.39998615E-6,-1.4200000,,,,,-208.39998615E-6,-1.4000000,
,,,-208.19998463E-6,-1.4000000,,,,,-208.19998463E-6,-1.3800000,
,,,-207.99998310E-6,-1.4000000,,,,,-207.99998310E-6,-1.4000000,
,,,-207.79998158E-6,-1.4000000,,,,,-207.79998158E-6,-1.4000000,
,,,-207.59998006E-6,-1.4000000,,,,,-207.59998006E-6,-1.3800000,
,,,-207.39997854E-6,-1.4000000,,,,,-207.39997854E-6,-1.4000000,
,,,-207.19997701E-6,-1.3800000,,,,,-207.19997701E-6,-1.4000000,
,,,-206.99997549E-6,-1.3800000,,,,,-206.99997549E-6,-1.4000000,
,,,-206.79998852E-6,-1.4000000,,,,,-206.79998852E-6,-1.4000000,
,,,-206.59998700E-6,-1.3800000,,,,,-206.59998700E-6,-1.4000000,
,,,-206.39998547E-6,-1.3800000,,,,,-206.39998547E-6,-1.3800000,
,,,-206.19998395E-6,-1.4000000,,,,,-206.19998395E-6,-1.3800000,
,,,-205.99998243E-6,-1.3800000,,,,,-205.99998243E-6,-1.3800000,
,,,-205.79998090E-6,-1.3600000,,,,,-205.79998090E-6,-1.3800000,
,,,-205.59997938E-6,-1.3600000,,,,,-205.59997938E-6,-1.3800000,
,,,-205.39997786E-6,-1.3600000,,,,,-205.39997786E-6,-1.3800000,
,,,-205.19997634E-6,-1.3800000,,,,,-205.19997634E-6,-1.3800000,
,,,-204.99998936E-6,-1.3600000,,,,,-204.99998936E-6,-1.3800000,
,,,-204.79998784E-6,-1.3600000,,,,,-204.79998784E-6,-1.3800000,
,,,-204.59998632E-6,-1.3600000,,,,,-204.59998632E-6,-1.3800000,
,,,-204.39998480E-6,-1.3399999,,,,,-204.39998480E-6,-1.3800000,
,,,-204.19998327E-6,-1.3600000,,,,,-204.19998327E-6,-1.3600000,
,,,-203.99998175E-6,-1.3399999,,,,,-203.99998175E-6,-1.3800000,
,,,-203.79998023E-6,-1.3399999,,,,,-203.79998023E-6,-1.3800000,
,,,-203.59997870E-6,-1.3399999,,,,,-203.59997870E-6,-1.3800000,
,,,-203.39997718E-6,-1.3399999,,,,,-203.39997718E-6,-1.3600000,
,,,-203.19997566E-6,-1.3399999,,,,,-203.19997566E-6,-1.3600000,
,,,-202.99998869E-6,-1.3199999,,,,,-202.99998869E-6,-1.3600000,
,,,-202.79998716E-6,-1.3199999,,,,,-202.79998716E-6,-1.3600000,
,,,-202.59998564E-6,-1.3199999,,,,,-202.59998564E-6,-1.3600000,
,,,-202.39998412E-6,-1.3199999,,,,,-202.39998412E-6,-1.3600000,
,,,-202.19998260E-6,-1.3199999,,,,,-202.19998260E-6,-1.3600000,
,,,-201.99998107E-6,-1.3000000,,,,,-201.99998107E-6,-1.3600000,
,,,-201.79997955E-6,-1.3000000,,,,,-201.79997955E-6,-1.3399999,
,,,-201.59997803E-6,-1.3000000,,,,,-201.59997803E-6,-1.3399999,
,,,-201.39997650E-6,-1.3000000,,,,,-201.39997650E-6,-1.3399999,
,,,-201.19997498E-6,-1.3000000,,,,,-201.19997498E-6,-1.3399999,
,,,-200.99998801E-6,-1.2800000,,,,,-200.99998801E-6,-1.3600000,
,,,-200.79998649E-6,-1.3000000,,,,,-200.79998649E-6,-1.3399999,
,,,-200.59998496E-6,-1.2800000,,,,,-200.59998496E-6,-1.3399999,
,,,-200.39998344E-6,-1.2800000,,,,,-200.39998344E-6,-1.3399999,
,,,-200.19998192E-6,-1.2800000,,,,,-200.19998192E-6,-1.3199999,
,,,-199.99998040E-6,-1.2600000,,,,,-199.99998040E-6,-1.3199999,
,,,-199.79997887E-6,-1.2600000,,,,,-199.79997887E-6,-1.3199999,
,,,-199.59997735E-6,-1.2600000,,,,,-199.59997735E-6,-1.3199999,
,,,-199.39997583E-6,-1.2600000,,,,,-199.39997583E-6,-1.3199999,
,,,-199.19998886E-6,-1.2400000,,,,,-199.19998886E-6,-1.3199999,
,,,-198.99998733E-6,-1.2400000,,,,,-198.99998733E-6,-1.3000000,
,,,-198.79998581E-6,-1.2400000,,,,,-198.79998581E-6,-1.3000000,
,,,-198.59998429E-6,-1.2400000,,,,,-198.59998429E-6,-1.3000000,
,,,-198.39998276E-6,-1.2200000,,,,,-198.39998276E-6,-1.3000000,
,,,-198.19998124E-6,-1.2200000,,,,,-198.19998124E-6,-1.2800000,
,,,-197.99997972E-6,-1.1999999,,,,,-197.99997972E-6,-1.2800000,
,,,-197.79997820E-6,-1.1999999,,,,,-197.79997820E-6,-1.2800000,
,,,-197.59997667E-6,-1.1999999,,,,,-197.59997667E-6,-1.2800000,
,,,-197.39997515E-6,-1.1999999,,,,,-197.39997515E-6,-1.2800000,
,,,-197.19998818E-6,-1.1799999,,,,,-197.19998818E-6,-1.2600000,
,,,-196.99998666E-6,-1.1799999,,,,,-196.99998666E-6,-1.2600000,
,,,-196.79998513E-6,-1.1799999,,,,,-196.79998513E-6,-1.2600000,
,,,-196.59998361E-6,-1.1600000,,,,,-196.59998361E-6,-1.2600000,
,,,-196.39998209E-6,-1.1600000,,,,,-196.39998209E-6,-1.2400000,
,,,-196.19998056E-6,-1.1600000,,,,,-196.19998056E-6,-1.2400000,
,,,-195.99997904E-6,-1.1600000,,,,,-195.99997904E-6,-1.2400000,
,,,-195.79997752E-6,-1.1400000,,,,,-195.79997752E-6,-1.2400000,
,,,-195.59997600E-6,-1.1400000,,,,,-195.59997600E-6,-1.2400000,
,,,-195.39998902E-6,-1.1200000,,,,,-195.39998902E-6,-1.2400000,
,,,-195.19998750E-6,-1.1200000,,,,,-195.19998750E-6,-1.2200000,
,,,-194.99998598E-6,-1.1200000,,,,,-194.99998598E-6,-1.2200000,
,,,-194.79998446E-6,-1.1200000,,,,,-194.79998446E-6,-1.1999999,
,,,-194.59998293E-6,-1.1000000,,,,,-194.59998293E-6,-1.1999999,
,,,-194.39998141E-6,-1.1000000,,,,,-194.39998141E-6,-1.1999999,
,,,-194.19997989E-6,-1.1000000,,,,,-194.19997989E-6,-1.1999999,
,,,-193.99997836E-6,-1.0799999,,,,,-193.99997836E-6,-1.1999999,
,,,-193.79997684E-6,-1.0799999,,,,,-193.79997684E-6,-1.1799999,
,,,-193.59997532E-6,-1.0599999,,,,,-193.59997532E-6,-1.1799999,
,,,-193.39998835E-6,-1.0599999,,,,,-193.39998835E-6,-1.1799999,
