segundo_informe/barrido_rl_pasabajos/kHz/90.csv

Record Length,2500,Points,-12.4999997E-6,-799.999952316E-3,,Record Length,2500,Points,-12.4999997E-6,-520.000040531E-3,
Sample Interval,9.999999939E-9,s,-12.4899998E-6,-779.999971390E-3,,Sample Interval,9.999999939E-9,s,-12.4899998E-6,-527.999997139E-3,
Trigger Point,1.2500000E3,Samples,-12.4799999E-6,-779.999971390E-3,,Trigger Point,1.2500000E3,Samples,-12.4799999E-6,-520.000040531E-3,
,,,-12.4700000E-6,-759.999990463E-3,,,,,-12.4700000E-6,-527.999997139E-3,
,,,-12.4600001E-6,-759.999990463E-3,,,,,-12.4600001E-6,-527.999997139E-3,
,,,-12.4499993E-6,-759.999990463E-3,,,,,-12.4499993E-6,-527.999997139E-3,
Source,CH1,,-12.4399994E-6,-759.999990463E-3,,Source,CH2,,-12.4399994E-6,-536.000013351E-3,
Vertical Units,Volts,,-12.4299995E-6,-740.000009537E-3,,Vertical Units,Volts,,-12.4299995E-6,-527.999997139E-3,
Vertical Scale,499.999988824E-3,,-12.4199996E-6,-740.000009537E-3,,Vertical Scale,200.00000950E-3,,-12.4199996E-6,-536.000013351E-3,
Vertical Offset,0,,-12.4099997E-6,-719.999969006E-3,,Vertical Offset,0,,-12.4099997E-6,-536.000013351E-3,
Horizontal Units,s,,-12.3999998E-6,-719.999969006E-3,,Horizontal Units,s,,-12.3999998E-6,-536.000013351E-3,
Horizontal Scale,2.5000000E-6,,-12.3899999E-6,-719.999969006E-3,,Horizontal Scale,2.5000000E-6,,-12.3899999E-6,-536.000013351E-3,
Pt Fmt,Y,,-12.3800000E-6,-699.999988079E-3,,Pt Fmt,Y,,-12.3800000E-6,-536.000013351E-3,
Yzero,0.0,,-12.3699992E-6,-699.999988079E-3,,Yzero,0.0,,-12.3699992E-6,-536.000013351E-3,
Probe Atten,1.000000,,-12.3599993E-6,-680.000007153E-3,,Probe Atten,1.000000,,-12.3599993E-6,-536.000013351E-3,
,,,-12.3499995E-6,-699.999988079E-3,,,,,-12.3499995E-6,-544.000029564E-3,
Note,TBS 1052B-EDU - 02:17:22 p.m.   12/09/2022,,-12.3399996E-6,-680.000007153E-3,,Note,TBS 1052B-EDU - 02:17:22 p.m.   12/09/2022,,-12.3399996E-6,-536.000013351E-3,
,,,-12.3299997E-6,-680.000007153E-3,,,,,-12.3299997E-6,-544.000029564E-3,
,,,-12.3199998E-6,-659.999966621E-3,,,,,-12.3199998E-6,-536.000013351E-3,
,,,-12.3099999E-6,-639.999985695E-3,,,,,-12.3099999E-6,-544.000029564E-3,
,,,-12.3000000E-6,-639.999985695E-3,,,,,-12.3000000E-6,-544.000029564E-3,
,,,-12.2900001E-6,-639.999985695E-3,,,,,-12.2900001E-6,-544.000029564E-3,
,,,-12.2799993E-6,-639.999985695E-3,,,,,-12.2799993E-6,-544.000029564E-3,
,,,-12.2699994E-6,-620.000004768E-3,,,,,-12.2699994E-6,-552.000045776E-3,
,,,-12.2599995E-6,-620.000004768E-3,,,,,-12.2599995E-6,-544.000029564E-3,
,,,-12.2499996E-6,-620.000004768E-3,,,,,-12.2499996E-6,-552.000045776E-3,
,,,-12.2399997E-6,-599.999964237E-3,,,,,-12.2399997E-6,-552.000045776E-3,
,,,-12.2299998E-6,-599.999964237E-3,,,,,-12.2299998E-6,-552.000045776E-3,
,,,-12.2199999E-6,-599.999964237E-3,,,,,-12.2199999E-6,-552.000045776E-3,
,,,-12.2100000E-6,-579.999983311E-3,,,,,-12.2100000E-6,-552.000045776E-3,
,,,-12.2000001E-6,-579.999983311E-3,,,,,-12.2000001E-6,-552.000045776E-3,
,,,-12.1899993E-6,-579.999983311E-3,,,,,-12.1899993E-6,-552.000045776E-3,
,,,-12.1799994E-6,-560.000002384E-3,,,,,-12.1799994E-6,-552.000045776E-3,
,,,-12.1699995E-6,-539.999961853E-3,,,,,-12.1699995E-6,-560.000002384E-3,
,,,-12.1599996E-6,-539.999961853E-3,,,,,-12.1599996E-6,-560.000002384E-3,
,,,-12.1499997E-6,-539.999961853E-3,,,,,-12.1499997E-6,-560.000002384E-3,
,,,-12.1399999E-6,-539.999961853E-3,,,,,-12.1399999E-6,-560.000002384E-3,
,,,-12.1300000E-6,-539.999961853E-3,,,,,-12.1300000E-6,-560.000002384E-3,
,,,-12.1200001E-6,-519.999980927E-3,,,,,-12.1200001E-6,-560.000002384E-3,
,,,-12.1099993E-6,-519.999980927E-3,,,,,-12.1099993E-6,-560.000002384E-3,
,,,-12.0999994E-6,-500.000000000E-3,,,,,-12.0999994E-6,-560.000002384E-3,
,,,-12.0899995E-6,-500.000000000E-3,,,,,-12.0899995E-6,-560.000002384E-3,
,,,-12.0799996E-6,-500.000000000E-3,,,,,-12.0799996E-6,-560.000002384E-3,
,,,-12.0699997E-6,-479.999989271E-3,,,,,-12.0699997E-6,-568.000018597E-3,
,,,-12.0599998E-6,-459.999978542E-3,,,,,-12.0599998E-6,-568.000018597E-3,
,,,-12.0499999E-6,-459.999978542E-3,,,,,-12.0499999E-6,-568.000018597E-3,
,,,-12.0400000E-6,-459.999978542E-3,,,,,-12.0400000E-6,-568.000018597E-3,
,,,-12.0300001E-6,-439.999997616E-3,,,,,-12.0300001E-6,-568.000018597E-3,
,,,-12.0199993E-6,-439.999997616E-3,,,,,-12.0199993E-6,-568.000018597E-3,
,,,-12.0099994E-6,-439.999997616E-3,,,,,-12.0099994E-6,-568.000018597E-3,
,,,-11.9999995E-6,-419.999986887E-3,,,,,-11.9999995E-6,-568.000018597E-3,
,,,-11.9899996E-6,-419.999986887E-3,,,,,-11.9899996E-6,-568.000018597E-3,
,,,-11.9799997E-6,-419.999986887E-3,,,,,-11.9799997E-6,-560.000002384E-3,
,,,-11.9699998E-6,-379.99999523E-3,,,,,-11.9699998E-6,-568.000018597E-3,
,,,-11.9599999E-6,-399.99997616E-3,,,,,-11.9599999E-6,-568.000018597E-3,
,,,-11.9500000E-6,-379.99999523E-3,,,,,-11.9500000E-6,-568.000018597E-3,
,,,-11.9399992E-6,-379.99999523E-3,,,,,-11.9399992E-6,-568.000018597E-3,
,,,-11.9299993E-6,-379.99999523E-3,,,,,-11.9299993E-6,-576.000034809E-3,
,,,-11.9199995E-6,-359.99998450E-3,,,,,-11.9199995E-6,-568.000018597E-3,
,,,-11.9099996E-6,-359.99998450E-3,,,,,-11.9099996E-6,-568.000018597E-3,
,,,-11.8999997E-6,-340.00000358E-3,,,,,-11.8999997E-6,-576.000034809E-3,
,,,-11.8899998E-6,-319.99999285E-3,,,,,-11.8899998E-6,-576.000034809E-3,
,,,-11.8799999E-6,-319.99999285E-3,,,,,-11.8799999E-6,-576.000034809E-3,
,,,-11.8700000E-6,-319.99999285E-3,,,,,-11.8700000E-6,-568.000018597E-3,
,,,-11.8600001E-6,-319.99999285E-3,,,,,-11.8600001E-6,-576.000034809E-3,
,,,-11.8499993E-6,-319.99999285E-3,,,,,-11.8499993E-6,-576.000034809E-3,
,,,-11.8399994E-6,-299.99998212E-3,,,,,-11.8399994E-6,-576.000034809E-3,
,,,-11.8299995E-6,-299.99998212E-3,,,,,-11.8299995E-6,-568.000018597E-3,
,,,-11.8199996E-6,-299.99998212E-3,,,,,-11.8199996E-6,-576.000034809E-3,
,,,-11.8099997E-6,-280.00000119E-3,,,,,-11.8099997E-6,-576.000034809E-3,
,,,-11.7999998E-6,-280.00000119E-3,,,,,-11.7999998E-6,-576.000034809E-3,
,,,-11.7899999E-6,-259.99999046E-3,,,,,-11.7899999E-6,-576.000034809E-3,
,,,-11.7800000E-6,-259.99999046E-3,,,,,-11.7800000E-6,-576.000034809E-3,
,,,-11.7700001E-6,-239.99999464E-3,,,,,-11.7700001E-6,-576.000034809E-3,
,,,-11.7599993E-6,-219.99999881E-3,,,,,-11.7599993E-6,-576.000034809E-3,
,,,-11.7499994E-6,-239.99999464E-3,,,,,-11.7499994E-6,-576.000034809E-3,
,,,-11.7399995E-6,-219.99999881E-3,,,,,-11.7399995E-6,-576.000034809E-3,
,,,-11.7299996E-6,-219.99999881E-3,,,,,-11.7299996E-6,-576.000034809E-3,
,,,-11.7199997E-6,-219.99999881E-3,,,,,-11.7199997E-6,-576.000034809E-3,
,,,-11.7099999E-6,-199.99998808E-3,,,,,-11.7099999E-6,-576.000034809E-3,
,,,-11.7000000E-6,-179.99999225E-3,,,,,-11.7000000E-6,-576.000034809E-3,
,,,-11.6900001E-6,-179.99999225E-3,,,,,-11.6900001E-6,-576.000034809E-3,
,,,-11.6799993E-6,-159.99999642E-3,,,,,-11.6799993E-6,-568.000018597E-3,
,,,-11.6699994E-6,-159.99999642E-3,,,,,-11.6699994E-6,-576.000034809E-3,
,,,-11.6599995E-6,-159.99999642E-3,,,,,-11.6599995E-6,-576.000034809E-3,
,,,-11.6499996E-6,-140.0000006E-3,,,,,-11.6499996E-6,-568.000018597E-3,
,,,-11.6399997E-6,-140.0000006E-3,,,,,-11.6399997E-6,-576.000034809E-3,
,,,-11.6299998E-6,-140.0000006E-3,,,,,-11.6299998E-6,-576.000034809E-3,
,,,-11.6199999E-6,-119.9999973E-3,,,,,-11.6199999E-6,-576.000034809E-3,
,,,-11.6100000E-6,-119.9999973E-3,,,,,-11.6100000E-6,-576.000034809E-3,
,,,-11.6000001E-6,-99.999994040E-3,,,,,-11.6000001E-6,-576.000034809E-3,
,,,-11.5899993E-6,-99.999994040E-3,,,,,-11.5899993E-6,-576.000034809E-3,
,,,-11.5799994E-6,-99.999994040E-3,,,,,-11.5799994E-6,-568.000018597E-3,
,,,-11.5699995E-6,-79.999998212E-3,,,,,-11.5699995E-6,-576.000034809E-3,
,,,-11.5599996E-6,-79.999998212E-3,,,,,-11.5599996E-6,-568.000018597E-3,
,,,-11.5499997E-6,-59.999998659E-3,,,,,-11.5499997E-6,-568.000018597E-3,
,,,-11.5399998E-6,-59.999998659E-3,,,,,-11.5399998E-6,-568.000018597E-3,
,,,-11.5299999E-6,-39.99999911E-3,,,,,-11.5299999E-6,-568.000018597E-3,
,,,-11.5200000E-6,-39.99999911E-3,,,,,-11.5200000E-6,-568.000018597E-3,
,,,-11.5099992E-6,-39.99999911E-3,,,,,-11.5099992E-6,-568.000018597E-3,
,,,-11.4999993E-6,-39.99999911E-3,,,,,-11.4999993E-6,-568.000018597E-3,
,,,-11.4899995E-6,-19.9999996E-3,,,,,-11.4899995E-6,-568.000018597E-3,
,,,-11.4799996E-6,-19.9999996E-3,,,,,-11.4799996E-6,-568.000018597E-3,
,,,-11.4699997E-6,0.0,,,,,-11.4699997E-6,-568.000018597E-3,
,,,-11.4599998E-6,19.9999996E-3,,,,,-11.4599998E-6,-568.000018597E-3,
,,,-11.4499999E-6,19.9999996E-3,,,,,-11.4499999E-6,-568.000018597E-3,
,,,-11.4400000E-6,19.9999996E-3,,,,,-11.4400000E-6,-560.000002384E-3,
,,,-11.4300001E-6,19.9999996E-3,,,,,-11.4300001E-6,-568.000018597E-3,
,,,-11.4199993E-6,39.99999911E-3,,,,,-11.4199993E-6,-560.000002384E-3,
,,,-11.4099994E-6,59.999998659E-3,,,,,-11.4099994E-6,-568.000018597E-3,
,,,-11.3999995E-6,59.999998659E-3,,,,,-11.3999995E-6,-560.000002384E-3,
,,,-11.3899996E-6,79.999998212E-3,,,,,-11.3899996E-6,-560.000002384E-3,
,,,-11.3799997E-6,79.999998212E-3,,,,,-11.3799997E-6,-560.000002384E-3,
,,,-11.3699998E-6,79.999998212E-3,,,,,-11.3699998E-6,-560.000002384E-3,
,,,-11.3599999E-6,99.999994040E-3,,,,,-11.3599999E-6,-560.000002384E-3,
,,,-11.3500000E-6,99.999994040E-3,,,,,-11.3500000E-6,-560.000002384E-3,
,,,-11.3400001E-6,119.9999973E-3,,,,,-11.3400001E-6,-552.000045776E-3,
,,,-11.3299993E-6,99.999994040E-3,,,,,-11.3299993E-6,-552.000045776E-3,
,,,-11.3199994E-6,99.999994040E-3,,,,,-11.3199994E-6,-560.000002384E-3,
,,,-11.3099995E-6,119.9999973E-3,,,,,-11.3099995E-6,-560.000002384E-3,
,,,-11.2999996E-6,140.0000006E-3,,,,,-11.2999996E-6,-560.000002384E-3,
,,,-11.2899997E-6,159.99999642E-3,,,,,-11.2899997E-6,-552.000045776E-3,
,,,-11.2799999E-6,140.0000006E-3,,,,,-11.2799999E-6,-552.000045776E-3,
,,,-11.2700000E-6,159.99999642E-3,,,,,-11.2700000E-6,-552.000045776E-3,
,,,-11.2600001E-6,179.99999225E-3,,,,,-11.2600001E-6,-552.000045776E-3,
,,,-11.2499993E-6,179.99999225E-3,,,,,-11.2499993E-6,-552.000045776E-3,
,,,-11.2399994E-6,179.99999225E-3,,,,,-11.2399994E-6,-552.000045776E-3,
,,,-11.2299995E-6,199.99998808E-3,,,,,-11.2299995E-6,-552.000045776E-3,
,,,-11.2199996E-6,199.99998808E-3,,,,,-11.2199996E-6,-552.000045776E-3,
,,,-11.2099997E-6,199.99998808E-3,,,,,-11.2099997E-6,-552.000045776E-3,
,,,-11.1999998E-6,219.99999881E-3,,,,,-11.1999998E-6,-552.000045776E-3,
,,,-11.1899999E-6,199.99998808E-3,,,,,-11.1899999E-6,-544.000029564E-3,
,,,-11.1800000E-6,239.99999464E-3,,,,,-11.1800000E-6,-544.000029564E-3,
,,,-11.1700001E-6,239.99999464E-3,,,,,-11.1700001E-6,-544.000029564E-3,
,,,-11.1599993E-6,259.99999046E-3,,,,,-11.1599993E-6,-544.000029564E-3,
,,,-11.1499994E-6,259.99999046E-3,,,,,-11.1499994E-6,-536.000013351E-3,
,,,-11.1399995E-6,259.99999046E-3,,,,,-11.1399995E-6,-544.000029564E-3,
,,,-11.1299996E-6,259.99999046E-3,,,,,-11.1299996E-6,-544.000029564E-3,
,,,-11.1199997E-6,280.00000119E-3,,,,,-11.1199997E-6,-544.000029564E-3,
,,,-11.1099998E-6,280.00000119E-3,,,,,-11.1099998E-6,-536.000013351E-3,
,,,-11.0999999E-6,299.99998212E-3,,,,,-11.0999999E-6,-536.000013351E-3,
,,,-11.0900000E-6,299.99998212E-3,,,,,-11.0900000E-6,-536.000013351E-3,
,,,-11.0799992E-6,319.99999285E-3,,,,,-11.0799992E-6,-536.000013351E-3,
,,,-11.0699993E-6,319.99999285E-3,,,,,-11.0699993E-6,-536.000013351E-3,
,,,-11.0599995E-6,319.99999285E-3,,,,,-11.0599995E-6,-527.999997139E-3,
,,,-11.0499996E-6,340.00000358E-3,,,,,-11.0499996E-6,-527.999997139E-3,
,,,-11.0399997E-6,340.00000358E-3,,,,,-11.0399997E-6,-527.999997139E-3,
,,,-11.0299998E-6,340.00000358E-3,,,,,-11.0299998E-6,-527.999997139E-3,
,,,-11.0199999E-6,359.99998450E-3,,,,,-11.0199999E-6,-527.999997139E-3,
,,,-11.0100000E-6,359.99998450E-3,,,,,-11.0100000E-6,-520.000040531E-3,
,,,-11.0000001E-6,379.99999523E-3,,,,,-11.0000001E-6,-520.000040531E-3,
,,,-10.9899993E-6,379.99999523E-3,,,,,-10.9899993E-6,-527.999997139E-3,
,,,-10.9799994E-6,379.99999523E-3,,,,,-10.9799994E-6,-520.000040531E-3,
,,,-10.9699995E-6,399.99997616E-3,,,,,-10.9699995E-6,-527.999997139E-3,
,,,-10.9599996E-6,399.99997616E-3,,,,,-10.9599996E-6,-512.000024319E-3,
,,,-10.9499997E-6,419.999986887E-3,,,,,-10.9499997E-6,-520.000040531E-3,
,,,-10.9399998E-6,419.999986887E-3,,,,,-10.9399998E-6,-512.000024319E-3,
,,,-10.9299999E-6,439.999997616E-3,,,,,-10.9299999E-6,-512.000024319E-3,
,,,-10.9200000E-6,439.999997616E-3,,,,,-10.9200000E-6,-512.000024319E-3,
,,,-10.9100001E-6,439.999997616E-3,,,,,-10.9100001E-6,-512.000024319E-3,
,,,-10.8999993E-6,459.999978542E-3,,,,,-10.8999993E-6,-512.000024319E-3,
,,,-10.8899994E-6,459.999978542E-3,,,,,-10.8899994E-6,-512.000024319E-3,
,,,-10.8799995E-6,479.999989271E-3,,,,,-10.8799995E-6,-504.000008106E-3,
,,,-10.8699996E-6,479.999989271E-3,,,,,-10.8699996E-6,-512.000024319E-3,
,,,-10.8599997E-6,479.999989271E-3,,,,,-10.8599997E-6,-504.000008106E-3,
,,,-10.8499999E-6,479.999989271E-3,,,,,-10.8499999E-6,-504.000008106E-3,
,,,-10.8400000E-6,500.000000000E-3,,,,,-10.8400000E-6,-496.000021696E-3,
,,,-10.8300001E-6,500.000000000E-3,,,,,-10.8300001E-6,-504.000008106E-3,
,,,-10.8199993E-6,500.000000000E-3,,,,,-10.8199993E-6,-496.000021696E-3,
,,,-10.8099994E-6,519.999980927E-3,,,,,-10.8099994E-6,-496.000021696E-3,
,,,-10.7999995E-6,519.999980927E-3,,,,,-10.7999995E-6,-496.000021696E-3,
,,,-10.7899996E-6,539.999961853E-3,,,,,-10.7899996E-6,-496.000021696E-3,
,,,-10.7799997E-6,560.000002384E-3,,,,,-10.7799997E-6,-488.000035286E-3,
,,,-10.7699998E-6,560.000002384E-3,,,,,-10.7699998E-6,-488.000035286E-3,
,,,-10.7599999E-6,560.000002384E-3,,,,,-10.7599999E-6,-488.000035286E-3,
,,,-10.7500000E-6,560.000002384E-3,,,,,-10.7500000E-6,-480.000019073E-3,
,,,-10.7400001E-6,579.999983311E-3,,,,,-10.7400001E-6,-488.000035286E-3,
,,,-10.7299993E-6,579.999983311E-3,,,,,-10.7299993E-6,-480.000019073E-3,
,,,-10.7199994E-6,579.999983311E-3,,,,,-10.7199994E-6,-480.000019073E-3,
,,,-10.7099995E-6,599.999964237E-3,,,,,-10.7099995E-6,-480.000019073E-3,
,,,-10.6999996E-6,599.999964237E-3,,,,,-10.6999996E-6,-472.000032663E-3,
,,,-10.6899997E-6,599.999964237E-3,,,,,-10.6899997E-6,-472.000032663E-3,
,,,-10.6799998E-6,620.000004768E-3,,,,,-10.6799998E-6,-472.000032663E-3,
,,,-10.6699999E-6,620.000004768E-3,,,,,-10.6699999E-6,-472.000032663E-3,
,,,-10.6600000E-6,639.999985695E-3,,,,,-10.6600000E-6,-472.000032663E-3,
,,,-10.6500001E-6,639.999985695E-3,,,,,-10.6500001E-6,-464.000016451E-3,
,,,-10.6399993E-6,639.999985695E-3,,,,,-10.6399993E-6,-464.000016451E-3,
,,,-10.6299995E-6,659.999966621E-3,,,,,-10.6299995E-6,-464.000016451E-3,
,,,-10.6199996E-6,659.999966621E-3,,,,,-10.6199996E-6,-456.000030041E-3,
,,,-10.6099997E-6,659.999966621E-3,,,,,-10.6099997E-6,-464.000016451E-3,
,,,-10.5999998E-6,680.000007153E-3,,,,,-10.5999998E-6,-456.000030041E-3,
,,,-10.5899999E-6,680.000007153E-3,,,,,-10.5899999E-6,-456.000030041E-3,
,,,-10.5800000E-6,680.000007153E-3,,,,,-10.5800000E-6,-456.000030041E-3,
,,,-10.5700001E-6,699.999988079E-3,,,,,-10.5700001E-6,-448.000013828E-3,
,,,-10.5599993E-6,699.999988079E-3,,,,,-10.5599993E-6,-448.000013828E-3,
,,,-10.5499994E-6,719.999969006E-3,,,,,-10.5499994E-6,-448.000013828E-3,
,,,-10.5399995E-6,719.999969006E-3,,,,,-10.5399995E-6,-448.000013828E-3,
,,,-10.5299996E-6,719.999969006E-3,,,,,-10.5299996E-6,-440.000027418E-3,
,,,-10.5199997E-6,740.000009537E-3,,,,,-10.5199997E-6,-440.000027418E-3,
,,,-10.5099998E-6,740.000009537E-3,,,,,-10.5099998E-6,-440.000027418E-3,
,,,-10.4999999E-6,740.000009537E-3,,,,,-10.4999999E-6,-440.000027418E-3,
,,,-10.4900000E-6,759.999990463E-3,,,,,-10.4900000E-6,-440.000027418E-3,
,,,-10.4800001E-6,740.000009537E-3,,,,,-10.4800001E-6,-432.000011206E-3,
,,,-10.4699993E-6,779.999971390E-3,,,,,-10.4699993E-6,-424.000024796E-3,
,,,-10.4599994E-6,779.999971390E-3,,,,,-10.4599994E-6,-432.000011206E-3,
,,,-10.4499995E-6,799.999952316E-3,,,,,-10.4499995E-6,-424.000024796E-3,
,,,-10.4399996E-6,779.999971390E-3,,,,,-10.4399996E-6,-424.000024796E-3,
,,,-10.4299997E-6,799.999952316E-3,,,,,-10.4299997E-6,-424.000024796E-3,
,,,-10.4199999E-6,799.999952316E-3,,,,,-10.4199999E-6,-416.000008583E-3,
,,,-10.4100000E-6,819.999992847E-3,,,,,-10.4100000E-6,-416.000008583E-3,
,,,-10.4000001E-6,819.999992847E-3,,,,,-10.4000001E-6,-416.000008583E-3,
,,,-10.3899993E-6,819.999992847E-3,,,,,-10.3899993E-6,-416.000008583E-3,
,,,-10.3799994E-6,819.999992847E-3,,,,,-10.3799994E-6,-416.000008583E-3,
,,,-10.3699995E-6,839.999973774E-3,,,,,-10.3699995E-6,-408.000022173E-3,
,,,-10.3599996E-6,839.999973774E-3,,,,,-10.3599996E-6,-408.000022173E-3,
,,,-10.3499997E-6,839.999973774E-3,,,,,-10.3499997E-6,-408.000022173E-3,
,,,-10.3399998E-6,839.999973774E-3,,,,,-10.3399998E-6,-400.00000596E-3,
,,,-10.3299999E-6,859.999954700E-3,,,,,-10.3299999E-6,-400.00000596E-3,
,,,-10.3200000E-6,859.999954700E-3,,,,,-10.3200000E-6,-400.00000596E-3,
,,,-10.3100001E-6,879.999995232E-3,,,,,-10.3100001E-6,-400.00000596E-3,
,,,-10.2999993E-6,879.999995232E-3,,,,,-10.2999993E-6,-392.00001955E-3,
,,,-10.2899994E-6,879.999995232E-3,,,,,-10.2899994E-6,-392.00001955E-3,
,,,-10.2799995E-6,879.999995232E-3,,,,,-10.2799995E-6,-384.00000334E-3,
,,,-10.2699996E-6,899.999976158E-3,,,,,-10.2699996E-6,-384.00000334E-3,
,,,-10.2599997E-6,899.999976158E-3,,,,,-10.2599997E-6,-384.00000334E-3,
,,,-10.2499998E-6,899.999976158E-3,,,,,-10.2499998E-6,-384.00000334E-3,
,,,-10.2399999E-6,919.999957085E-3,,,,,-10.2399999E-6,-376.00001693E-3,
,,,-10.2300000E-6,939.999997616E-3,,,,,-10.2300000E-6,-376.00001693E-3,
,,,-10.2200001E-6,919.999957085E-3,,,,,-10.2200001E-6,-376.00001693E-3,
,,,-10.2099993E-6,919.999957085E-3,,,,,-10.2099993E-6,-368.00003052E-3,
,,,-10.1999995E-6,939.999997616E-3,,,,,-10.1999995E-6,-368.00003052E-3,
,,,-10.1899996E-6,939.999997616E-3,,,,,-10.1899996E-6,-368.00003052E-3,
,,,-10.1799997E-6,939.999997616E-3,,,,,-10.1799997E-6,-360.00001431E-3,
,,,-10.1699998E-6,959.999978542E-3,,,,,-10.1699998E-6,-360.00001431E-3,
,,,-10.1599999E-6,959.999978542E-3,,,,,-10.1599999E-6,-360.00001431E-3,
,,,-10.1500000E-6,979.999959469E-3,,,,,-10.1500000E-6,-360.00001431E-3,
,,,-10.1400001E-6,979.999959469E-3,,,,,-10.1400001E-6,-352.00002789E-3,
,,,-10.1299993E-6,979.999959469E-3,,,,,-10.1299993E-6,-352.00002789E-3,
,,,-10.1199994E-6,1.000000,,,,,-10.1199994E-6,-352.00002789E-3,
,,,-10.1099995E-6,979.999959469E-3,,,,,-10.1099995E-6,-344.00001168E-3,
,,,-10.0999996E-6,1.000000,,,,,-10.0999996E-6,-344.00001168E-3,
,,,-10.0899997E-6,1.000000,,,,,-10.0899997E-6,-336.00002527E-3,
,,,-10.0799998E-6,1.0200000,,,,,-10.0799998E-6,-336.00002527E-3,
,,,-10.0699999E-6,1.0200000,,,,,-10.0699999E-6,-336.00002527E-3,
,,,-10.0600000E-6,1.0200000,,,,,-10.0600000E-6,-336.00002527E-3,
,,,-10.0500001E-6,1.0400000,,,,,-10.0500001E-6,-328.00000906E-3,
,,,-10.0399993E-6,1.0400000,,,,,-10.0399993E-6,-328.00000906E-3,
,,,-10.0299994E-6,1.0400000,,,,,-10.0299994E-6,-328.00000906E-3,
,,,-10.0199995E-6,1.0400000,,,,,-10.0199995E-6,-320.00002265E-3,
,,,-10.0099996E-6,1.0599999,,,,,-10.0099996E-6,-320.00002265E-3,
,,,-9.999999747E-6,1.0599999,,,,,-9.999999747E-6,-320.00002265E-3,
,,,-9.989999853E-6,1.0599999,,,,,-9.989999853E-6,-312.00000644E-3,
,,,-9.979999959E-6,1.0799999,,,,,-9.979999959E-6,-312.00000644E-3,
,,,-9.970000065E-6,1.0799999,,,,,-9.970000065E-6,-304.00002003E-3,
,,,-9.959999261E-6,1.0799999,,,,,-9.959999261E-6,-304.00002003E-3,
,,,-9.949999367E-6,1.0799999,,,,,-9.949999367E-6,-304.00002003E-3,
,,,-9.939999472E-6,1.0799999,,,,,-9.939999472E-6,-304.00002003E-3,
,,,-9.929999578E-6,1.1000000,,,,,-9.929999578E-6,-296.00000381E-3,
,,,-9.919999684E-6,1.1200000,,,,,-9.919999684E-6,-296.00000381E-3,
,,,-9.909999790E-6,1.1000000,,,,,-9.909999790E-6,-296.00000381E-3,
,,,-9.899999895E-6,1.1000000,,,,,-9.899999895E-6,-288.00001740E-3,
,,,-9.890000001E-6,1.1200000,,,,,-9.890000001E-6,-288.00001740E-3,
,,,-9.880000107E-6,1.1200000,,,,,-9.880000107E-6,-280.00000119E-3,
,,,-9.869999303E-6,1.1200000,,,,,-9.869999303E-6,-280.00000119E-3,
,,,-9.859999409E-6,1.1200000,,,,,-9.859999409E-6,-280.00000119E-3,
,,,-9.849999515E-6,1.1400000,,,,,-9.849999515E-6,-272.00001478E-3,
,,,-9.839999620E-6,1.1400000,,,,,-9.839999620E-6,-272.00001478E-3,
,,,-9.829999726E-6,1.1400000,,,,,-9.829999726E-6,-263.99999857E-3,
,,,-9.819999832E-6,1.1600000,,,,,-9.819999832E-6,-263.99999857E-3,
