primer_informe/clase3/barrido_rlc_serie/compacto/110kHz.csv

Record Length,2500,Points,-22.50000034E-6,719.999969006E-3,,Record Length,2500,Points,-22.50000034E-6,-379.99999523E-3,
Sample Interval,9.999999939E-9,s,-22.48999954E-6,719.999969006E-3,,Sample Interval,9.999999939E-9,s,-22.48999954E-6,-379.99999523E-3,
Trigger Point,2.2500002E3,Samples,-22.48000055E-6,719.999969006E-3,,Trigger Point,2.2500002E3,Samples,-22.48000055E-6,-379.99999523E-3,
,,,-22.46999975E-6,740.000009537E-3,,,,,-22.46999975E-6,-399.99997616E-3,
,,,-22.46000076E-6,719.999969006E-3,,,,,-22.46000076E-6,-419.999986887E-3,
,,,-22.44999996E-6,719.999969006E-3,,,,,-22.44999996E-6,-419.999986887E-3,
Source,CH1,,-22.44000098E-6,719.999969006E-3,,Source,CH2,,-22.44000098E-6,-419.999986887E-3,
Vertical Units,Volts,,-22.43000017E-6,719.999969006E-3,,Vertical Units,Volts,,-22.43000017E-6,-439.999997616E-3,
Vertical Scale,499.999988824E-3,,-22.42000119E-6,719.999969006E-3,,Vertical Scale,499.999988824E-3,,-22.42000119E-6,-439.999997616E-3,
Vertical Offset,0,,-22.41000038E-6,699.999988079E-3,,Vertical Offset,0,,-22.41000038E-6,-459.999978542E-3,
Horizontal Units,s,,-22.39999958E-6,699.999988079E-3,,Horizontal Units,s,,-22.39999958E-6,-479.999989271E-3,
Horizontal Scale,2.5000000E-6,,-22.39000059E-6,699.999988079E-3,,Horizontal Scale,2.5000000E-6,,-22.39000059E-6,-479.999989271E-3,
Pt Fmt,Y,,-22.37999979E-6,699.999988079E-3,,Pt Fmt,Y,,-22.37999979E-6,-479.999989271E-3,
Yzero,0.0,,-22.37000081E-6,680.000007153E-3,,Yzero,0.0,,-22.37000081E-6,-500.000000000E-3,
Probe Atten,1.000000,,-22.36000000E-6,680.000007153E-3,,Probe Atten,1.000000,,-22.36000000E-6,-500.000000000E-3,
,,,-22.35000102E-6,680.000007153E-3,,,,,-22.35000102E-6,-519.999980927E-3,
Note,TBS 1052B-EDU - 02:41:52 p.m.   05/09/2022,,-22.34000021E-6,680.000007153E-3,,Note,TBS 1052B-EDU - 02:41:52 p.m.   05/09/2022,,-22.34000021E-6,-519.999980927E-3,
,,,-22.33000123E-6,680.000007153E-3,,,,,-22.33000123E-6,-539.999961853E-3,
,,,-22.32000043E-6,680.000007153E-3,,,,,-22.32000043E-6,-539.999961853E-3,
,,,-22.30999962E-6,659.999966621E-3,,,,,-22.30999962E-6,-560.000002384E-3,
,,,-22.30000064E-6,659.999966621E-3,,,,,-22.30000064E-6,-539.999961853E-3,
,,,-22.28999983E-6,659.999966621E-3,,,,,-22.28999983E-6,-560.000002384E-3,
,,,-22.28000085E-6,659.999966621E-3,,,,,-22.28000085E-6,-579.999983311E-3,
,,,-22.27000004E-6,639.999985695E-3,,,,,-22.27000004E-6,-579.999983311E-3,
,,,-22.26000106E-6,639.999985695E-3,,,,,-22.26000106E-6,-579.999983311E-3,
,,,-22.25000026E-6,639.999985695E-3,,,,,-22.25000026E-6,-599.999964237E-3,
,,,-22.23999945E-6,639.999985695E-3,,,,,-22.23999945E-6,-620.000004768E-3,
,,,-22.23000047E-6,639.999985695E-3,,,,,-22.23000047E-6,-620.000004768E-3,
,,,-22.21999966E-6,639.999985695E-3,,,,,-22.21999966E-6,-639.999985695E-3,
,,,-22.21000068E-6,639.999985695E-3,,,,,-22.21000068E-6,-639.999985695E-3,
,,,-22.19999988E-6,620.000004768E-3,,,,,-22.19999988E-6,-639.999985695E-3,
,,,-22.19000089E-6,620.000004768E-3,,,,,-22.19000089E-6,-659.999966621E-3,
,,,-22.18000009E-6,620.000004768E-3,,,,,-22.18000009E-6,-659.999966621E-3,
,,,-22.17000110E-6,620.000004768E-3,,,,,-22.17000110E-6,-680.000007153E-3,
,,,-22.16000030E-6,599.999964237E-3,,,,,-22.16000030E-6,-680.000007153E-3,
,,,-22.14999950E-6,599.999964237E-3,,,,,-22.14999950E-6,-680.000007153E-3,
,,,-22.14000051E-6,599.999964237E-3,,,,,-22.14000051E-6,-699.999988079E-3,
,,,-22.12999971E-6,599.999964237E-3,,,,,-22.12999971E-6,-719.999969006E-3,
,,,-22.12000072E-6,599.999964237E-3,,,,,-22.12000072E-6,-719.999969006E-3,
,,,-22.10999992E-6,579.999983311E-3,,,,,-22.10999992E-6,-719.999969006E-3,
,,,-22.10000093E-6,579.999983311E-3,,,,,-22.10000093E-6,-740.000009537E-3,
,,,-22.09000013E-6,579.999983311E-3,,,,,-22.09000013E-6,-740.000009537E-3,
,,,-22.08000114E-6,579.999983311E-3,,,,,-22.08000114E-6,-740.000009537E-3,
,,,-22.07000034E-6,560.000002384E-3,,,,,-22.07000034E-6,-759.999990463E-3,
,,,-22.05999954E-6,560.000002384E-3,,,,,-22.05999954E-6,-759.999990463E-3,
,,,-22.05000055E-6,560.000002384E-3,,,,,-22.05000055E-6,-779.999971390E-3,
,,,-22.03999975E-6,560.000002384E-3,,,,,-22.03999975E-6,-759.999990463E-3,
,,,-22.03000076E-6,560.000002384E-3,,,,,-22.03000076E-6,-799.999952316E-3,
,,,-22.01999996E-6,539.999961853E-3,,,,,-22.01999996E-6,-779.999971390E-3,
,,,-22.01000098E-6,539.999961853E-3,,,,,-22.01000098E-6,-799.999952316E-3,
,,,-22.00000017E-6,539.999961853E-3,,,,,-22.00000017E-6,-799.999952316E-3,
,,,-21.99000119E-6,539.999961853E-3,,,,,-21.99000119E-6,-819.999992847E-3,
,,,-21.98000038E-6,519.999980927E-3,,,,,-21.98000038E-6,-839.999973774E-3,
,,,-21.96999958E-6,519.999980927E-3,,,,,-21.96999958E-6,-839.999973774E-3,
,,,-21.96000059E-6,519.999980927E-3,,,,,-21.96000059E-6,-839.999973774E-3,
,,,-21.94999979E-6,519.999980927E-3,,,,,-21.94999979E-6,-839.999973774E-3,
,,,-21.94000081E-6,500.000000000E-3,,,,,-21.94000081E-6,-859.999954700E-3,
,,,-21.93000000E-6,500.000000000E-3,,,,,-21.93000000E-6,-859.999954700E-3,
,,,-21.92000102E-6,500.000000000E-3,,,,,-21.92000102E-6,-879.999995232E-3,
,,,-21.91000021E-6,500.000000000E-3,,,,,-21.91000021E-6,-879.999995232E-3,
,,,-21.90000123E-6,479.999989271E-3,,,,,-21.90000123E-6,-899.999976158E-3,
,,,-21.89000043E-6,479.999989271E-3,,,,,-21.89000043E-6,-899.999976158E-3,
,,,-21.87999962E-6,479.999989271E-3,,,,,-21.87999962E-6,-899.999976158E-3,
,,,-21.87000064E-6,459.999978542E-3,,,,,-21.87000064E-6,-899.999976158E-3,
,,,-21.85999983E-6,459.999978542E-3,,,,,-21.85999983E-6,-939.999997616E-3,
,,,-21.85000085E-6,459.999978542E-3,,,,,-21.85000085E-6,-939.999997616E-3,
,,,-21.84000004E-6,459.999978542E-3,,,,,-21.84000004E-6,-939.999997616E-3,
,,,-21.83000106E-6,459.999978542E-3,,,,,-21.83000106E-6,-939.999997616E-3,
,,,-21.82000026E-6,439.999997616E-3,,,,,-21.82000026E-6,-959.999978542E-3,
,,,-21.80999945E-6,439.999997616E-3,,,,,-21.80999945E-6,-959.999978542E-3,
,,,-21.80000047E-6,439.999997616E-3,,,,,-21.80000047E-6,-959.999978542E-3,
,,,-21.78999966E-6,439.999997616E-3,,,,,-21.78999966E-6,-979.999959469E-3,
,,,-21.78000068E-6,439.999997616E-3,,,,,-21.78000068E-6,-979.999959469E-3,
,,,-21.76999988E-6,419.999986887E-3,,,,,-21.76999988E-6,-979.999959469E-3,
,,,-21.76000089E-6,419.999986887E-3,,,,,-21.76000089E-6,-1.000000,
,,,-21.75000009E-6,419.999986887E-3,,,,,-21.75000009E-6,-1.000000,
,,,-21.74000110E-6,399.99997616E-3,,,,,-21.74000110E-6,-1.000000,
,,,-21.73000030E-6,399.99997616E-3,,,,,-21.73000030E-6,-1.0200000,
,,,-21.71999949E-6,399.99997616E-3,,,,,-21.71999949E-6,-1.0200000,
,,,-21.71000051E-6,379.99999523E-3,,,,,-21.71000051E-6,-1.0400000,
,,,-21.69999971E-6,379.99999523E-3,,,,,-21.69999971E-6,-1.0400000,
,,,-21.69000072E-6,379.99999523E-3,,,,,-21.69000072E-6,-1.0400000,
,,,-21.67999992E-6,359.99998450E-3,,,,,-21.67999992E-6,-1.0599999,
,,,-21.67000093E-6,379.99999523E-3,,,,,-21.67000093E-6,-1.0400000,
,,,-21.66000013E-6,359.99998450E-3,,,,,-21.66000013E-6,-1.0599999,
,,,-21.65000114E-6,359.99998450E-3,,,,,-21.65000114E-6,-1.0799999,
,,,-21.64000034E-6,359.99998450E-3,,,,,-21.64000034E-6,-1.0799999,
,,,-21.62999954E-6,359.99998450E-3,,,,,-21.62999954E-6,-1.0799999,
,,,-21.62000055E-6,340.00000358E-3,,,,,-21.62000055E-6,-1.1000000,
,,,-21.60999975E-6,340.00000358E-3,,,,,-21.60999975E-6,-1.1000000,
,,,-21.60000076E-6,340.00000358E-3,,,,,-21.60000076E-6,-1.1000000,
,,,-21.58999996E-6,319.99999285E-3,,,,,-21.58999996E-6,-1.1000000,
,,,-21.58000098E-6,319.99999285E-3,,,,,-21.58000098E-6,-1.1200000,
,,,-21.57000017E-6,319.99999285E-3,,,,,-21.57000017E-6,-1.1200000,
,,,-21.56000119E-6,319.99999285E-3,,,,,-21.56000119E-6,-1.1200000,
,,,-21.55000038E-6,299.99998212E-3,,,,,-21.55000038E-6,-1.1400000,
,,,-21.53999958E-6,299.99998212E-3,,,,,-21.53999958E-6,-1.1400000,
,,,-21.53000059E-6,299.99998212E-3,,,,,-21.53000059E-6,-1.1400000,
,,,-21.51999979E-6,299.99998212E-3,,,,,-21.51999979E-6,-1.1600000,
,,,-21.51000081E-6,280.00000119E-3,,,,,-21.51000081E-6,-1.1600000,
,,,-21.50000000E-6,280.00000119E-3,,,,,-21.50000000E-6,-1.1600000,
,,,-21.49000102E-6,280.00000119E-3,,,,,-21.49000102E-6,-1.1799999,
,,,-21.48000021E-6,280.00000119E-3,,,,,-21.48000021E-6,-1.1600000,
,,,-21.47000123E-6,259.99999046E-3,,,,,-21.47000123E-6,-1.1999999,
,,,-21.46000043E-6,259.99999046E-3,,,,,-21.46000043E-6,-1.1799999,
,,,-21.44999962E-6,259.99999046E-3,,,,,-21.44999962E-6,-1.1999999,
,,,-21.44000064E-6,239.99999464E-3,,,,,-21.44000064E-6,-1.1799999,
,,,-21.42999983E-6,239.99999464E-3,,,,,-21.42999983E-6,-1.1999999,
,,,-21.42000085E-6,239.99999464E-3,,,,,-21.42000085E-6,-1.1999999,
,,,-21.41000004E-6,219.99999881E-3,,,,,-21.41000004E-6,-1.2200000,
,,,-21.40000106E-6,219.99999881E-3,,,,,-21.40000106E-6,-1.1999999,
,,,-21.39000026E-6,199.99998808E-3,,,,,-21.39000026E-6,-1.2200000,
,,,-21.37999945E-6,199.99998808E-3,,,,,-21.37999945E-6,-1.2200000,
,,,-21.37000047E-6,219.99999881E-3,,,,,-21.37000047E-6,-1.2400000,
,,,-21.35999966E-6,199.99998808E-3,,,,,-21.35999966E-6,-1.2400000,
,,,-21.35000068E-6,199.99998808E-3,,,,,-21.35000068E-6,-1.2400000,
,,,-21.33999988E-6,179.99999225E-3,,,,,-21.33999988E-6,-1.2600000,
,,,-21.33000089E-6,179.99999225E-3,,,,,-21.33000089E-6,-1.2600000,
,,,-21.32000009E-6,179.99999225E-3,,,,,-21.32000009E-6,-1.2600000,
,,,-21.31000110E-6,159.99999642E-3,,,,,-21.31000110E-6,-1.2600000,
,,,-21.30000030E-6,159.99999642E-3,,,,,-21.30000030E-6,-1.2800000,
,,,-21.28999949E-6,159.99999642E-3,,,,,-21.28999949E-6,-1.2800000,
,,,-21.28000051E-6,159.99999642E-3,,,,,-21.28000051E-6,-1.2800000,
,,,-21.26999971E-6,159.99999642E-3,,,,,-21.26999971E-6,-1.2800000,
,,,-21.26000072E-6,140.0000006E-3,,,,,-21.26000072E-6,-1.2800000,
,,,-21.24999992E-6,140.0000006E-3,,,,,-21.24999992E-6,-1.2800000,
,,,-21.24000093E-6,140.0000006E-3,,,,,-21.24000093E-6,-1.3000000,
,,,-21.23000013E-6,119.9999973E-3,,,,,-21.23000013E-6,-1.2800000,
,,,-21.22000114E-6,99.999994040E-3,,,,,-21.22000114E-6,-1.3000000,
,,,-21.21000034E-6,99.999994040E-3,,,,,-21.21000034E-6,-1.3000000,
,,,-21.19999954E-6,99.999994040E-3,,,,,-21.19999954E-6,-1.3000000,
,,,-21.19000055E-6,99.999994040E-3,,,,,-21.19000055E-6,-1.3199999,
,,,-21.17999975E-6,99.999994040E-3,,,,,-21.17999975E-6,-1.3199999,
,,,-21.17000076E-6,99.999994040E-3,,,,,-21.17000076E-6,-1.3399999,
,,,-21.15999996E-6,79.999998212E-3,,,,,-21.15999996E-6,-1.3199999,
,,,-21.15000098E-6,59.999998659E-3,,,,,-21.15000098E-6,-1.3399999,
,,,-21.14000017E-6,59.999998659E-3,,,,,-21.14000017E-6,-1.3399999,
,,,-21.13000119E-6,59.999998659E-3,,,,,-21.13000119E-6,-1.3399999,
,,,-21.12000038E-6,59.999998659E-3,,,,,-21.12000038E-6,-1.3399999,
,,,-21.10999958E-6,39.99999911E-3,,,,,-21.10999958E-6,-1.3399999,
,,,-21.10000059E-6,39.99999911E-3,,,,,-21.10000059E-6,-1.3399999,
,,,-21.08999979E-6,39.99999911E-3,,,,,-21.08999979E-6,-1.3399999,
,,,-21.08000081E-6,39.99999911E-3,,,,,-21.08000081E-6,-1.3399999,
,,,-21.07000000E-6,39.99999911E-3,,,,,-21.07000000E-6,-1.3399999,
,,,-21.06000102E-6,19.9999996E-3,,,,,-21.06000102E-6,-1.3600000,
,,,-21.05000021E-6,0.0,,,,,-21.05000021E-6,-1.3600000,
,,,-21.04000123E-6,19.9999996E-3,,,,,-21.04000123E-6,-1.3600000,
,,,-21.03000043E-6,19.9999996E-3,,,,,-21.03000043E-6,-1.3600000,
,,,-21.01999962E-6,0.0,,,,,-21.01999962E-6,-1.3800000,
,,,-21.01000064E-6,0.0,,,,,-21.01000064E-6,-1.3800000,
,,,-20.99999983E-6,-19.9999996E-3,,,,,-20.99999983E-6,-1.3800000,
,,,-20.99000085E-6,-19.9999996E-3,,,,,-20.99000085E-6,-1.3600000,
,,,-20.98000004E-6,-19.9999996E-3,,,,,-20.98000004E-6,-1.3800000,
,,,-20.97000106E-6,-39.99999911E-3,,,,,-20.97000106E-6,-1.3800000,
,,,-20.96000026E-6,-39.99999911E-3,,,,,-20.96000026E-6,-1.3800000,
,,,-20.94999945E-6,-39.99999911E-3,,,,,-20.94999945E-6,-1.3800000,
,,,-20.94000047E-6,-39.99999911E-3,,,,,-20.94000047E-6,-1.4000000,
,,,-20.92999966E-6,-59.999998659E-3,,,,,-20.92999966E-6,-1.4000000,
,,,-20.92000068E-6,-59.999998659E-3,,,,,-20.92000068E-6,-1.3800000,
,,,-20.90999988E-6,-59.999998659E-3,,,,,-20.90999988E-6,-1.4000000,
,,,-20.90000089E-6,-59.999998659E-3,,,,,-20.90000089E-6,-1.4000000,
,,,-20.89000009E-6,-79.999998212E-3,,,,,-20.89000009E-6,-1.4000000,
,,,-20.88000110E-6,-79.999998212E-3,,,,,-20.88000110E-6,-1.4000000,
,,,-20.87000030E-6,-99.999994040E-3,,,,,-20.87000030E-6,-1.4000000,
,,,-20.85999949E-6,-99.999994040E-3,,,,,-20.85999949E-6,-1.4000000,
,,,-20.85000051E-6,-99.999994040E-3,,,,,-20.85000051E-6,-1.4000000,
,,,-20.83999971E-6,-119.9999973E-3,,,,,-20.83999971E-6,-1.4200000,
,,,-20.83000072E-6,-99.999994040E-3,,,,,-20.83000072E-6,-1.4200000,
,,,-20.81999992E-6,-119.9999973E-3,,,,,-20.81999992E-6,-1.4000000,
,,,-20.81000093E-6,-119.9999973E-3,,,,,-20.81000093E-6,-1.4200000,
,,,-20.80000013E-6,-119.9999973E-3,,,,,-20.80000013E-6,-1.4200000,
,,,-20.79000114E-6,-140.0000006E-3,,,,,-20.79000114E-6,-1.4200000,
,,,-20.78000034E-6,-140.0000006E-3,,,,,-20.78000034E-6,-1.4200000,
,,,-20.76999954E-6,-159.99999642E-3,,,,,-20.76999954E-6,-1.4200000,
,,,-20.76000055E-6,-159.99999642E-3,,,,,-20.76000055E-6,-1.4200000,
,,,-20.74999975E-6,-159.99999642E-3,,,,,-20.74999975E-6,-1.4200000,
,,,-20.74000076E-6,-179.99999225E-3,,,,,-20.74000076E-6,-1.4200000,
,,,-20.72999996E-6,-159.99999642E-3,,,,,-20.72999996E-6,-1.4200000,
,,,-20.72000098E-6,-179.99999225E-3,,,,,-20.72000098E-6,-1.4200000,
,,,-20.71000017E-6,-179.99999225E-3,,,,,-20.71000017E-6,-1.4200000,
,,,-20.70000119E-6,-199.99998808E-3,,,,,-20.70000119E-6,-1.4200000,
,,,-20.69000038E-6,-199.99998808E-3,,,,,-20.69000038E-6,-1.4200000,
,,,-20.67999958E-6,-199.99998808E-3,,,,,-20.67999958E-6,-1.4200000,
,,,-20.67000059E-6,-199.99998808E-3,,,,,-20.67000059E-6,-1.4200000,
,,,-20.65999979E-6,-219.99999881E-3,,,,,-20.65999979E-6,-1.4200000,
,,,-20.65000081E-6,-219.99999881E-3,,,,,-20.65000081E-6,-1.4399999,
,,,-20.64000000E-6,-219.99999881E-3,,,,,-20.64000000E-6,-1.4200000,
,,,-20.63000102E-6,-219.99999881E-3,,,,,-20.63000102E-6,-1.4399999,
,,,-20.62000021E-6,-239.99999464E-3,,,,,-20.62000021E-6,-1.4399999,
,,,-20.61000123E-6,-239.99999464E-3,,,,,-20.61000123E-6,-1.4399999,
,,,-20.60000043E-6,-239.99999464E-3,,,,,-20.60000043E-6,-1.4200000,
,,,-20.58999962E-6,-259.99999046E-3,,,,,-20.58999962E-6,-1.4399999,
,,,-20.58000064E-6,-259.99999046E-3,,,,,-20.58000064E-6,-1.4399999,
,,,-20.56999983E-6,-259.99999046E-3,,,,,-20.56999983E-6,-1.4399999,
,,,-20.56000085E-6,-280.00000119E-3,,,,,-20.56000085E-6,-1.4399999,
,,,-20.55000004E-6,-280.00000119E-3,,,,,-20.55000004E-6,-1.4399999,
,,,-20.54000106E-6,-280.00000119E-3,,,,,-20.54000106E-6,-1.4200000,
,,,-20.53000026E-6,-299.99998212E-3,,,,,-20.53000026E-6,-1.4200000,
,,,-20.51999945E-6,-299.99998212E-3,,,,,-20.51999945E-6,-1.4399999,
,,,-20.51000047E-6,-299.99998212E-3,,,,,-20.51000047E-6,-1.4200000,
,,,-20.49999966E-6,-299.99998212E-3,,,,,-20.49999966E-6,-1.4200000,
,,,-20.49000068E-6,-299.99998212E-3,,,,,-20.49000068E-6,-1.4000000,
,,,-20.47999988E-6,-319.99999285E-3,,,,,-20.47999988E-6,-1.4200000,
,,,-20.47000089E-6,-319.99999285E-3,,,,,-20.47000089E-6,-1.4200000,
,,,-20.46000009E-6,-340.00000358E-3,,,,,-20.46000009E-6,-1.4200000,
,,,-20.45000110E-6,-340.00000358E-3,,,,,-20.45000110E-6,-1.4200000,
,,,-20.44000030E-6,-319.99999285E-3,,,,,-20.44000030E-6,-1.4200000,
,,,-20.42999949E-6,-340.00000358E-3,,,,,-20.42999949E-6,-1.4200000,
,,,-20.42000051E-6,-340.00000358E-3,,,,,-20.42000051E-6,-1.4200000,
,,,-20.40999971E-6,-359.99998450E-3,,,,,-20.40999971E-6,-1.4200000,
,,,-20.40000072E-6,-359.99998450E-3,,,,,-20.40000072E-6,-1.4200000,
,,,-20.38999992E-6,-359.99998450E-3,,,,,-20.38999992E-6,-1.4000000,
,,,-20.38000093E-6,-379.99999523E-3,,,,,-20.38000093E-6,-1.4000000,
,,,-20.37000013E-6,-359.99998450E-3,,,,,-20.37000013E-6,-1.4200000,
,,,-20.36000114E-6,-379.99999523E-3,,,,,-20.36000114E-6,-1.4000000,
,,,-20.35000034E-6,-379.99999523E-3,,,,,-20.35000034E-6,-1.4000000,
,,,-20.33999954E-6,-399.99997616E-3,,,,,-20.33999954E-6,-1.4200000,
,,,-20.33000055E-6,-399.99997616E-3,,,,,-20.33000055E-6,-1.4000000,
,,,-20.31999975E-6,-399.99997616E-3,,,,,-20.31999975E-6,-1.4000000,
,,,-20.31000076E-6,-419.999986887E-3,,,,,-20.31000076E-6,-1.4000000,
,,,-20.29999996E-6,-419.999986887E-3,,,,,-20.29999996E-6,-1.4000000,
,,,-20.29000098E-6,-419.999986887E-3,,,,,-20.29000098E-6,-1.4000000,
,,,-20.28000017E-6,-419.999986887E-3,,,,,-20.28000017E-6,-1.4000000,
,,,-20.27000119E-6,-419.999986887E-3,,,,,-20.27000119E-6,-1.4000000,
,,,-20.26000038E-6,-439.999997616E-3,,,,,-20.26000038E-6,-1.4000000,
,,,-20.24999958E-6,-439.999997616E-3,,,,,-20.24999958E-6,-1.3800000,
,,,-20.24000059E-6,-439.999997616E-3,,,,,-20.24000059E-6,-1.4000000,
,,,-20.22999979E-6,-459.999978542E-3,,,,,-20.22999979E-6,-1.3800000,
,,,-20.22000081E-6,-459.999978542E-3,,,,,-20.22000081E-6,-1.3800000,
,,,-20.21000000E-6,-459.999978542E-3,,,,,-20.21000000E-6,-1.3800000,
,,,-20.20000102E-6,-459.999978542E-3,,,,,-20.20000102E-6,-1.3800000,
,,,-20.19000021E-6,-479.999989271E-3,,,,,-20.19000021E-6,-1.3800000,
,,,-20.18000123E-6,-459.999978542E-3,,,,,-20.18000123E-6,-1.3800000,
,,,-20.17000043E-6,-479.999989271E-3,,,,,-20.17000043E-6,-1.3800000,
,,,-20.15999962E-6,-479.999989271E-3,,,,,-20.15999962E-6,-1.3800000,
,,,-20.15000064E-6,-500.000000000E-3,,,,,-20.15000064E-6,-1.3800000,
,,,-20.13999983E-6,-500.000000000E-3,,,,,-20.13999983E-6,-1.3600000,
,,,-20.13000085E-6,-500.000000000E-3,,,,,-20.13000085E-6,-1.3399999,
,,,-20.12000004E-6,-519.999980927E-3,,,,,-20.12000004E-6,-1.3600000,
,,,-20.11000106E-6,-500.000000000E-3,,,,,-20.11000106E-6,-1.3600000,
,,,-20.10000026E-6,-519.999980927E-3,,,,,-20.10000026E-6,-1.3399999,
,,,-20.08999945E-6,-519.999980927E-3,,,,,-20.08999945E-6,-1.3399999,
,,,-20.0800005E-6,-519.999980927E-3,,,,,-20.0800005E-6,-1.3399999,
,,,-20.0699997E-6,-539.999961853E-3,,,,,-20.0699997E-6,-1.3600000,
,,,-20.0600007E-6,-539.999961853E-3,,,,,-20.0600007E-6,-1.3399999,
,,,-20.0499999E-6,-539.999961853E-3,,,,,-20.0499999E-6,-1.3399999,
,,,-20.0400009E-6,-539.999961853E-3,,,,,-20.0400009E-6,-1.3199999,
,,,-20.0300001E-6,-539.999961853E-3,,,,,-20.0300001E-6,-1.3399999,
,,,-20.0200011E-6,-560.000002384E-3,,,,,-20.0200011E-6,-1.3199999,
,,,-20.0100003E-6,-560.000002384E-3,,,,,-20.0100003E-6,-1.3199999,
,,,-19.9999995E-6,-579.999983311E-3,,,,,-19.9999995E-6,-1.3199999,
,,,-19.9900005E-6,-579.999983311E-3,,,,,-19.9900005E-6,-1.3199999,
,,,-19.9799997E-6,-560.000002384E-3,,,,,-19.9799997E-6,-1.3000000,
,,,-19.9700007E-6,-579.999983311E-3,,,,,-19.9700007E-6,-1.2800000,
,,,-19.9599999E-6,-579.999983311E-3,,,,,-19.9599999E-6,-1.3000000,
,,,-19.9500009E-6,-579.999983311E-3,,,,,-19.9500009E-6,-1.2800000,
,,,-19.9400001E-6,-599.999964237E-3,,,,,-19.9400001E-6,-1.3000000,
,,,-19.9300011E-6,-579.999983311E-3,,,,,-19.9300011E-6,-1.2800000,
,,,-19.9200003E-6,-599.999964237E-3,,,,,-19.9200003E-6,-1.2800000,
,,,-19.9099995E-6,-599.999964237E-3,,,,,-19.9099995E-6,-1.2800000,
,,,-19.9000006E-6,-599.999964237E-3,,,,,-19.9000006E-6,-1.2800000,
,,,-19.8899997E-6,-620.000004768E-3,,,,,-19.8899997E-6,-1.2600000,
,,,-19.8800008E-6,-620.000004768E-3,,,,,-19.8800008E-6,-1.2600000,
,,,-19.8700000E-6,-620.000004768E-3,,,,,-19.8700000E-6,-1.2600000,
,,,-19.8600010E-6,-639.999985695E-3,,,,,-19.8600010E-6,-1.2600000,
,,,-19.8500002E-6,-620.000004768E-3,,,,,-19.8500002E-6,-1.2400000,
,,,-19.8400012E-6,-639.999985695E-3,,,,,-19.8400012E-6,-1.2400000,
,,,-19.8300004E-6,-639.999985695E-3,,,,,-19.8300004E-6,-1.2400000,
,,,-19.8199996E-6,-639.999985695E-3,,,,,-19.8199996E-6,-1.2200000,
,,,-19.8100006E-6,-639.999985695E-3,,,,,-19.8100006E-6,-1.2400000,
,,,-19.7999998E-6,-659.999966621E-3,,,,,-19.7999998E-6,-1.2200000,
,,,-19.7900008E-6,-659.999966621E-3,,,,,-19.7900008E-6,-1.2200000,
,,,-19.7800000E-6,-659.999966621E-3,,,,,-19.7800000E-6,-1.2200000,
,,,-19.7700010E-6,-659.999966621E-3,,,,,-19.7700010E-6,-1.1999999,
,,,-19.7600002E-6,-659.999966621E-3,,,,,-19.7600002E-6,-1.1999999,
,,,-19.7500012E-6,-680.000007153E-3,,,,,-19.7500012E-6,-1.1999999,
,,,-19.7400004E-6,-680.000007153E-3,,,,,-19.7400004E-6,-1.1999999,
,,,-19.7299996E-6,-680.000007153E-3,,,,,-19.7299996E-6,-1.1799999,
,,,-19.7200006E-6,-680.000007153E-3,,,,,-19.7200006E-6,-1.1799999,
,,,-19.7099998E-6,-680.000007153E-3,,,,,-19.7099998E-6,-1.1799999,
