primer_informe/clase3/barrido_rlc_serie/compacto/9kHz.csv

Record Length,2500,Points,-224.99999614E-6,-199.99998808E-3,,Record Length,2500,Points,-224.99999614E-6,-119.9999973E-3,
Sample Interval,100.0000012E-9,s,-224.89999537E-6,-199.99998808E-3,,Sample Interval,100.0000012E-9,s,-224.89999537E-6,-99.999994040E-3,
Trigger Point,2.2500000E3,Samples,-224.79999461E-6,-179.99999225E-3,,Trigger Point,2.2500000E3,Samples,-224.79999461E-6,-79.999998212E-3,
,,,-224.69999385E-6,-199.99998808E-3,,,,,-224.69999385E-6,-79.999998212E-3,
,,,-224.59999309E-6,-179.99999225E-3,,,,,-224.59999309E-6,-79.999998212E-3,
,,,-224.49999233E-6,-179.99999225E-3,,,,,-224.49999233E-6,-79.999998212E-3,
Source,CH1,,-224.39999157E-6,-159.99999642E-3,,Source,CH2,,-224.39999157E-6,-59.999998659E-3,
Vertical Units,Volts,,-224.29999080E-6,-140.0000006E-3,,Vertical Units,Volts,,-224.29999080E-6,-39.99999911E-3,
Vertical Scale,499.999988824E-3,,-224.19999004E-6,-140.0000006E-3,,Vertical Scale,499.999988824E-3,,-224.19999004E-6,-39.99999911E-3,
Vertical Offset,0,,-224.09998928E-6,-140.0000006E-3,,Vertical Offset,0,,-224.09998928E-6,-39.99999911E-3,
Horizontal Units,s,,-224.00000307E-6,-140.0000006E-3,,Horizontal Units,s,,-224.00000307E-6,-39.99999911E-3,
Horizontal Scale,25.00000029E-6,,-223.90000231E-6,-119.9999973E-3,,Horizontal Scale,25.00000029E-6,,-223.90000231E-6,-19.9999996E-3,
Pt Fmt,Y,,-223.80000155E-6,-119.9999973E-3,,Pt Fmt,Y,,-223.80000155E-6,-19.9999996E-3,
Yzero,0.0,,-223.70000079E-6,-99.999994040E-3,,Yzero,0.0,,-223.70000079E-6,0.0,
Probe Atten,1.000000,,-223.60000003E-6,-99.999994040E-3,,Probe Atten,1.000000,,-223.60000003E-6,0.0,
,,,-223.49999927E-6,-79.999998212E-3,,,,,-223.49999927E-6,19.9999996E-3,
Note,TBS 1052B-EDU - 02:23:45 p.m.   05/09/2022,,-223.39999850E-6,-79.999998212E-3,,Note,TBS 1052B-EDU - 02:23:45 p.m.   05/09/2022,,-223.39999850E-6,19.9999996E-3,
,,,-223.29999774E-6,-59.999998659E-3,,,,,-223.29999774E-6,19.9999996E-3,
,,,-223.19999698E-6,-59.999998659E-3,,,,,-223.19999698E-6,39.99999911E-3,
,,,-223.09999622E-6,-59.999998659E-3,,,,,-223.09999622E-6,39.99999911E-3,
,,,-222.99999546E-6,-39.99999911E-3,,,,,-222.99999546E-6,59.999998659E-3,
,,,-222.89999470E-6,-39.99999911E-3,,,,,-222.89999470E-6,59.999998659E-3,
,,,-222.79999394E-6,-19.9999996E-3,,,,,-222.79999394E-6,59.999998659E-3,
,,,-222.69999317E-6,-19.9999996E-3,,,,,-222.69999317E-6,79.999998212E-3,
,,,-222.59999241E-6,-19.9999996E-3,,,,,-222.59999241E-6,99.999994040E-3,
,,,-222.49999165E-6,0.0,,,,,-222.49999165E-6,99.999994040E-3,
,,,-222.39999089E-6,0.0,,,,,-222.39999089E-6,99.999994040E-3,
,,,-222.29999013E-6,0.0,,,,,-222.29999013E-6,119.9999973E-3,
,,,-222.19998937E-6,19.9999996E-3,,,,,-222.19998937E-6,119.9999973E-3,
,,,-222.10000316E-6,19.9999996E-3,,,,,-222.10000316E-6,140.0000006E-3,
,,,-222.00000240E-6,39.99999911E-3,,,,,-222.00000240E-6,119.9999973E-3,
,,,-221.90000163E-6,39.99999911E-3,,,,,-221.90000163E-6,140.0000006E-3,
,,,-221.80000087E-6,59.999998659E-3,,,,,-221.80000087E-6,159.99999642E-3,
,,,-221.70000011E-6,39.99999911E-3,,,,,-221.70000011E-6,140.0000006E-3,
,,,-221.59999935E-6,59.999998659E-3,,,,,-221.59999935E-6,159.99999642E-3,
,,,-221.49999859E-6,79.999998212E-3,,,,,-221.49999859E-6,179.99999225E-3,
,,,-221.39999783E-6,79.999998212E-3,,,,,-221.39999783E-6,199.99998808E-3,
,,,-221.29999707E-6,99.999994040E-3,,,,,-221.29999707E-6,179.99999225E-3,
,,,-221.19999630E-6,99.999994040E-3,,,,,-221.19999630E-6,199.99998808E-3,
,,,-221.09999554E-6,99.999994040E-3,,,,,-221.09999554E-6,199.99998808E-3,
,,,-220.99999478E-6,119.9999973E-3,,,,,-220.99999478E-6,219.99999881E-3,
,,,-220.89999402E-6,119.9999973E-3,,,,,-220.89999402E-6,239.99999464E-3,
,,,-220.79999326E-6,140.0000006E-3,,,,,-220.79999326E-6,219.99999881E-3,
,,,-220.69999250E-6,119.9999973E-3,,,,,-220.69999250E-6,219.99999881E-3,
,,,-220.59999174E-6,140.0000006E-3,,,,,-220.59999174E-6,239.99999464E-3,
,,,-220.49999097E-6,159.99999642E-3,,,,,-220.49999097E-6,259.99999046E-3,
,,,-220.39999021E-6,159.99999642E-3,,,,,-220.39999021E-6,259.99999046E-3,
,,,-220.29998945E-6,179.99999225E-3,,,,,-220.29998945E-6,259.99999046E-3,
,,,-220.20000324E-6,179.99999225E-3,,,,,-220.20000324E-6,280.00000119E-3,
,,,-220.10000248E-6,199.99998808E-3,,,,,-220.10000248E-6,280.00000119E-3,
,,,-220.00000172E-6,199.99998808E-3,,,,,-220.00000172E-6,299.99998212E-3,
,,,-219.90000096E-6,199.99998808E-3,,,,,-219.90000096E-6,299.99998212E-3,
,,,-219.80000020E-6,219.99999881E-3,,,,,-219.80000020E-6,299.99998212E-3,
,,,-219.69999943E-6,219.99999881E-3,,,,,-219.69999943E-6,319.99999285E-3,
,,,-219.59999867E-6,239.99999464E-3,,,,,-219.59999867E-6,319.99999285E-3,
,,,-219.49999791E-6,219.99999881E-3,,,,,-219.49999791E-6,319.99999285E-3,
,,,-219.39999715E-6,239.99999464E-3,,,,,-219.39999715E-6,319.99999285E-3,
,,,-219.29999639E-6,259.99999046E-3,,,,,-219.29999639E-6,340.00000358E-3,
,,,-219.19999563E-6,259.99999046E-3,,,,,-219.19999563E-6,340.00000358E-3,
,,,-219.09999487E-6,259.99999046E-3,,,,,-219.09999487E-6,359.99998450E-3,
,,,-218.99999410E-6,259.99999046E-3,,,,,-218.99999410E-6,379.99999523E-3,
,,,-218.89999334E-6,280.00000119E-3,,,,,-218.89999334E-6,359.99998450E-3,
,,,-218.79999258E-6,299.99998212E-3,,,,,-218.79999258E-6,379.99999523E-3,
,,,-218.69999182E-6,319.99999285E-3,,,,,-218.69999182E-6,379.99999523E-3,
,,,-218.59999106E-6,299.99998212E-3,,,,,-218.59999106E-6,399.99997616E-3,
,,,-218.49999030E-6,319.99999285E-3,,,,,-218.49999030E-6,399.99997616E-3,
,,,-218.39998954E-6,319.99999285E-3,,,,,-218.39998954E-6,399.99997616E-3,
,,,-218.30000333E-6,319.99999285E-3,,,,,-218.30000333E-6,419.999986887E-3,
,,,-218.20000256E-6,340.00000358E-3,,,,,-218.20000256E-6,439.999997616E-3,
,,,-218.10000180E-6,340.00000358E-3,,,,,-218.10000180E-6,439.999997616E-3,
,,,-218.00000104E-6,359.99998450E-3,,,,,-218.00000104E-6,439.999997616E-3,
,,,-217.90000028E-6,359.99998450E-3,,,,,-217.90000028E-6,459.999978542E-3,
,,,-217.79999952E-6,359.99998450E-3,,,,,-217.79999952E-6,459.999978542E-3,
,,,-217.69999876E-6,359.99998450E-3,,,,,-217.69999876E-6,479.999989271E-3,
,,,-217.59999800E-6,359.99998450E-3,,,,,-217.59999800E-6,459.999978542E-3,
,,,-217.49999723E-6,399.99997616E-3,,,,,-217.49999723E-6,479.999989271E-3,
,,,-217.39999647E-6,399.99997616E-3,,,,,-217.39999647E-6,479.999989271E-3,
,,,-217.29999571E-6,399.99997616E-3,,,,,-217.29999571E-6,500.000000000E-3,
,,,-217.19999495E-6,399.99997616E-3,,,,,-217.19999495E-6,500.000000000E-3,
,,,-217.09999419E-6,419.999986887E-3,,,,,-217.09999419E-6,519.999980927E-3,
,,,-216.99999343E-6,419.999986887E-3,,,,,-216.99999343E-6,500.000000000E-3,
,,,-216.89999267E-6,439.999997616E-3,,,,,-216.89999267E-6,519.999980927E-3,
,,,-216.79999190E-6,439.999997616E-3,,,,,-216.79999190E-6,539.999961853E-3,
,,,-216.69999114E-6,439.999997616E-3,,,,,-216.69999114E-6,539.999961853E-3,
,,,-216.59999038E-6,459.999978542E-3,,,,,-216.59999038E-6,560.000002384E-3,
,,,-216.49998962E-6,459.999978542E-3,,,,,-216.49998962E-6,539.999961853E-3,
,,,-216.39998886E-6,479.999989271E-3,,,,,-216.39998886E-6,579.999983311E-3,
,,,-216.30000265E-6,479.999989271E-3,,,,,-216.30000265E-6,579.999983311E-3,
,,,-216.20000189E-6,479.999989271E-3,,,,,-216.20000189E-6,579.999983311E-3,
,,,-216.10000113E-6,500.000000000E-3,,,,,-216.10000113E-6,599.999964237E-3,
,,,-216.00000036E-6,500.000000000E-3,,,,,-216.00000036E-6,599.999964237E-3,
,,,-215.89999960E-6,519.999980927E-3,,,,,-215.89999960E-6,599.999964237E-3,
,,,-215.79999884E-6,539.999961853E-3,,,,,-215.79999884E-6,599.999964237E-3,
,,,-215.69999808E-6,539.999961853E-3,,,,,-215.69999808E-6,620.000004768E-3,
,,,-215.59999732E-6,539.999961853E-3,,,,,-215.59999732E-6,620.000004768E-3,
,,,-215.49999656E-6,539.999961853E-3,,,,,-215.49999656E-6,639.999985695E-3,
,,,-215.39999580E-6,539.999961853E-3,,,,,-215.39999580E-6,659.999966621E-3,
,,,-215.29999503E-6,560.000002384E-3,,,,,-215.29999503E-6,639.999985695E-3,
,,,-215.19999427E-6,579.999983311E-3,,,,,-215.19999427E-6,659.999966621E-3,
,,,-215.09999351E-6,560.000002384E-3,,,,,-215.09999351E-6,659.999966621E-3,
,,,-214.99999275E-6,579.999983311E-3,,,,,-214.99999275E-6,659.999966621E-3,
,,,-214.89999199E-6,579.999983311E-3,,,,,-214.89999199E-6,659.999966621E-3,
,,,-214.79999123E-6,599.999964237E-3,,,,,-214.79999123E-6,680.000007153E-3,
,,,-214.69999047E-6,599.999964237E-3,,,,,-214.69999047E-6,680.000007153E-3,
,,,-214.59998970E-6,620.000004768E-3,,,,,-214.59998970E-6,699.999988079E-3,
,,,-214.49998894E-6,620.000004768E-3,,,,,-214.49998894E-6,699.999988079E-3,
,,,-214.40000273E-6,620.000004768E-3,,,,,-214.40000273E-6,699.999988079E-3,
,,,-214.30000197E-6,639.999985695E-3,,,,,-214.30000197E-6,719.999969006E-3,
,,,-214.20000121E-6,639.999985695E-3,,,,,-214.20000121E-6,699.999988079E-3,
,,,-214.10000045E-6,639.999985695E-3,,,,,-214.10000045E-6,740.000009537E-3,
,,,-213.99999969E-6,639.999985695E-3,,,,,-213.99999969E-6,719.999969006E-3,
,,,-213.89999893E-6,659.999966621E-3,,,,,-213.89999893E-6,740.000009537E-3,
,,,-213.79999816E-6,659.999966621E-3,,,,,-213.79999816E-6,740.000009537E-3,
,,,-213.69999740E-6,659.999966621E-3,,,,,-213.69999740E-6,759.999990463E-3,
,,,-213.59999664E-6,680.000007153E-3,,,,,-213.59999664E-6,759.999990463E-3,
,,,-213.49999588E-6,680.000007153E-3,,,,,-213.49999588E-6,759.999990463E-3,
,,,-213.39999512E-6,699.999988079E-3,,,,,-213.39999512E-6,779.999971390E-3,
,,,-213.29999436E-6,699.999988079E-3,,,,,-213.29999436E-6,779.999971390E-3,
,,,-213.19999360E-6,699.999988079E-3,,,,,-213.19999360E-6,799.999952316E-3,
,,,-213.09999283E-6,719.999969006E-3,,,,,-213.09999283E-6,799.999952316E-3,
,,,-212.99999207E-6,719.999969006E-3,,,,,-212.99999207E-6,799.999952316E-3,
,,,-212.89999131E-6,719.999969006E-3,,,,,-212.89999131E-6,819.999992847E-3,
,,,-212.79999055E-6,719.999969006E-3,,,,,-212.79999055E-6,819.999992847E-3,
,,,-212.69998979E-6,740.000009537E-3,,,,,-212.69998979E-6,839.999973774E-3,
,,,-212.59998903E-6,759.999990463E-3,,,,,-212.59998903E-6,839.999973774E-3,
,,,-212.50000282E-6,759.999990463E-3,,,,,-212.50000282E-6,839.999973774E-3,
,,,-212.40000206E-6,759.999990463E-3,,,,,-212.40000206E-6,839.999973774E-3,
,,,-212.30000129E-6,759.999990463E-3,,,,,-212.30000129E-6,859.999954700E-3,
,,,-212.20000053E-6,759.999990463E-3,,,,,-212.20000053E-6,859.999954700E-3,
,,,-212.09999977E-6,779.999971390E-3,,,,,-212.09999977E-6,859.999954700E-3,
,,,-211.99999901E-6,799.999952316E-3,,,,,-211.99999901E-6,859.999954700E-3,
,,,-211.89999825E-6,799.999952316E-3,,,,,-211.89999825E-6,879.999995232E-3,
,,,-211.79999749E-6,819.999992847E-3,,,,,-211.79999749E-6,879.999995232E-3,
,,,-211.69999673E-6,799.999952316E-3,,,,,-211.69999673E-6,879.999995232E-3,
,,,-211.59999596E-6,819.999992847E-3,,,,,-211.59999596E-6,899.999976158E-3,
,,,-211.49999520E-6,799.999952316E-3,,,,,-211.49999520E-6,899.999976158E-3,
,,,-211.39999444E-6,839.999973774E-3,,,,,-211.39999444E-6,899.999976158E-3,
,,,-211.29999368E-6,839.999973774E-3,,,,,-211.29999368E-6,919.999957085E-3,
,,,-211.19999292E-6,839.999973774E-3,,,,,-211.19999292E-6,919.999957085E-3,
,,,-211.09999216E-6,839.999973774E-3,,,,,-211.09999216E-6,939.999997616E-3,
,,,-210.99999140E-6,859.999954700E-3,,,,,-210.99999140E-6,939.999997616E-3,
,,,-210.89999063E-6,859.999954700E-3,,,,,-210.89999063E-6,939.999997616E-3,
,,,-210.79998987E-6,859.999954700E-3,,,,,-210.79998987E-6,939.999997616E-3,
,,,-210.69998911E-6,879.999995232E-3,,,,,-210.69998911E-6,959.999978542E-3,
,,,-210.60000290E-6,879.999995232E-3,,,,,-210.60000290E-6,959.999978542E-3,
,,,-210.50000214E-6,879.999995232E-3,,,,,-210.50000214E-6,959.999978542E-3,
,,,-210.40000138E-6,899.999976158E-3,,,,,-210.40000138E-6,959.999978542E-3,
,,,-210.30000062E-6,899.999976158E-3,,,,,-210.30000062E-6,979.999959469E-3,
,,,-210.19999986E-6,899.999976158E-3,,,,,-210.19999986E-6,979.999959469E-3,
,,,-210.09999909E-6,899.999976158E-3,,,,,-210.09999909E-6,979.999959469E-3,
,,,-209.99999833E-6,919.999957085E-3,,,,,-209.99999833E-6,979.999959469E-3,
,,,-209.89999757E-6,939.999997616E-3,,,,,-209.89999757E-6,1.000000,
,,,-209.79999681E-6,919.999957085E-3,,,,,-209.79999681E-6,1.000000,
,,,-209.69999605E-6,939.999997616E-3,,,,,-209.69999605E-6,1.000000,
,,,-209.59999529E-6,939.999997616E-3,,,,,-209.59999529E-6,1.0200000,
,,,-209.49999453E-6,959.999978542E-3,,,,,-209.49999453E-6,1.0200000,
,,,-209.39999376E-6,939.999997616E-3,,,,,-209.39999376E-6,1.0200000,
,,,-209.29999300E-6,959.999978542E-3,,,,,-209.29999300E-6,1.0200000,
,,,-209.19999224E-6,979.999959469E-3,,,,,-209.19999224E-6,1.0400000,
,,,-209.09999148E-6,979.999959469E-3,,,,,-209.09999148E-6,1.0400000,
,,,-208.99999072E-6,979.999959469E-3,,,,,-208.99999072E-6,1.0400000,
,,,-208.89998996E-6,979.999959469E-3,,,,,-208.89998996E-6,1.0400000,
,,,-208.79998920E-6,979.999959469E-3,,,,,-208.79998920E-6,1.0599999,
,,,-208.70000299E-6,1.000000,,,,,-208.70000299E-6,1.0599999,
,,,-208.60000222E-6,1.000000,,,,,-208.60000222E-6,1.0599999,
,,,-208.50000146E-6,1.000000,,,,,-208.50000146E-6,1.0599999,
,,,-208.40000070E-6,1.000000,,,,,-208.40000070E-6,1.0599999,
,,,-208.29999994E-6,1.0200000,,,,,-208.29999994E-6,1.0799999,
,,,-208.19999918E-6,1.0200000,,,,,-208.19999918E-6,1.1000000,
,,,-208.09999842E-6,1.0200000,,,,,-208.09999842E-6,1.0799999,
,,,-207.99999766E-6,1.0400000,,,,,-207.99999766E-6,1.1000000,
,,,-207.89999689E-6,1.0400000,,,,,-207.89999689E-6,1.1000000,
,,,-207.79999613E-6,1.0400000,,,,,-207.79999613E-6,1.1000000,
,,,-207.69999537E-6,1.0599999,,,,,-207.69999537E-6,1.1000000,
,,,-207.59999461E-6,1.0599999,,,,,-207.59999461E-6,1.1000000,
,,,-207.49999385E-6,1.0599999,,,,,-207.49999385E-6,1.1200000,
,,,-207.39999309E-6,1.0599999,,,,,-207.39999309E-6,1.1400000,
,,,-207.29999233E-6,1.0599999,,,,,-207.29999233E-6,1.1200000,
,,,-207.19999156E-6,1.0799999,,,,,-207.19999156E-6,1.1400000,
,,,-207.09999080E-6,1.0799999,,,,,-207.09999080E-6,1.1400000,
,,,-206.99999004E-6,1.0799999,,,,,-206.99999004E-6,1.1400000,
,,,-206.89998928E-6,1.1000000,,,,,-206.89998928E-6,1.1400000,
,,,-206.80000307E-6,1.1000000,,,,,-206.80000307E-6,1.1600000,
,,,-206.70000231E-6,1.1000000,,,,,-206.70000231E-6,1.1600000,
,,,-206.60000155E-6,1.1000000,,,,,-206.60000155E-6,1.1600000,
,,,-206.50000079E-6,1.1200000,,,,,-206.50000079E-6,1.1600000,
,,,-206.40000002E-6,1.1000000,,,,,-206.40000002E-6,1.1799999,
,,,-206.29999926E-6,1.1200000,,,,,-206.29999926E-6,1.1799999,
,,,-206.19999850E-6,1.1200000,,,,,-206.19999850E-6,1.1799999,
,,,-206.09999774E-6,1.1200000,,,,,-206.09999774E-6,1.1799999,
,,,-205.99999698E-6,1.1400000,,,,,-205.99999698E-6,1.1999999,
,,,-205.89999622E-6,1.1400000,,,,,-205.89999622E-6,1.1999999,
,,,-205.79999546E-6,1.1600000,,,,,-205.79999546E-6,1.1999999,
,,,-205.69999469E-6,1.1600000,,,,,-205.69999469E-6,1.1999999,
,,,-205.59999393E-6,1.1600000,,,,,-205.59999393E-6,1.1999999,
,,,-205.49999317E-6,1.1600000,,,,,-205.49999317E-6,1.2200000,
,,,-205.39999241E-6,1.1600000,,,,,-205.39999241E-6,1.1999999,
,,,-205.29999165E-6,1.1799999,,,,,-205.29999165E-6,1.2200000,
,,,-205.19999089E-6,1.1600000,,,,,-205.19999089E-6,1.2200000,
,,,-205.09999013E-6,1.1799999,,,,,-205.09999013E-6,1.2200000,
,,,-204.99998936E-6,1.1999999,,,,,-204.99998936E-6,1.2400000,
,,,-204.90000315E-6,1.1799999,,,,,-204.90000315E-6,1.2400000,
,,,-204.80000239E-6,1.1799999,,,,,-204.80000239E-6,1.2400000,
,,,-204.70000163E-6,1.1999999,,,,,-204.70000163E-6,1.2400000,
,,,-204.60000087E-6,1.1999999,,,,,-204.60000087E-6,1.2400000,
,,,-204.50000011E-6,1.1999999,,,,,-204.50000011E-6,1.2600000,
,,,-204.39999935E-6,1.2200000,,,,,-204.39999935E-6,1.2600000,
,,,-204.29999859E-6,1.2200000,,,,,-204.29999859E-6,1.2600000,
,,,-204.19999782E-6,1.2200000,,,,,-204.19999782E-6,1.2600000,
,,,-204.09999706E-6,1.2200000,,,,,-204.09999706E-6,1.2600000,
,,,-203.99999630E-6,1.2200000,,,,,-203.99999630E-6,1.2600000,
,,,-203.89999554E-6,1.2400000,,,,,-203.89999554E-6,1.2800000,
,,,-203.79999478E-6,1.2400000,,,,,-203.79999478E-6,1.2800000,
,,,-203.69999402E-6,1.2400000,,,,,-203.69999402E-6,1.2600000,
,,,-203.59999326E-6,1.2400000,,,,,-203.59999326E-6,1.2800000,
,,,-203.49999249E-6,1.2400000,,,,,-203.49999249E-6,1.2800000,
,,,-203.39999173E-6,1.2600000,,,,,-203.39999173E-6,1.3000000,
,,,-203.29999097E-6,1.2600000,,,,,-203.29999097E-6,1.3000000,
,,,-203.19999021E-6,1.2600000,,,,,-203.19999021E-6,1.3000000,
,,,-203.09998945E-6,1.2600000,,,,,-203.09998945E-6,1.3000000,
,,,-202.99998869E-6,1.2600000,,,,,-202.99998869E-6,1.3000000,
,,,-202.90000248E-6,1.2600000,,,,,-202.90000248E-6,1.3000000,
,,,-202.80000172E-6,1.2800000,,,,,-202.80000172E-6,1.3199999,
,,,-202.70000095E-6,1.2800000,,,,,-202.70000095E-6,1.3000000,
,,,-202.60000019E-6,1.2800000,,,,,-202.60000019E-6,1.3000000,
,,,-202.49999943E-6,1.3000000,,,,,-202.49999943E-6,1.3199999,
,,,-202.39999867E-6,1.2800000,,,,,-202.39999867E-6,1.3199999,
,,,-202.29999791E-6,1.2800000,,,,,-202.29999791E-6,1.3399999,
,,,-202.19999715E-6,1.2800000,,,,,-202.19999715E-6,1.3199999,
,,,-202.09999639E-6,1.3000000,,,,,-202.09999639E-6,1.3199999,
,,,-201.99999562E-6,1.3000000,,,,,-201.99999562E-6,1.3399999,
,,,-201.89999486E-6,1.3000000,,,,,-201.89999486E-6,1.3399999,
,,,-201.79999410E-6,1.3199999,,,,,-201.79999410E-6,1.3399999,
,,,-201.69999334E-6,1.3000000,,,,,-201.69999334E-6,1.3399999,
,,,-201.59999258E-6,1.3199999,,,,,-201.59999258E-6,1.3399999,
,,,-201.49999182E-6,1.3199999,,,,,-201.49999182E-6,1.3399999,
,,,-201.39999106E-6,1.3199999,,,,,-201.39999106E-6,1.3399999,
,,,-201.29999029E-6,1.3199999,,,,,-201.29999029E-6,1.3399999,
,,,-201.19998953E-6,1.3199999,,,,,-201.19998953E-6,1.3600000,
,,,-201.09998877E-6,1.3199999,,,,,-201.09998877E-6,1.3600000,
,,,-201.00000256E-6,1.3199999,,,,,-201.00000256E-6,1.3600000,
,,,-200.90000180E-6,1.3399999,,,,,-200.90000180E-6,1.3600000,
,,,-200.80000104E-6,1.3399999,,,,,-200.80000104E-6,1.3600000,
,,,-200.70000028E-6,1.3399999,,,,,-200.70000028E-6,1.3600000,
,,,-200.59999952E-6,1.3399999,,,,,-200.59999952E-6,1.3600000,
,,,-200.49999875E-6,1.3399999,,,,,-200.49999875E-6,1.3600000,
,,,-200.39999799E-6,1.3399999,,,,,-200.39999799E-6,1.3600000,
,,,-200.29999723E-6,1.3600000,,,,,-200.29999723E-6,1.3600000,
,,,-200.19999647E-6,1.3399999,,,,,-200.19999647E-6,1.3600000,
,,,-200.09999571E-6,1.3600000,,,,,-200.09999571E-6,1.3800000,
,,,-199.99999495E-6,1.3600000,,,,,-199.99999495E-6,1.3600000,
,,,-199.89999419E-6,1.3600000,,,,,-199.89999419E-6,1.3600000,
,,,-199.79999342E-6,1.3600000,,,,,-199.79999342E-6,1.3800000,
,,,-199.69999266E-6,1.3600000,,,,,-199.69999266E-6,1.3800000,
,,,-199.59999190E-6,1.3600000,,,,,-199.59999190E-6,1.3800000,
,,,-199.49999114E-6,1.3800000,,,,,-199.49999114E-6,1.3800000,
,,,-199.39999038E-6,1.3600000,,,,,-199.39999038E-6,1.3800000,
,,,-199.29998962E-6,1.3600000,,,,,-199.29998962E-6,1.3800000,
,,,-199.19998886E-6,1.3800000,,,,,-199.19998886E-6,1.3800000,
,,,-199.10000265E-6,1.3600000,,,,,-199.10000265E-6,1.4000000,
,,,-199.00000188E-6,1.3800000,,,,,-199.00000188E-6,1.4000000,
,,,-198.90000112E-6,1.3800000,,,,,-198.90000112E-6,1.4000000,
,,,-198.80000036E-6,1.3800000,,,,,-198.80000036E-6,1.4000000,
,,,-198.69999960E-6,1.3800000,,,,,-198.69999960E-6,1.3800000,
,,,-198.59999884E-6,1.4000000,,,,,-198.59999884E-6,1.3800000,
,,,-198.49999808E-6,1.3800000,,,,,-198.49999808E-6,1.4000000,
,,,-198.39999732E-6,1.4000000,,,,,-198.39999732E-6,1.4000000,
,,,-198.29999655E-6,1.3800000,,,,,-198.29999655E-6,1.4000000,
,,,-198.19999579E-6,1.4000000,,,,,-198.19999579E-6,1.4000000,
,,,-198.09999503E-6,1.4000000,,,,,-198.09999503E-6,1.4000000,
,,,-197.99999427E-6,1.3800000,,,,,-197.99999427E-6,1.4000000,
,,,-197.89999351E-6,1.4000000,,,,,-197.89999351E-6,1.4000000,
,,,-197.79999275E-6,1.4000000,,,,,-197.79999275E-6,1.4000000,
,,,-197.69999199E-6,1.4000000,,,,,-197.69999199E-6,1.4000000,
,,,-197.59999122E-6,1.4000000,,,,,-197.59999122E-6,1.4000000,
,,,-197.49999046E-6,1.4000000,,,,,-197.49999046E-6,1.4000000,
,,,-197.39998970E-6,1.4000000,,,,,-197.39998970E-6,1.4000000,
,,,-197.29998894E-6,1.4000000,,,,,-197.29998894E-6,1.4000000,
,,,-197.20000273E-6,1.4200000,,,,,-197.20000273E-6,1.4000000,
,,,-197.10000197E-6,1.4200000,,,,,-197.10000197E-6,1.4000000,
,,,-197.00000121E-6,1.4000000,,,,,-197.00000121E-6,1.4000000,
