segundo_informe/integrador/integradorcuadrada82k.csv

Record Length,2500,Points,-25.39999878E-6,-959.999978542E-3,,Record Length,2500,Points,-25.39999878E-6,-20.80000006E-3,
Sample Interval,19.9999999E-9,s,-25.37999899E-6,-939.999997616E-3,,Sample Interval,19.9999999E-9,s,-25.37999899E-6,-20.80000006E-3,
Trigger Point,1.2700000E3,Samples,-25.35999920E-6,-959.999978542E-3,,Trigger Point,1.2700000E3,Samples,-25.35999920E-6,-20.80000006E-3,
,,,-25.33999941E-6,-959.999978542E-3,,,,,-25.33999941E-6,-21.59999870E-3,
,,,-25.31999962E-6,-939.999997616E-3,,,,,-25.31999962E-6,-21.59999870E-3,
,,,-25.29999801E-6,-939.999997616E-3,,,,,-25.29999801E-6,-21.59999870E-3,
Source,CH1,,-25.27999823E-6,-959.999978542E-3,,Source,CH2,,-25.27999823E-6,-21.59999870E-3,
Vertical Units,Volts,,-25.25999844E-6,-959.999978542E-3,,Vertical Units,Volts,,-25.25999844E-6,-22.39999920E-3,
Vertical Scale,499.999988824E-3,,-25.23999865E-6,-939.999997616E-3,,Vertical Scale,19.9999995E-3,,-25.23999865E-6,-22.39999920E-3,
Vertical Offset,0,,-25.21999886E-6,-939.999997616E-3,,Vertical Offset,0,,-25.21999886E-6,-22.39999920E-3,
Horizontal Units,s,,-25.19999907E-6,-959.999978542E-3,,Horizontal Units,s,,-25.19999907E-6,-22.39999920E-3,
Horizontal Scale,4.99999997E-6,,-25.17999928E-6,-959.999978542E-3,,Horizontal Scale,4.99999997E-6,,-25.17999928E-6,-23.19999970E-3,
Pt Fmt,Y,,-25.15999950E-6,-959.999978542E-3,,Pt Fmt,Y,,-25.15999950E-6,-23.19999970E-3,
Yzero,0.0,,-25.13999789E-6,-939.999997616E-3,,Yzero,0.0,,-25.13999789E-6,-23.19999970E-3,
Probe Atten,1.000000,,-25.11999810E-6,-959.999978542E-3,,Probe Atten,1.000000,,-25.11999810E-6,-23.19999970E-3,
,,,-25.09999831E-6,-959.999978542E-3,,,,,-25.09999831E-6,-23.19999970E-3,
Note,TBS 1052B-EDU - 02:37:03 p.m.   12/09/2022,,-25.07999852E-6,-939.999997616E-3,,Note,TBS 1052B-EDU - 02:37:03 p.m.   12/09/2022,,-25.07999852E-6,-23.19999970E-3,
,,,-25.05999873E-6,-959.999978542E-3,,,,,-25.05999873E-6,-24.00000021E-3,
,,,-25.03999895E-6,-939.999997616E-3,,,,,-25.03999895E-6,-24.00000021E-3,
,,,-25.01999916E-6,-959.999978542E-3,,,,,-25.01999916E-6,-24.00000021E-3,
,,,-24.99999937E-6,-959.999978542E-3,,,,,-24.99999937E-6,-24.00000021E-3,
,,,-24.97999958E-6,-959.999978542E-3,,,,,-24.97999958E-6,-24.79999885E-3,
,,,-24.95999797E-6,-959.999978542E-3,,,,,-24.95999797E-6,-24.79999885E-3,
,,,-24.93999818E-6,-959.999978542E-3,,,,,-24.93999818E-6,-24.79999885E-3,
,,,-24.91999840E-6,-959.999978542E-3,,,,,-24.91999840E-6,-24.79999885E-3,
,,,-24.89999861E-6,-959.999978542E-3,,,,,-24.89999861E-6,-25.59999935E-3,
,,,-24.87999882E-6,-939.999997616E-3,,,,,-24.87999882E-6,-25.59999935E-3,
,,,-24.85999903E-6,-959.999978542E-3,,,,,-24.85999903E-6,-25.59999935E-3,
,,,-24.83999924E-6,-959.999978542E-3,,,,,-24.83999924E-6,-25.59999935E-3,
,,,-24.81999945E-6,-939.999997616E-3,,,,,-24.81999945E-6,-25.59999935E-3,
,,,-24.79999966E-6,-939.999997616E-3,,,,,-24.79999966E-6,-26.39999986E-3,
,,,-24.77999806E-6,-939.999997616E-3,,,,,-24.77999806E-6,-26.39999986E-3,
,,,-24.75999827E-6,-939.999997616E-3,,,,,-24.75999827E-6,-26.39999986E-3,
,,,-24.73999848E-6,-939.999997616E-3,,,,,-24.73999848E-6,-27.19999850E-3,
,,,-24.71999869E-6,-939.999997616E-3,,,,,-24.71999869E-6,-27.19999850E-3,
,,,-24.69999890E-6,-939.999997616E-3,,,,,-24.69999890E-6,-27.19999850E-3,
,,,-24.67999911E-6,-959.999978542E-3,,,,,-24.67999911E-6,-27.19999850E-3,
,,,-24.65999933E-6,-939.999997616E-3,,,,,-24.65999933E-6,-27.19999850E-3,
,,,-24.63999954E-6,-939.999997616E-3,,,,,-24.63999954E-6,-27.99999900E-3,
,,,-24.61999793E-6,-939.999997616E-3,,,,,-24.61999793E-6,-27.99999900E-3,
,,,-24.59999814E-6,-939.999997616E-3,,,,,-24.59999814E-6,-27.99999900E-3,
,,,-24.57999835E-6,-939.999997616E-3,,,,,-24.57999835E-6,-27.99999900E-3,
,,,-24.55999856E-6,-939.999997616E-3,,,,,-24.55999856E-6,-27.99999900E-3,
,,,-24.53999878E-6,-939.999997616E-3,,,,,-24.53999878E-6,-28.79999951E-3,
,,,-24.51999899E-6,-939.999997616E-3,,,,,-24.51999899E-6,-28.79999951E-3,
,,,-24.49999920E-6,-939.999997616E-3,,,,,-24.49999920E-6,-28.79999951E-3,
,,,-24.47999941E-6,-939.999997616E-3,,,,,-24.47999941E-6,-28.79999951E-3,
,,,-24.45999962E-6,-939.999997616E-3,,,,,-24.45999962E-6,-29.60000001E-3,
,,,-24.43999801E-6,-939.999997616E-3,,,,,-24.43999801E-6,-29.60000001E-3,
,,,-24.41999823E-6,-939.999997616E-3,,,,,-24.41999823E-6,-29.60000001E-3,
,,,-24.39999844E-6,-939.999997616E-3,,,,,-24.39999844E-6,-29.60000001E-3,
,,,-24.37999865E-6,-959.999978542E-3,,,,,-24.37999865E-6,-29.60000001E-3,
,,,-24.35999886E-6,-939.999997616E-3,,,,,-24.35999886E-6,-30.39999865E-3,
,,,-24.33999907E-6,-939.999997616E-3,,,,,-24.33999907E-6,-30.39999865E-3,
,,,-24.31999928E-6,-939.999997616E-3,,,,,-24.31999928E-6,-30.39999865E-3,
,,,-24.29999950E-6,-939.999997616E-3,,,,,-24.29999950E-6,-30.39999865E-3,
,,,-24.27999789E-6,-79.999998212E-3,,,,,-24.27999789E-6,-30.39999865E-3,
,,,-24.25999810E-6,819.999992847E-3,,,,,-24.25999810E-6,-26.39999986E-3,
,,,-24.23999831E-6,939.999997616E-3,,,,,-24.23999831E-6,-31.19999915E-3,
,,,-24.21999852E-6,959.999978542E-3,,,,,-24.21999852E-6,-27.99999900E-3,
,,,-24.19999873E-6,979.999959469E-3,,,,,-24.19999873E-6,-29.60000001E-3,
,,,-24.17999895E-6,959.999978542E-3,,,,,-24.17999895E-6,-28.79999951E-3,
,,,-24.15999916E-6,959.999978542E-3,,,,,-24.15999916E-6,-27.99999900E-3,
,,,-24.13999937E-6,959.999978542E-3,,,,,-24.13999937E-6,-28.79999951E-3,
,,,-24.11999958E-6,959.999978542E-3,,,,,-24.11999958E-6,-27.19999850E-3,
,,,-24.09999797E-6,959.999978542E-3,,,,,-24.09999797E-6,-28.79999951E-3,
,,,-24.07999818E-6,959.999978542E-3,,,,,-24.07999818E-6,-27.19999850E-3,
,,,-24.05999840E-6,959.999978542E-3,,,,,-24.05999840E-6,-27.99999900E-3,
,,,-24.03999861E-6,959.999978542E-3,,,,,-24.03999861E-6,-26.39999986E-3,
,,,-24.01999882E-6,959.999978542E-3,,,,,-24.01999882E-6,-27.19999850E-3,
,,,-23.99999903E-6,959.999978542E-3,,,,,-23.99999903E-6,-26.39999986E-3,
,,,-23.97999924E-6,959.999978542E-3,,,,,-23.97999924E-6,-26.39999986E-3,
,,,-23.95999945E-6,959.999978542E-3,,,,,-23.95999945E-6,-26.39999986E-3,
,,,-23.93999966E-6,959.999978542E-3,,,,,-23.93999966E-6,-25.59999935E-3,
,,,-23.91999806E-6,959.999978542E-3,,,,,-23.91999806E-6,-25.59999935E-3,
,,,-23.89999827E-6,959.999978542E-3,,,,,-23.89999827E-6,-25.59999935E-3,
,,,-23.87999848E-6,959.999978542E-3,,,,,-23.87999848E-6,-25.59999935E-3,
,,,-23.85999869E-6,959.999978542E-3,,,,,-23.85999869E-6,-24.79999885E-3,
,,,-23.83999890E-6,959.999978542E-3,,,,,-23.83999890E-6,-24.79999885E-3,
,,,-23.81999911E-6,959.999978542E-3,,,,,-23.81999911E-6,-24.79999885E-3,
,,,-23.79999933E-6,959.999978542E-3,,,,,-23.79999933E-6,-24.00000021E-3,
,,,-23.77999954E-6,959.999978542E-3,,,,,-23.77999954E-6,-24.00000021E-3,
,,,-23.75999793E-6,959.999978542E-3,,,,,-23.75999793E-6,-24.00000021E-3,
,,,-23.73999814E-6,959.999978542E-3,,,,,-23.73999814E-6,-24.00000021E-3,
,,,-23.71999835E-6,959.999978542E-3,,,,,-23.71999835E-6,-23.19999970E-3,
,,,-23.69999856E-6,959.999978542E-3,,,,,-23.69999856E-6,-23.19999970E-3,
,,,-23.67999878E-6,959.999978542E-3,,,,,-23.67999878E-6,-23.19999970E-3,
,,,-23.65999899E-6,959.999978542E-3,,,,,-23.65999899E-6,-23.19999970E-3,
,,,-23.63999920E-6,959.999978542E-3,,,,,-23.63999920E-6,-22.39999920E-3,
,,,-23.61999941E-6,959.999978542E-3,,,,,-23.61999941E-6,-22.39999920E-3,
,,,-23.59999962E-6,959.999978542E-3,,,,,-23.59999962E-6,-22.39999920E-3,
,,,-23.57999801E-6,959.999978542E-3,,,,,-23.57999801E-6,-22.39999920E-3,
,,,-23.55999823E-6,959.999978542E-3,,,,,-23.55999823E-6,-22.39999920E-3,
,,,-23.53999844E-6,959.999978542E-3,,,,,-23.53999844E-6,-21.59999870E-3,
,,,-23.51999865E-6,959.999978542E-3,,,,,-23.51999865E-6,-21.59999870E-3,
,,,-23.49999886E-6,959.999978542E-3,,,,,-23.49999886E-6,-21.59999870E-3,
,,,-23.47999907E-6,959.999978542E-3,,,,,-23.47999907E-6,-20.80000006E-3,
,,,-23.45999928E-6,959.999978542E-3,,,,,-23.45999928E-6,-20.80000006E-3,
,,,-23.43999950E-6,959.999978542E-3,,,,,-23.43999950E-6,-20.80000006E-3,
,,,-23.41999789E-6,959.999978542E-3,,,,,-23.41999789E-6,-19.9999996E-3,
,,,-23.39999810E-6,959.999978542E-3,,,,,-23.39999810E-6,-20.80000006E-3,
,,,-23.37999831E-6,959.999978542E-3,,,,,-23.37999831E-6,-19.9999996E-3,
,,,-23.35999852E-6,959.999978542E-3,,,,,-23.35999852E-6,-19.9999996E-3,
,,,-23.33999873E-6,959.999978542E-3,,,,,-23.33999873E-6,-19.9999996E-3,
,,,-23.31999895E-6,959.999978542E-3,,,,,-23.31999895E-6,-19.1999990E-3,
,,,-23.29999916E-6,959.999978542E-3,,,,,-23.29999916E-6,-19.1999990E-3,
,,,-23.27999937E-6,959.999978542E-3,,,,,-23.27999937E-6,-19.1999990E-3,
,,,-23.25999958E-6,959.999978542E-3,,,,,-23.25999958E-6,-18.4000004E-3,
,,,-23.23999797E-6,959.999978542E-3,,,,,-23.23999797E-6,-19.1999990E-3,
,,,-23.21999818E-6,959.999978542E-3,,,,,-23.21999818E-6,-18.4000004E-3,
,,,-23.19999840E-6,959.999978542E-3,,,,,-23.19999840E-6,-18.4000004E-3,
,,,-23.17999861E-6,959.999978542E-3,,,,,-23.17999861E-6,-17.5999999E-3,
,,,-23.15999882E-6,959.999978542E-3,,,,,-23.15999882E-6,-18.4000004E-3,
,,,-23.13999903E-6,959.999978542E-3,,,,,-23.13999903E-6,-17.5999999E-3,
,,,-23.11999924E-6,959.999978542E-3,,,,,-23.11999924E-6,-17.5999999E-3,
,,,-23.09999945E-6,959.999978542E-3,,,,,-23.09999945E-6,-17.5999999E-3,
,,,-23.07999966E-6,959.999978542E-3,,,,,-23.07999966E-6,-16.7999994E-3,
,,,-23.05999806E-6,959.999978542E-3,,,,,-23.05999806E-6,-16.7999994E-3,
,,,-23.03999827E-6,959.999978542E-3,,,,,-23.03999827E-6,-16.7999994E-3,
,,,-23.01999848E-6,959.999978542E-3,,,,,-23.01999848E-6,-16.7999994E-3,
,,,-22.99999869E-6,959.999978542E-3,,,,,-22.99999869E-6,-15.9999989E-3,
,,,-22.97999890E-6,959.999978542E-3,,,,,-22.97999890E-6,-15.9999989E-3,
,,,-22.95999911E-6,959.999978542E-3,,,,,-22.95999911E-6,-15.9999989E-3,
,,,-22.93999933E-6,959.999978542E-3,,,,,-22.93999933E-6,-15.1999993E-3,
,,,-22.91999954E-6,959.999978542E-3,,,,,-22.91999954E-6,-15.9999989E-3,
,,,-22.89999793E-6,959.999978542E-3,,,,,-22.89999793E-6,-15.1999993E-3,
,,,-22.87999814E-6,959.999978542E-3,,,,,-22.87999814E-6,-15.1999993E-3,
,,,-22.85999835E-6,959.999978542E-3,,,,,-22.85999835E-6,-15.1999993E-3,
,,,-22.83999856E-6,959.999978542E-3,,,,,-22.83999856E-6,-15.1999993E-3,
,,,-22.81999878E-6,959.999978542E-3,,,,,-22.81999878E-6,-14.3999998E-3,
,,,-22.79999899E-6,959.999978542E-3,,,,,-22.79999899E-6,-14.3999998E-3,
,,,-22.77999920E-6,959.999978542E-3,,,,,-22.77999920E-6,-14.3999998E-3,
,,,-22.75999941E-6,959.999978542E-3,,,,,-22.75999941E-6,-13.5999992E-3,
,,,-22.73999962E-6,959.999978542E-3,,,,,-22.73999962E-6,-13.5999992E-3,
,,,-22.71999801E-6,959.999978542E-3,,,,,-22.71999801E-6,-13.5999992E-3,
,,,-22.69999823E-6,959.999978542E-3,,,,,-22.69999823E-6,-13.5999992E-3,
,,,-22.67999844E-6,959.999978542E-3,,,,,-22.67999844E-6,-12.7999997E-3,
,,,-22.65999865E-6,959.999978542E-3,,,,,-22.65999865E-6,-12.7999997E-3,
,,,-22.63999886E-6,959.999978542E-3,,,,,-22.63999886E-6,-12.7999997E-3,
,,,-22.61999907E-6,959.999978542E-3,,,,,-22.61999907E-6,-12.7999997E-3,
,,,-22.59999928E-6,959.999978542E-3,,,,,-22.59999928E-6,-12.0000001E-3,
,,,-22.57999950E-6,959.999978542E-3,,,,,-22.57999950E-6,-12.0000001E-3,
,,,-22.55999789E-6,959.999978542E-3,,,,,-22.55999789E-6,-12.0000001E-3,
,,,-22.53999810E-6,959.999978542E-3,,,,,-22.53999810E-6,-12.0000001E-3,
,,,-22.51999831E-6,959.999978542E-3,,,,,-22.51999831E-6,-12.0000001E-3,
,,,-22.49999852E-6,959.999978542E-3,,,,,-22.49999852E-6,-11.1999996E-3,
,,,-22.47999873E-6,959.999978542E-3,,,,,-22.47999873E-6,-11.1999996E-3,
,,,-22.45999895E-6,959.999978542E-3,,,,,-22.45999895E-6,-11.1999996E-3,
,,,-22.43999916E-6,959.999978542E-3,,,,,-22.43999916E-6,-10.4000000E-3,
,,,-22.41999937E-6,959.999978542E-3,,,,,-22.41999937E-6,-10.4000000E-3,
,,,-22.39999958E-6,959.999978542E-3,,,,,-22.39999958E-6,-10.4000000E-3,
,,,-22.37999797E-6,959.999978542E-3,,,,,-22.37999797E-6,-10.4000000E-3,
,,,-22.35999818E-6,959.999978542E-3,,,,,-22.35999818E-6,-9.599999525E-3,
,,,-22.33999840E-6,959.999978542E-3,,,,,-22.33999840E-6,-9.599999525E-3,
,,,-22.31999861E-6,959.999978542E-3,,,,,-22.31999861E-6,-9.599999525E-3,
,,,-22.29999882E-6,959.999978542E-3,,,,,-22.29999882E-6,-9.599999525E-3,
,,,-22.27999903E-6,959.999978542E-3,,,,,-22.27999903E-6,-8.799999952E-3,
,,,-22.25999924E-6,959.999978542E-3,,,,,-22.25999924E-6,-8.799999952E-3,
,,,-22.23999945E-6,959.999978542E-3,,,,,-22.23999945E-6,-8.799999952E-3,
,,,-22.21999966E-6,959.999978542E-3,,,,,-22.21999966E-6,-8.799999952E-3,
,,,-22.19999806E-6,979.999959469E-3,,,,,-22.19999806E-6,-8.799999952E-3,
,,,-22.17999827E-6,959.999978542E-3,,,,,-22.17999827E-6,-7.999999449E-3,
,,,-22.15999848E-6,959.999978542E-3,,,,,-22.15999848E-6,-7.999999449E-3,
,,,-22.13999869E-6,959.999978542E-3,,,,,-22.13999869E-6,-7.999999449E-3,
,,,-22.11999890E-6,959.999978542E-3,,,,,-22.11999890E-6,-7.19999988E-3,
,,,-22.09999911E-6,959.999978542E-3,,,,,-22.09999911E-6,-7.19999988E-3,
,,,-22.07999933E-6,959.999978542E-3,,,,,-22.07999933E-6,-7.19999988E-3,
,,,-22.05999954E-6,959.999978542E-3,,,,,-22.05999954E-6,-7.19999988E-3,
,,,-22.03999793E-6,979.999959469E-3,,,,,-22.03999793E-6,-7.19999988E-3,
,,,-22.01999814E-6,959.999978542E-3,,,,,-22.01999814E-6,-6.39999984E-3,
,,,-21.99999835E-6,959.999978542E-3,,,,,-21.99999835E-6,-6.39999984E-3,
,,,-21.97999856E-6,959.999978542E-3,,,,,-21.97999856E-6,-6.39999984E-3,
,,,-21.95999878E-6,979.999959469E-3,,,,,-21.95999878E-6,-6.39999984E-3,
,,,-21.93999899E-6,959.999978542E-3,,,,,-21.93999899E-6,-5.59999980E-3,
,,,-21.91999920E-6,979.999959469E-3,,,,,-21.91999920E-6,-5.59999980E-3,
,,,-21.89999941E-6,979.999959469E-3,,,,,-21.89999941E-6,-5.59999980E-3,
,,,-21.87999962E-6,979.999959469E-3,,,,,-21.87999962E-6,-5.59999980E-3,
,,,-21.85999801E-6,979.999959469E-3,,,,,-21.85999801E-6,-4.79999976E-3,
,,,-21.83999823E-6,959.999978542E-3,,,,,-21.83999823E-6,-4.79999976E-3,
,,,-21.81999844E-6,979.999959469E-3,,,,,-21.81999844E-6,-4.79999976E-3,
,,,-21.79999865E-6,979.999959469E-3,,,,,-21.79999865E-6,-3.99999972E-3,
,,,-21.77999886E-6,979.999959469E-3,,,,,-21.77999886E-6,-3.99999972E-3,
,,,-21.75999907E-6,979.999959469E-3,,,,,-21.75999907E-6,-4.79999976E-3,
,,,-21.73999928E-6,979.999959469E-3,,,,,-21.73999928E-6,-3.99999972E-3,
,,,-21.71999949E-6,979.999959469E-3,,,,,-21.71999949E-6,-3.99999972E-3,
,,,-21.69999971E-6,979.999959469E-3,,,,,-21.69999971E-6,-3.19999992E-3,
,,,-21.67999810E-6,979.999959469E-3,,,,,-21.67999810E-6,-3.19999992E-3,
,,,-21.65999831E-6,979.999959469E-3,,,,,-21.65999831E-6,-3.19999992E-3,
,,,-21.63999852E-6,979.999959469E-3,,,,,-21.63999852E-6,-3.19999992E-3,
,,,-21.61999873E-6,979.999959469E-3,,,,,-21.61999873E-6,-3.19999992E-3,
,,,-21.59999895E-6,979.999959469E-3,,,,,-21.59999895E-6,-3.19999992E-3,
,,,-21.57999916E-6,979.999959469E-3,,,,,-21.57999916E-6,-2.3999999E-3,
,,,-21.55999937E-6,979.999959469E-3,,,,,-21.55999937E-6,-2.3999999E-3,
,,,-21.53999958E-6,979.999959469E-3,,,,,-21.53999958E-6,-2.3999999E-3,
,,,-21.51999797E-6,979.999959469E-3,,,,,-21.51999797E-6,-1.6000000E-3,
,,,-21.49999818E-6,979.999959469E-3,,,,,-21.49999818E-6,-1.6000000E-3,
,,,-21.47999840E-6,979.999959469E-3,,,,,-21.47999840E-6,-1.6000000E-3,
,,,-21.45999861E-6,979.999959469E-3,,,,,-21.45999861E-6,-1.6000000E-3,
,,,-21.43999882E-6,979.999959469E-3,,,,,-21.43999882E-6,-799.999979790E-6,
,,,-21.41999903E-6,979.999959469E-3,,,,,-21.41999903E-6,-799.999979790E-6,
,,,-21.39999924E-6,979.999959469E-3,,,,,-21.39999924E-6,-799.999979790E-6,
,,,-21.37999945E-6,979.999959469E-3,,,,,-21.37999945E-6,-799.999979790E-6,
,,,-21.35999966E-6,979.999959469E-3,,,,,-21.35999966E-6,0.0,
,,,-21.33999806E-6,979.999959469E-3,,,,,-21.33999806E-6,0.0,
,,,-21.31999827E-6,979.999959469E-3,,,,,-21.31999827E-6,0.0,
,,,-21.29999848E-6,979.999959469E-3,,,,,-21.29999848E-6,0.0,
,,,-21.27999869E-6,979.999959469E-3,,,,,-21.27999869E-6,799.999979790E-6,
,,,-21.25999890E-6,979.999959469E-3,,,,,-21.25999890E-6,799.999979790E-6,
,,,-21.23999911E-6,979.999959469E-3,,,,,-21.23999911E-6,799.999979790E-6,
,,,-21.21999933E-6,979.999959469E-3,,,,,-21.21999933E-6,799.999979790E-6,
,,,-21.19999954E-6,979.999959469E-3,,,,,-21.19999954E-6,799.999979790E-6,
,,,-21.17999793E-6,979.999959469E-3,,,,,-21.17999793E-6,799.999979790E-6,
,,,-21.15999814E-6,979.999959469E-3,,,,,-21.15999814E-6,1.6000000E-3,
,,,-21.13999835E-6,979.999959469E-3,,,,,-21.13999835E-6,1.6000000E-3,
,,,-21.11999856E-6,979.999959469E-3,,,,,-21.11999856E-6,1.6000000E-3,
,,,-21.09999878E-6,979.999959469E-3,,,,,-21.09999878E-6,2.3999999E-3,
,,,-21.07999899E-6,979.999959469E-3,,,,,-21.07999899E-6,2.3999999E-3,
,,,-21.05999920E-6,979.999959469E-3,,,,,-21.05999920E-6,2.3999999E-3,
,,,-21.03999941E-6,979.999959469E-3,,,,,-21.03999941E-6,2.3999999E-3,
,,,-21.01999962E-6,979.999959469E-3,,,,,-21.01999962E-6,3.19999992E-3,
,,,-20.99999801E-6,979.999959469E-3,,,,,-20.99999801E-6,3.19999992E-3,
,,,-20.97999823E-6,979.999959469E-3,,,,,-20.97999823E-6,3.19999992E-3,
,,,-20.95999844E-6,979.999959469E-3,,,,,-20.95999844E-6,3.99999972E-3,
,,,-20.93999865E-6,979.999959469E-3,,,,,-20.93999865E-6,3.99999972E-3,
,,,-20.91999886E-6,979.999959469E-3,,,,,-20.91999886E-6,3.99999972E-3,
,,,-20.89999907E-6,979.999959469E-3,,,,,-20.89999907E-6,3.99999972E-3,
,,,-20.87999928E-6,979.999959469E-3,,,,,-20.87999928E-6,3.99999972E-3,
,,,-20.85999949E-6,979.999959469E-3,,,,,-20.85999949E-6,4.79999976E-3,
,,,-20.83999971E-6,979.999959469E-3,,,,,-20.83999971E-6,4.79999976E-3,
,,,-20.81999810E-6,979.999959469E-3,,,,,-20.81999810E-6,4.79999976E-3,
,,,-20.79999831E-6,979.999959469E-3,,,,,-20.79999831E-6,4.79999976E-3,
,,,-20.77999852E-6,979.999959469E-3,,,,,-20.77999852E-6,4.79999976E-3,
,,,-20.75999873E-6,979.999959469E-3,,,,,-20.75999873E-6,5.59999980E-3,
,,,-20.73999894E-6,979.999959469E-3,,,,,-20.73999894E-6,5.59999980E-3,
,,,-20.71999916E-6,979.999959469E-3,,,,,-20.71999916E-6,5.59999980E-3,
,,,-20.69999937E-6,979.999959469E-3,,,,,-20.69999937E-6,5.59999980E-3,
,,,-20.67999958E-6,979.999959469E-3,,,,,-20.67999958E-6,6.39999984E-3,
,,,-20.65999797E-6,979.999959469E-3,,,,,-20.65999797E-6,6.39999984E-3,
,,,-20.63999818E-6,979.999959469E-3,,,,,-20.63999818E-6,6.39999984E-3,
,,,-20.61999839E-6,979.999959469E-3,,,,,-20.61999839E-6,7.19999988E-3,
,,,-20.59999861E-6,979.999959469E-3,,,,,-20.59999861E-6,7.19999988E-3,
,,,-20.57999882E-6,979.999959469E-3,,,,,-20.57999882E-6,7.19999988E-3,
,,,-20.55999903E-6,979.999959469E-3,,,,,-20.55999903E-6,7.19999988E-3,
,,,-20.53999924E-6,979.999959469E-3,,,,,-20.53999924E-6,7.19999988E-3,
,,,-20.51999945E-6,979.999959469E-3,,,,,-20.51999945E-6,7.19999988E-3,
,,,-20.49999966E-6,979.999959469E-3,,,,,-20.49999966E-6,7.999999449E-3,
,,,-20.47999806E-6,979.999959469E-3,,,,,-20.47999806E-6,7.999999449E-3,
,,,-20.45999827E-6,979.999959469E-3,,,,,-20.45999827E-6,7.999999449E-3,
,,,-20.43999848E-6,979.999959469E-3,,,,,-20.43999848E-6,8.799999952E-3,
,,,-20.41999869E-6,979.999959469E-3,,,,,-20.41999869E-6,8.799999952E-3,
,,,-20.39999890E-6,979.999959469E-3,,,,,-20.39999890E-6,8.799999952E-3,
,,,-20.37999911E-6,979.999959469E-3,,,,,-20.37999911E-6,8.799999952E-3,
,,,-20.35999933E-6,979.999959469E-3,,,,,-20.35999933E-6,8.799999952E-3,
,,,-20.33999954E-6,979.999959469E-3,,,,,-20.33999954E-6,9.599999525E-3,
,,,-20.31999793E-6,979.999959469E-3,,,,,-20.31999793E-6,9.599999525E-3,
,,,-20.29999814E-6,979.999959469E-3,,,,,-20.29999814E-6,9.599999525E-3,
,,,-20.27999835E-6,979.999959469E-3,,,,,-20.27999835E-6,10.4000000E-3,
,,,-20.25999856E-6,979.999959469E-3,,,,,-20.25999856E-6,10.4000000E-3,
,,,-20.23999878E-6,979.999959469E-3,,,,,-20.23999878E-6,10.4000000E-3,
,,,-20.21999899E-6,979.999959469E-3,,,,,-20.21999899E-6,11.1999996E-3,
,,,-20.19999920E-6,979.999959469E-3,,,,,-20.19999920E-6,11.1999996E-3,
,,,-20.17999941E-6,979.999959469E-3,,,,,-20.17999941E-6,10.4000000E-3,
,,,-20.15999962E-6,979.999959469E-3,,,,,-20.15999962E-6,11.1999996E-3,
,,,-20.13999801E-6,979.999959469E-3,,,,,-20.13999801E-6,11.1999996E-3,
,,,-20.11999823E-6,979.999959469E-3,,,,,-20.11999823E-6,11.1999996E-3,
,,,-20.09999844E-6,979.999959469E-3,,,,,-20.09999844E-6,12.0000001E-3,
,,,-20.0799986E-6,979.999959469E-3,,,,,-20.0799986E-6,12.0000001E-3,
,,,-20.0599989E-6,979.999959469E-3,,,,,-20.0599989E-6,12.0000001E-3,
