segundo_informe/barrido_rc_pasaaltos/160.csv

Record Length,2500,Points,-12.4999993E-3,319.99999285E-3,,Record Length,2500,Points,-12.4999993E-3,178.00000310E-3,
Sample Interval,9.999999747E-6,s,-12.4899996E-3,340.00000358E-3,,Sample Interval,9.999999747E-6,s,-12.4899996E-3,178.00000310E-3,
Trigger Point,1.2500000E3,Samples,-12.4799991E-3,359.99998450E-3,,Trigger Point,1.2500000E3,Samples,-12.4799991E-3,178.00000310E-3,
,,,-12.4699995E-3,359.99998450E-3,,,,,-12.4699995E-3,178.00000310E-3,
,,,-12.4599990E-3,379.99999523E-3,,,,,-12.4599990E-3,182.00001121E-3,
,,,-12.4499993E-3,399.99997616E-3,,,,,-12.4499993E-3,178.00000310E-3,
Source,CH1,,-12.4399988E-3,399.99997616E-3,,Source,CH2,,-12.4399988E-3,176.00001395E-3,
Vertical Units,Volts,,-12.4299992E-3,419.999986887E-3,,Vertical Units,Volts,,-12.4299992E-3,178.00000310E-3,
Vertical Scale,499.999988824E-3,,-12.4199996E-3,439.999997616E-3,,Vertical Scale,50.00000237E-3,,-12.4199996E-3,176.00001395E-3,
Vertical Offset,0,,-12.4099990E-3,439.999997616E-3,,Vertical Offset,0,,-12.4099990E-3,176.00001395E-3,
Horizontal Units,s,,-12.3999994E-3,459.999978542E-3,,Horizontal Units,s,,-12.3999994E-3,178.00000310E-3,
Horizontal Scale,2.4999999E-3,,-12.3899989E-3,479.999989271E-3,,Horizontal Scale,2.4999999E-3,,-12.3899989E-3,178.00000310E-3,
Pt Fmt,Y,,-12.3799993E-3,479.999989271E-3,,Pt Fmt,Y,,-12.3799993E-3,178.00000310E-3,
Yzero,0.0,,-12.3699997E-3,500.000000000E-3,,Yzero,0.0,,-12.3699997E-3,176.00001395E-3,
Probe Atten,1.000000,,-12.3599991E-3,519.999980927E-3,,Probe Atten,1.000000,,-12.3599991E-3,172.00000584E-3,
,,,-12.3499995E-3,519.999980927E-3,,,,,-12.3499995E-3,176.00001395E-3,
Note,TBS 1052B-EDU - 01:35:38 p.m.   12/09/2022,,-12.3399990E-3,539.999961853E-3,,Note,TBS 1052B-EDU - 01:35:38 p.m.   12/09/2022,,-12.3399990E-3,174.00000989E-3,
,,,-12.3299994E-3,560.000002384E-3,,,,,-12.3299994E-3,176.00001395E-3,
,,,-12.3199988E-3,560.000002384E-3,,,,,-12.3199988E-3,174.00000989E-3,
,,,-12.3099992E-3,579.999983311E-3,,,,,-12.3099992E-3,174.00000989E-3,
,,,-12.2999996E-3,599.999964237E-3,,,,,-12.2999996E-3,176.00001395E-3,
,,,-12.2899991E-3,599.999964237E-3,,,,,-12.2899991E-3,172.00000584E-3,
,,,-12.2799994E-3,620.000004768E-3,,,,,-12.2799994E-3,174.00000989E-3,
,,,-12.2699989E-3,620.000004768E-3,,,,,-12.2699989E-3,174.00000989E-3,
,,,-12.2599993E-3,639.999985695E-3,,,,,-12.2599993E-3,172.00000584E-3,
,,,-12.2499997E-3,659.999966621E-3,,,,,-12.2499997E-3,174.00000989E-3,
,,,-12.2399991E-3,659.999966621E-3,,,,,-12.2399991E-3,172.00000584E-3,
,,,-12.2299995E-3,680.000007153E-3,,,,,-12.2299995E-3,172.00000584E-3,
,,,-12.2199990E-3,699.999988079E-3,,,,,-12.2199990E-3,168.00001264E-3,
,,,-12.2099994E-3,719.999969006E-3,,,,,-12.2099994E-3,172.00000584E-3,
,,,-12.1999988E-3,719.999969006E-3,,,,,-12.1999988E-3,170.00000179E-3,
,,,-12.1899992E-3,740.000009537E-3,,,,,-12.1899992E-3,168.00001264E-3,
,,,-12.1799996E-3,740.000009537E-3,,,,,-12.1799996E-3,168.00001264E-3,
,,,-12.1699991E-3,759.999990463E-3,,,,,-12.1699991E-3,168.00001264E-3,
,,,-12.1599995E-3,759.999990463E-3,,,,,-12.1599995E-3,168.00001264E-3,
,,,-12.1499989E-3,779.999971390E-3,,,,,-12.1499989E-3,166.00000858E-3,
,,,-12.1399993E-3,799.999952316E-3,,,,,-12.1399993E-3,166.00000858E-3,
,,,-12.1299997E-3,799.999952316E-3,,,,,-12.1299997E-3,166.00000858E-3,
,,,-12.1199992E-3,819.999992847E-3,,,,,-12.1199992E-3,164.00000453E-3,
,,,-12.1099995E-3,819.999992847E-3,,,,,-12.1099995E-3,164.00000453E-3,
,,,-12.0999990E-3,839.999973774E-3,,,,,-12.0999990E-3,164.00000453E-3,
,,,-12.0899994E-3,839.999973774E-3,,,,,-12.0899994E-3,162.00000048E-3,
,,,-12.0799989E-3,859.999954700E-3,,,,,-12.0799989E-3,162.00000048E-3,
,,,-12.0699992E-3,879.999995232E-3,,,,,-12.0699992E-3,162.00000048E-3,
,,,-12.0599996E-3,899.999976158E-3,,,,,-12.0599996E-3,160.00001132E-3,
,,,-12.0499991E-3,899.999976158E-3,,,,,-12.0499991E-3,158.00000727E-3,
,,,-12.0399995E-3,919.999957085E-3,,,,,-12.0399995E-3,160.00001132E-3,
,,,-12.0299989E-3,919.999957085E-3,,,,,-12.0299989E-3,158.00000727E-3,
,,,-12.0199993E-3,939.999997616E-3,,,,,-12.0199993E-3,156.00000322E-3,
,,,-12.0099997E-3,939.999997616E-3,,,,,-12.0099997E-3,156.00000322E-3,
,,,-11.9999992E-3,959.999978542E-3,,,,,-11.9999992E-3,154.00001407E-3,
,,,-11.9899996E-3,979.999959469E-3,,,,,-11.9899996E-3,154.00001407E-3,
,,,-11.9799990E-3,979.999959469E-3,,,,,-11.9799990E-3,156.00000322E-3,
,,,-11.9699994E-3,1.000000,,,,,-11.9699994E-3,152.00001001E-3,
,,,-11.9599989E-3,1.000000,,,,,-11.9599989E-3,150.00000596E-3,
,,,-11.9499993E-3,1.0200000,,,,,-11.9499993E-3,150.00000596E-3,
,,,-11.9399996E-3,1.0400000,,,,,-11.9399996E-3,150.00000596E-3,
,,,-11.9299991E-3,1.0400000,,,,,-11.9299991E-3,148.0000019E-3,
,,,-11.9199995E-3,1.0599999,,,,,-11.9199995E-3,148.0000019E-3,
,,,-11.9099990E-3,1.0599999,,,,,-11.9099990E-3,146.0000128E-3,
,,,-11.8999993E-3,1.0599999,,,,,-11.8999993E-3,146.0000128E-3,
,,,-11.8899997E-3,1.0799999,,,,,-11.8899997E-3,144.0000087E-3,
,,,-11.8799992E-3,1.1000000,,,,,-11.8799992E-3,144.0000087E-3,
,,,-11.8699996E-3,1.1000000,,,,,-11.8699996E-3,142.0000046E-3,
,,,-11.8599990E-3,1.1200000,,,,,-11.8599990E-3,140.0000006E-3,
,,,-11.8499994E-3,1.1200000,,,,,-11.8499994E-3,138.0000114E-3,
,,,-11.8399989E-3,1.1400000,,,,,-11.8399989E-3,138.0000114E-3,
,,,-11.8299993E-3,1.1400000,,,,,-11.8299993E-3,138.0000114E-3,
,,,-11.8199997E-3,1.1600000,,,,,-11.8199997E-3,136.0000074E-3,
,,,-11.8099991E-3,1.1600000,,,,,-11.8099991E-3,136.0000074E-3,
,,,-11.7999995E-3,1.1799999,,,,,-11.7999995E-3,134.0000033E-3,
,,,-11.7899990E-3,1.1799999,,,,,-11.7899990E-3,131.9999993E-3,
,,,-11.7799994E-3,1.1999999,,,,,-11.7799994E-3,131.9999993E-3,
,,,-11.7699988E-3,1.1999999,,,,,-11.7699988E-3,130.0000101E-3,
,,,-11.7599992E-3,1.2200000,,,,,-11.7599992E-3,128.0000061E-3,
,,,-11.7499996E-3,1.2200000,,,,,-11.7499996E-3,128.0000061E-3,
,,,-11.7399991E-3,1.2200000,,,,,-11.7399991E-3,122.0000088E-3,
,,,-11.7299994E-3,1.2400000,,,,,-11.7299994E-3,126.0000020E-3,
,,,-11.7199989E-3,1.2400000,,,,,-11.7199989E-3,122.0000088E-3,
,,,-11.7099993E-3,1.2400000,,,,,-11.7099993E-3,122.0000088E-3,
,,,-11.6999997E-3,1.2400000,,,,,-11.6999997E-3,122.0000088E-3,
,,,-11.6899991E-3,1.2600000,,,,,-11.6899991E-3,120.0000048E-3,
,,,-11.6799995E-3,1.2800000,,,,,-11.6799995E-3,118.0000082E-3,
,,,-11.6699990E-3,1.2600000,,,,,-11.6699990E-3,116.0000041E-3,
,,,-11.6599994E-3,1.2800000,,,,,-11.6599994E-3,114.0000075E-3,
,,,-11.6499988E-3,1.3000000,,,,,-11.6499988E-3,114.0000075E-3,
,,,-11.6399992E-3,1.3000000,,,,,-11.6399992E-3,112.0000035E-3,
,,,-11.6299996E-3,1.3000000,,,,,-11.6299996E-3,110.0000069E-3,
,,,-11.6199991E-3,1.3000000,,,,,-11.6199991E-3,110.0000069E-3,
,,,-11.6099995E-3,1.3199999,,,,,-11.6099995E-3,108.0000028E-3,
,,,-11.5999989E-3,1.3199999,,,,,-11.5999989E-3,108.0000028E-3,
,,,-11.5899993E-3,1.3199999,,,,,-11.5899993E-3,106.0000062E-3,
,,,-11.5799997E-3,1.3399999,,,,,-11.5799997E-3,102.0000055E-3,
,,,-11.5699992E-3,1.3399999,,,,,-11.5699992E-3,100.0000015E-3,
,,,-11.5599995E-3,1.3399999,,,,,-11.5599995E-3,100.0000015E-3,
,,,-11.5499990E-3,1.3600000,,,,,-11.5499990E-3,100.0000015E-3,
,,,-11.5399994E-3,1.3600000,,,,,-11.5399994E-3,98.000004888E-3,
,,,-11.5299989E-3,1.3600000,,,,,-11.5299989E-3,96.000000834E-3,
,,,-11.5199992E-3,1.3800000,,,,,-11.5199992E-3,94.000004232E-3,
,,,-11.5099996E-3,1.3800000,,,,,-11.5099996E-3,94.000004232E-3,
,,,-11.4999991E-3,1.3800000,,,,,-11.4999991E-3,94.000004232E-3,
,,,-11.4899995E-3,1.4000000,,,,,-11.4899995E-3,90.000003576E-3,
,,,-11.4799989E-3,1.4000000,,,,,-11.4799989E-3,88.000006974E-3,
,,,-11.4699993E-3,1.4000000,,,,,-11.4699993E-3,88.000006974E-3,
,,,-11.4599997E-3,1.4000000,,,,,-11.4599997E-3,88.000006974E-3,
,,,-11.4499992E-3,1.4000000,,,,,-11.4499992E-3,84.000006318E-3,
,,,-11.4399996E-3,1.4200000,,,,,-11.4399996E-3,82.000002265E-3,
,,,-11.4299990E-3,1.4200000,,,,,-11.4299990E-3,84.000006318E-3,
,,,-11.4199994E-3,1.4200000,,,,,-11.4199994E-3,78.000001609E-3,
,,,-11.4099989E-3,1.4200000,,,,,-11.4099989E-3,78.000001609E-3,
,,,-11.3999993E-3,1.4200000,,,,,-11.3999993E-3,76.000005007E-3,
,,,-11.3899997E-3,1.4200000,,,,,-11.3899997E-3,74.000000954E-3,
,,,-11.3799991E-3,1.4200000,,,,,-11.3799991E-3,72.000004351E-3,
,,,-11.3699995E-3,1.4200000,,,,,-11.3699995E-3,72.000004351E-3,
,,,-11.3599990E-3,1.4200000,,,,,-11.3599990E-3,68.000003695E-3,
,,,-11.3499993E-3,1.4399999,,,,,-11.3499993E-3,70.000000298E-3,
,,,-11.3399997E-3,1.4399999,,,,,-11.3399997E-3,65.999999642E-3,
,,,-11.3299992E-3,1.4399999,,,,,-11.3299992E-3,64.000003040E-3,
,,,-11.3199996E-3,1.4399999,,,,,-11.3199996E-3,62.000002712E-3,
,,,-11.3099990E-3,1.4399999,,,,,-11.3099990E-3,60.000002384E-3,
,,,-11.2999994E-3,1.4599999,,,,,-11.2999994E-3,58.000002056E-3,
,,,-11.2899989E-3,1.4599999,,,,,-11.2899989E-3,56.000001729E-3,
,,,-11.2799993E-3,1.4599999,,,,,-11.2799993E-3,54.00000140E-3,
,,,-11.2699997E-3,1.4599999,,,,,-11.2699997E-3,54.00000140E-3,
,,,-11.2599991E-3,1.4599999,,,,,-11.2599991E-3,52.00000107E-3,
,,,-11.2499995E-3,1.4599999,,,,,-11.2499995E-3,52.00000107E-3,
,,,-11.2399990E-3,1.4599999,,,,,-11.2399990E-3,48.00000042E-3,
,,,-11.2299994E-3,1.4599999,,,,,-11.2299994E-3,48.00000042E-3,
,,,-11.2199988E-3,1.4599999,,,,,-11.2199988E-3,44.00000349E-3,
,,,-11.2099992E-3,1.4599999,,,,,-11.2099992E-3,44.00000349E-3,
,,,-11.1999996E-3,1.4599999,,,,,-11.1999996E-3,42.00000316E-3,
,,,-11.1899991E-3,1.4800000,,,,,-11.1899991E-3,40.00000283E-3,
,,,-11.1799994E-3,1.4800000,,,,,-11.1799994E-3,40.00000283E-3,
,,,-11.1699989E-3,1.4599999,,,,,-11.1699989E-3,36.00000218E-3,
,,,-11.1599993E-3,1.4599999,,,,,-11.1599993E-3,36.00000218E-3,
,,,-11.1499997E-3,1.4599999,,,,,-11.1499997E-3,34.00000185E-3,
,,,-11.1399991E-3,1.4599999,,,,,-11.1399991E-3,32.00000152E-3,
,,,-11.1299995E-3,1.4599999,,,,,-11.1299995E-3,30.00000119E-3,
,,,-11.1199990E-3,1.4800000,,,,,-11.1199990E-3,28.00000086E-3,
,,,-11.1099994E-3,1.4800000,,,,,-11.1099994E-3,26.00000054E-3,
,,,-11.0999988E-3,1.4599999,,,,,-11.0999988E-3,24.00000021E-3,
,,,-11.0899992E-3,1.4800000,,,,,-11.0899992E-3,24.00000021E-3,
,,,-11.0799996E-3,1.4599999,,,,,-11.0799996E-3,20.0000014E-3,
,,,-11.0699991E-3,1.4599999,,,,,-11.0699991E-3,20.0000014E-3,
,,,-11.0599995E-3,1.4599999,,,,,-11.0599995E-3,18.0000011E-3,
,,,-11.0499989E-3,1.4800000,,,,,-11.0499989E-3,20.0000014E-3,
,,,-11.0399993E-3,1.4599999,,,,,-11.0399993E-3,14.0000004E-3,
,,,-11.0299997E-3,1.4599999,,,,,-11.0299997E-3,12.0000001E-3,
,,,-11.0199992E-3,1.4599999,,,,,-11.0199992E-3,10.0000007E-3,
,,,-11.0099996E-3,1.4599999,,,,,-11.0099996E-3,8.000000380E-3,
,,,-10.9999990E-3,1.4599999,,,,,-10.9999990E-3,6.00000005E-3,
,,,-10.9899994E-3,1.4599999,,,,,-10.9899994E-3,6.00000005E-3,
,,,-10.9799989E-3,1.4399999,,,,,-10.9799989E-3,4.00000019E-3,
,,,-10.9699992E-3,1.4599999,,,,,-10.9699992E-3,2.0000001E-3,
,,,-10.9599996E-3,1.4399999,,,,,-10.9599996E-3,0.0,
,,,-10.9499991E-3,1.4599999,,,,,-10.9499991E-3,-4.00000019E-3,
,,,-10.9399995E-3,1.4399999,,,,,-10.9399995E-3,-4.00000019E-3,
,,,-10.9299989E-3,1.4399999,,,,,-10.9299989E-3,-6.00000005E-3,
,,,-10.9199993E-3,1.4399999,,,,,-10.9199993E-3,-8.000000380E-3,
,,,-10.9099997E-3,1.4399999,,,,,-10.9099997E-3,-10.0000007E-3,
,,,-10.8999992E-3,1.4200000,,,,,-10.8999992E-3,-10.0000007E-3,
,,,-10.8899996E-3,1.4200000,,,,,-10.8899996E-3,-12.0000001E-3,
,,,-10.8799990E-3,1.4200000,,,,,-10.8799990E-3,-14.0000004E-3,
,,,-10.8699994E-3,1.4399999,,,,,-10.8699994E-3,-14.0000004E-3,
,,,-10.8599989E-3,1.4200000,,,,,-10.8599989E-3,-18.0000011E-3,
,,,-10.8499993E-3,1.4200000,,,,,-10.8499993E-3,-18.0000011E-3,
,,,-10.8399997E-3,1.4200000,,,,,-10.8399997E-3,-22.00000174E-3,
,,,-10.8299991E-3,1.4200000,,,,,-10.8299991E-3,-22.00000174E-3,
,,,-10.8199995E-3,1.4200000,,,,,-10.8199995E-3,-24.00000021E-3,
,,,-10.8099990E-3,1.4000000,,,,,-10.8099990E-3,-26.00000054E-3,
,,,-10.7999993E-3,1.4000000,,,,,-10.7999993E-3,-28.00000086E-3,
,,,-10.7899997E-3,1.4000000,,,,,-10.7899997E-3,-30.00000119E-3,
,,,-10.7799992E-3,1.4000000,,,,,-10.7799992E-3,-32.00000152E-3,
,,,-10.7699996E-3,1.3800000,,,,,-10.7699996E-3,-34.00000185E-3,
,,,-10.7599990E-3,1.3800000,,,,,-10.7599990E-3,-34.00000185E-3,
,,,-10.7499994E-3,1.3800000,,,,,-10.7499994E-3,-36.00000218E-3,
,,,-10.7399989E-3,1.3800000,,,,,-10.7399989E-3,-38.00000250E-3,
,,,-10.7299993E-3,1.3600000,,,,,-10.7299993E-3,-40.00000283E-3,
,,,-10.7199997E-3,1.3600000,,,,,-10.7199997E-3,-40.00000283E-3,
,,,-10.7099991E-3,1.3600000,,,,,-10.7099991E-3,-42.00000316E-3,
,,,-10.6999995E-3,1.3399999,,,,,-10.6999995E-3,-44.00000349E-3,
,,,-10.6899990E-3,1.3399999,,,,,-10.6899990E-3,-46.00000381E-3,
,,,-10.6799994E-3,1.3399999,,,,,-10.6799994E-3,-46.00000381E-3,
,,,-10.6699998E-3,1.3199999,,,,,-10.6699998E-3,-50.00000075E-3,
,,,-10.6599992E-3,1.3199999,,,,,-10.6599992E-3,-50.00000075E-3,
,,,-10.6499996E-3,1.3199999,,,,,-10.6499996E-3,-50.00000075E-3,
,,,-10.6399991E-3,1.3199999,,,,,-10.6399991E-3,-54.00000140E-3,
,,,-10.6299995E-3,1.3000000,,,,,-10.6299995E-3,-54.00000140E-3,
,,,-10.6199989E-3,1.2800000,,,,,-10.6199989E-3,-58.000002056E-3,
,,,-10.6099993E-3,1.2800000,,,,,-10.6099993E-3,-58.000002056E-3,
,,,-10.5999997E-3,1.2800000,,,,,-10.5999997E-3,-60.000002384E-3,
,,,-10.5899991E-3,1.2800000,,,,,-10.5899991E-3,-60.000002384E-3,
,,,-10.5799995E-3,1.2600000,,,,,-10.5799995E-3,-64.000003040E-3,
,,,-10.5699990E-3,1.2600000,,,,,-10.5699990E-3,-62.000002712E-3,
,,,-10.5599994E-3,1.2400000,,,,,-10.5599994E-3,-65.999999642E-3,
,,,-10.5499988E-3,1.2400000,,,,,-10.5499988E-3,-68.000003695E-3,
,,,-10.5399992E-3,1.2400000,,,,,-10.5399992E-3,-70.000000298E-3,
,,,-10.5299996E-3,1.2400000,,,,,-10.5299996E-3,-70.000000298E-3,
,,,-10.5199991E-3,1.2200000,,,,,-10.5199991E-3,-72.000004351E-3,
,,,-10.5099995E-3,1.2200000,,,,,-10.5099995E-3,-74.000000954E-3,
,,,-10.4999989E-3,1.1999999,,,,,-10.4999989E-3,-74.000000954E-3,
,,,-10.4899993E-3,1.1999999,,,,,-10.4899993E-3,-76.000005007E-3,
,,,-10.4799997E-3,1.1799999,,,,,-10.4799997E-3,-78.000001609E-3,
,,,-10.4699992E-3,1.1799999,,,,,-10.4699992E-3,-80.000005662E-3,
,,,-10.4599996E-3,1.1600000,,,,,-10.4599996E-3,-82.000002265E-3,
,,,-10.4499990E-3,1.1600000,,,,,-10.4499990E-3,-82.000002265E-3,
,,,-10.4399994E-3,1.1400000,,,,,-10.4399994E-3,-84.000006318E-3,
,,,-10.4299989E-3,1.1400000,,,,,-10.4299989E-3,-86.000002921E-3,
,,,-10.4199992E-3,1.1200000,,,,,-10.4199992E-3,-86.000002921E-3,
,,,-10.4099996E-3,1.1400000,,,,,-10.4099996E-3,-88.000006974E-3,
,,,-10.3999991E-3,1.1000000,,,,,-10.3999991E-3,-88.000006974E-3,
,,,-10.3899995E-3,1.1000000,,,,,-10.3899995E-3,-90.000003576E-3,
,,,-10.3799989E-3,1.1000000,,,,,-10.3799989E-3,-90.000003576E-3,
,,,-10.3699993E-3,1.0799999,,,,,-10.3699993E-3,-94.000004232E-3,
,,,-10.3599997E-3,1.0799999,,,,,-10.3599997E-3,-94.000004232E-3,
,,,-10.3499992E-3,1.0599999,,,,,-10.3499992E-3,-96.000000834E-3,
,,,-10.3399996E-3,1.0599999,,,,,-10.3399996E-3,-98.000004888E-3,
,,,-10.3299990E-3,1.0400000,,,,,-10.3299990E-3,-96.000000834E-3,
,,,-10.3199994E-3,1.0200000,,,,,-10.3199994E-3,-100.0000015E-3,
,,,-10.3099989E-3,1.0200000,,,,,-10.3099989E-3,-102.0000055E-3,
,,,-10.2999993E-3,1.000000,,,,,-10.2999993E-3,-104.0000021E-3,
,,,-10.2899997E-3,1.000000,,,,,-10.2899997E-3,-106.0000062E-3,
,,,-10.2799991E-3,979.999959469E-3,,,,,-10.2799991E-3,-106.0000062E-3,
,,,-10.2699995E-3,979.999959469E-3,,,,,-10.2699995E-3,-108.0000028E-3,
,,,-10.2599990E-3,959.999978542E-3,,,,,-10.2599990E-3,-110.0000069E-3,
,,,-10.2499994E-3,939.999997616E-3,,,,,-10.2499994E-3,-110.0000069E-3,
,,,-10.2399997E-3,939.999997616E-3,,,,,-10.2399997E-3,-110.0000069E-3,
,,,-10.2299992E-3,919.999957085E-3,,,,,-10.2299992E-3,-112.0000035E-3,
,,,-10.2199996E-3,899.999976158E-3,,,,,-10.2199996E-3,-114.0000075E-3,
,,,-10.2099990E-3,879.999995232E-3,,,,,-10.2099990E-3,-116.0000041E-3,
,,,-10.1999994E-3,879.999995232E-3,,,,,-10.1999994E-3,-116.0000041E-3,
,,,-10.1899989E-3,879.999995232E-3,,,,,-10.1899989E-3,-118.0000082E-3,
,,,-10.1799993E-3,859.999954700E-3,,,,,-10.1799993E-3,-120.0000048E-3,
,,,-10.1699997E-3,859.999954700E-3,,,,,-10.1699997E-3,-120.0000048E-3,
,,,-10.1599991E-3,839.999973774E-3,,,,,-10.1599991E-3,-126.0000020E-3,
,,,-10.1499995E-3,839.999973774E-3,,,,,-10.1499995E-3,-122.0000088E-3,
,,,-10.1399990E-3,819.999992847E-3,,,,,-10.1399990E-3,-124.0000054E-3,
,,,-10.1299994E-3,819.999992847E-3,,,,,-10.1299994E-3,-128.0000061E-3,
,,,-10.1199998E-3,799.999952316E-3,,,,,-10.1199998E-3,-126.0000020E-3,
,,,-10.1099992E-3,779.999971390E-3,,,,,-10.1099992E-3,-130.0000101E-3,
,,,-10.0999996E-3,759.999990463E-3,,,,,-10.0999996E-3,-130.0000101E-3,
,,,-10.0899991E-3,759.999990463E-3,,,,,-10.0899991E-3,-130.0000101E-3,
,,,-10.0799995E-3,740.000009537E-3,,,,,-10.0799995E-3,-131.9999993E-3,
,,,-10.0699989E-3,740.000009537E-3,,,,,-10.0699989E-3,-131.9999993E-3,
,,,-10.0599993E-3,719.999969006E-3,,,,,-10.0599993E-3,-134.0000033E-3,
,,,-10.0499997E-3,699.999988079E-3,,,,,-10.0499997E-3,-136.0000074E-3,
,,,-10.0399991E-3,699.999988079E-3,,,,,-10.0399991E-3,-136.0000074E-3,
,,,-10.0299995E-3,680.000007153E-3,,,,,-10.0299995E-3,-138.0000114E-3,
,,,-10.0199990E-3,659.999966621E-3,,,,,-10.0199990E-3,-140.0000006E-3,
,,,-10.0099994E-3,659.999966621E-3,,,,,-10.0099994E-3,-140.0000006E-3,
,,,-9.999999776E-3,639.999985695E-3,,,,,-9.999999776E-3,-142.0000046E-3,
,,,-9.989999235E-3,639.999985695E-3,,,,,-9.989999235E-3,-144.0000087E-3,
,,,-9.979999624E-3,620.000004768E-3,,,,,-9.979999624E-3,-142.0000046E-3,
,,,-9.969999082E-3,599.999964237E-3,,,,,-9.969999082E-3,-144.0000087E-3,
,,,-9.959999472E-3,599.999964237E-3,,,,,-9.959999472E-3,-146.0000128E-3,
,,,-9.949998930E-3,579.999983311E-3,,,,,-9.949998930E-3,-146.0000128E-3,
,,,-9.939999320E-3,579.999983311E-3,,,,,-9.939999320E-3,-148.0000019E-3,
,,,-9.929999709E-3,539.999961853E-3,,,,,-9.929999709E-3,-148.0000019E-3,
,,,-9.919999167E-3,539.999961853E-3,,,,,-9.919999167E-3,-148.0000019E-3,
,,,-9.909999557E-3,519.999980927E-3,,,,,-9.909999557E-3,-150.00000596E-3,
,,,-9.899999015E-3,519.999980927E-3,,,,,-9.899999015E-3,-152.00001001E-3,
,,,-9.889999405E-3,500.000000000E-3,,,,,-9.889999405E-3,-152.00001001E-3,
,,,-9.879998863E-3,479.999989271E-3,,,,,-9.879998863E-3,-150.00000596E-3,
,,,-9.869999252E-3,459.999978542E-3,,,,,-9.869999252E-3,-152.00001001E-3,
,,,-9.859999642E-3,459.999978542E-3,,,,,-9.859999642E-3,-154.00001407E-3,
,,,-9.849999100E-3,439.999997616E-3,,,,,-9.849999100E-3,-156.00000322E-3,
,,,-9.839999489E-3,439.999997616E-3,,,,,-9.839999489E-3,-158.00000727E-3,
,,,-9.829998948E-3,419.999986887E-3,,,,,-9.829998948E-3,-156.00000322E-3,
,,,-9.819999337E-3,399.99997616E-3,,,,,-9.819999337E-3,-156.00000322E-3,
,,,-9.809999727E-3,379.99999523E-3,,,,,-9.809999727E-3,-158.00000727E-3,
,,,-9.799999185E-3,379.99999523E-3,,,,,-9.799999185E-3,-158.00000727E-3,
,,,-9.789999574E-3,359.99998450E-3,,,,,-9.789999574E-3,-160.00001132E-3,
,,,-9.779999033E-3,340.00000358E-3,,,,,-9.779999033E-3,-162.00000048E-3,
,,,-9.769999422E-3,319.99999285E-3,,,,,-9.769999422E-3,-164.00000453E-3,
,,,-9.759998880E-3,299.99998212E-3,,,,,-9.759998880E-3,-162.00000048E-3,
,,,-9.749999270E-3,280.00000119E-3,,,,,-9.749999270E-3,-162.00000048E-3,
,,,-9.739999659E-3,280.00000119E-3,,,,,-9.739999659E-3,-162.00000048E-3,
,,,-9.729999118E-3,259.99999046E-3,,,,,-9.729999118E-3,-164.00000453E-3,
,,,-9.719999507E-3,259.99999046E-3,,,,,-9.719999507E-3,-164.00000453E-3,
,,,-9.709998965E-3,239.99999464E-3,,,,,-9.709998965E-3,-166.00000858E-3,
,,,-9.699999355E-3,219.99999881E-3,,,,,-9.699999355E-3,-164.00000453E-3,
,,,-9.689999744E-3,199.99998808E-3,,,,,-9.689999744E-3,-168.00001264E-3,
,,,-9.679999202E-3,199.99998808E-3,,,,,-9.679999202E-3,-168.00001264E-3,
,,,-9.669999592E-3,179.99999225E-3,,,,,-9.669999592E-3,-168.00001264E-3,
,,,-9.659999050E-3,179.99999225E-3,,,,,-9.659999050E-3,-168.00001264E-3,
,,,-9.649999440E-3,159.99999642E-3,,,,,-9.649999440E-3,-168.00001264E-3,
,,,-9.639998898E-3,140.0000006E-3,,,,,-9.639998898E-3,-168.00001264E-3,
,,,-9.629999287E-3,119.9999973E-3,,,,,-9.629999287E-3,-170.00000179E-3,
,,,-9.619999677E-3,119.9999973E-3,,,,,-9.619999677E-3,-170.00000179E-3,
,,,-9.609999135E-3,99.999994040E-3,,,,,-9.609999135E-3,-168.00001264E-3,
