segundo_informe/barrido_rc_pasaaltos/60.csv

Record Length,2500,Points,-49.99999702E-3,319.99999285E-3,,Record Length,2500,Points,-49.99999702E-3,71.199998260E-3,
Sample Interval,39.99999899E-6,s,-49.95999858E-3,340.00000358E-3,,Sample Interval,39.99999899E-6,s,-49.95999858E-3,70.399999619E-3,
Trigger Point,1.2500000E3,Samples,-49.91999641E-3,359.99998450E-3,,Trigger Point,1.2500000E3,Samples,-49.91999641E-3,70.399999619E-3,
,,,-49.87999797E-3,379.99999523E-3,,,,,-49.87999797E-3,71.199998260E-3,
,,,-49.83999580E-3,399.99997616E-3,,,,,-49.83999580E-3,69.600000978E-3,
,,,-49.79999736E-3,439.999997616E-3,,,,,-49.79999736E-3,70.399999619E-3,
Source,CH1,,-49.75999519E-3,459.999978542E-3,,Source,CH2,,-49.75999519E-3,69.600000978E-3,
Vertical Units,Volts,,-49.71999675E-3,459.999978542E-3,,Vertical Units,Volts,,-49.71999675E-3,69.600000978E-3,
Vertical Scale,499.999988824E-3,,-49.67999831E-3,479.999989271E-3,,Vertical Scale,19.9999995E-3,,-49.67999831E-3,69.600000978E-3,
Vertical Offset,0,,-49.63999614E-3,500.000000000E-3,,Vertical Offset,0,,-49.63999614E-3,68.799994886E-3,
Horizontal Units,s,,-49.59999770E-3,519.999980927E-3,,Horizontal Units,s,,-49.59999770E-3,69.600000978E-3,
Horizontal Scale,9.999999747E-3,,-49.55999553E-3,560.000002384E-3,,Horizontal Scale,9.999999747E-3,,-49.55999553E-3,68.799994886E-3,
Pt Fmt,Y,,-49.51999709E-3,560.000002384E-3,,Pt Fmt,Y,,-49.51999709E-3,67.199997604E-3,
Yzero,0.0,,-49.47999865E-3,599.999964237E-3,,Yzero,0.0,,-49.47999865E-3,67.199997604E-3,
Probe Atten,1.000000,,-49.43999648E-3,620.000004768E-3,,Probe Atten,1.000000,,-49.43999648E-3,67.999996245E-3,
,,,-49.39999804E-3,620.000004768E-3,,,,,-49.39999804E-3,67.199997604E-3,
Note,TBS 1052B-EDU - 01:31:06 p.m.   12/09/2022,,-49.35999587E-3,639.999985695E-3,,Note,TBS 1052B-EDU - 01:31:06 p.m.   12/09/2022,,-49.35999587E-3,66.399998963E-3,
,,,-49.31999743E-3,659.999966621E-3,,,,,-49.31999743E-3,67.999996245E-3,
,,,-49.27999526E-3,680.000007153E-3,,,,,-49.27999526E-3,67.199997604E-3,
,,,-49.23999682E-3,699.999988079E-3,,,,,-49.23999682E-3,66.399998963E-3,
,,,-49.19999838E-3,719.999969006E-3,,,,,-49.19999838E-3,66.399998963E-3,
,,,-49.15999621E-3,740.000009537E-3,,,,,-49.15999621E-3,64.800001681E-3,
,,,-49.11999777E-3,759.999990463E-3,,,,,-49.11999777E-3,63.999995589E-3,
,,,-49.07999560E-3,779.999971390E-3,,,,,-49.07999560E-3,64.800001681E-3,
,,,-49.03999716E-3,799.999952316E-3,,,,,-49.03999716E-3,63.999995589E-3,
,,,-48.99999872E-3,819.999992847E-3,,,,,-48.99999872E-3,63.199996948E-3,
,,,-48.95999655E-3,839.999973774E-3,,,,,-48.95999655E-3,63.999995589E-3,
,,,-48.91999811E-3,859.999954700E-3,,,,,-48.91999811E-3,65.600000322E-3,
,,,-48.87999594E-3,859.999954700E-3,,,,,-48.87999594E-3,62.399998307E-3,
,,,-48.83999750E-3,879.999995232E-3,,,,,-48.83999750E-3,61.599999666E-3,
,,,-48.79999533E-3,899.999976158E-3,,,,,-48.79999533E-3,61.599999666E-3,
,,,-48.75999689E-3,919.999957085E-3,,,,,-48.75999689E-3,60.799997300E-3,
,,,-48.71999845E-3,939.999997616E-3,,,,,-48.71999845E-3,59.999998659E-3,
,,,-48.67999628E-3,959.999978542E-3,,,,,-48.67999628E-3,59.999998659E-3,
,,,-48.63999784E-3,979.999959469E-3,,,,,-48.63999784E-3,55.999998003E-3,
,,,-48.59999567E-3,1.000000,,,,,-48.59999567E-3,58.399997652E-3,
,,,-48.55999723E-3,1.0200000,,,,,-48.55999723E-3,56.800000370E-3,
,,,-48.51999879E-3,1.0400000,,,,,-48.51999879E-3,57.599999011E-3,
,,,-48.47999662E-3,1.0400000,,,,,-48.47999662E-3,56.800000370E-3,
,,,-48.43999818E-3,1.0599999,,,,,-48.43999818E-3,55.999998003E-3,
,,,-48.39999601E-3,1.0799999,,,,,-48.39999601E-3,56.800000370E-3,
,,,-48.35999757E-3,1.1000000,,,,,-48.35999757E-3,55.199999362E-3,
,,,-48.31999540E-3,1.1000000,,,,,-48.31999540E-3,54.39999700E-3,
,,,-48.27999696E-3,1.1200000,,,,,-48.27999696E-3,52.79999971E-3,
,,,-48.23999852E-3,1.1400000,,,,,-48.23999852E-3,51.99999735E-3,
,,,-48.19999635E-3,1.1400000,,,,,-48.19999635E-3,51.19999871E-3,
,,,-48.15999791E-3,1.1600000,,,,,-48.15999791E-3,51.19999871E-3,
,,,-48.11999574E-3,1.1799999,,,,,-48.11999574E-3,49.59999770E-3,
,,,-48.07999730E-3,1.1999999,,,,,-48.07999730E-3,49.59999770E-3,
,,,-48.03999886E-3,1.1999999,,,,,-48.03999886E-3,49.59999770E-3,
,,,-47.99999669E-3,1.2200000,,,,,-47.99999669E-3,48.00000042E-3,
,,,-47.95999825E-3,1.2200000,,,,,-47.95999825E-3,47.19999805E-3,
,,,-47.91999608E-3,1.2400000,,,,,-47.91999608E-3,46.39999941E-3,
,,,-47.87999764E-3,1.2400000,,,,,-47.87999764E-3,46.39999941E-3,
,,,-47.83999547E-3,1.2600000,,,,,-47.83999547E-3,40.79999775E-3,
,,,-47.79999703E-3,1.2600000,,,,,-47.79999703E-3,43.99999976E-3,
,,,-47.75999859E-3,1.2800000,,,,,-47.75999859E-3,42.39999875E-3,
,,,-47.71999642E-3,1.2800000,,,,,-47.71999642E-3,41.60000011E-3,
,,,-47.67999798E-3,1.3199999,,,,,-47.67999798E-3,40.79999775E-3,
,,,-47.63999581E-3,1.3199999,,,,,-47.63999581E-3,39.99999911E-3,
,,,-47.59999737E-3,1.3199999,,,,,-47.59999737E-3,39.20000046E-3,
,,,-47.55999893E-3,1.3399999,,,,,-47.55999893E-3,38.39999810E-3,
,,,-47.51999676E-3,1.3399999,,,,,-47.51999676E-3,37.59999946E-3,
,,,-47.47999832E-3,1.3600000,,,,,-47.47999832E-3,36.80000082E-3,
,,,-47.43999615E-3,1.3600000,,,,,-47.43999615E-3,35.99999845E-3,
,,,-47.39999771E-3,1.3600000,,,,,-47.39999771E-3,34.39999744E-3,
,,,-47.35999554E-3,1.3800000,,,,,-47.35999554E-3,33.59999880E-3,
,,,-47.31999710E-3,1.3800000,,,,,-47.31999710E-3,32.80000016E-3,
,,,-47.27999866E-3,1.4000000,,,,,-47.27999866E-3,31.99999779E-3,
,,,-47.23999649E-3,1.4000000,,,,,-47.23999649E-3,31.19999915E-3,
,,,-47.19999805E-3,1.4000000,,,,,-47.19999805E-3,30.39999865E-3,
,,,-47.15999588E-3,1.4200000,,,,,-47.15999588E-3,28.79999951E-3,
,,,-47.11999744E-3,1.4200000,,,,,-47.11999744E-3,27.19999850E-3,
,,,-47.07999527E-3,1.4200000,,,,,-47.07999527E-3,27.99999900E-3,
,,,-47.03999683E-3,1.4200000,,,,,-47.03999683E-3,28.79999951E-3,
,,,-46.99999839E-3,1.4399999,,,,,-46.99999839E-3,24.79999885E-3,
,,,-46.95999622E-3,1.4399999,,,,,-46.95999622E-3,24.79999885E-3,
,,,-46.91999778E-3,1.4399999,,,,,-46.91999778E-3,22.39999920E-3,
,,,-46.87999561E-3,1.4399999,,,,,-46.87999561E-3,22.39999920E-3,
,,,-46.83999717E-3,1.4599999,,,,,-46.83999717E-3,21.59999870E-3,
,,,-46.79999873E-3,1.4599999,,,,,-46.79999873E-3,20.80000006E-3,
,,,-46.75999656E-3,1.4599999,,,,,-46.75999656E-3,19.1999990E-3,
,,,-46.71999812E-3,1.4599999,,,,,-46.71999812E-3,17.5999999E-3,
,,,-46.67999595E-3,1.4599999,,,,,-46.67999595E-3,16.7999994E-3,
,,,-46.63999751E-3,1.4599999,,,,,-46.63999751E-3,15.9999989E-3,
,,,-46.59999534E-3,1.4800000,,,,,-46.59999534E-3,14.3999998E-3,
,,,-46.55999690E-3,1.4599999,,,,,-46.55999690E-3,14.3999998E-3,
,,,-46.51999846E-3,1.4800000,,,,,-46.51999846E-3,12.7999997E-3,
,,,-46.47999629E-3,1.4800000,,,,,-46.47999629E-3,12.0000001E-3,
,,,-46.43999785E-3,1.4800000,,,,,-46.43999785E-3,10.4000000E-3,
,,,-46.39999568E-3,1.4800000,,,,,-46.39999568E-3,9.599999525E-3,
,,,-46.35999724E-3,1.4800000,,,,,-46.35999724E-3,8.799999952E-3,
,,,-46.31999880E-3,1.4800000,,,,,-46.31999880E-3,7.19999988E-3,
,,,-46.27999663E-3,1.4800000,,,,,-46.27999663E-3,6.39999984E-3,
,,,-46.23999819E-3,1.4800000,,,,,-46.23999819E-3,6.39999984E-3,
,,,-46.19999602E-3,1.4599999,,,,,-46.19999602E-3,4.79999976E-3,
,,,-46.15999758E-3,1.4599999,,,,,-46.15999758E-3,3.19999992E-3,
,,,-46.11999542E-3,1.4800000,,,,,-46.11999542E-3,2.3999999E-3,
,,,-46.07999697E-3,1.4599999,,,,,-46.07999697E-3,2.3999999E-3,
,,,-46.03999853E-3,1.4599999,,,,,-46.03999853E-3,1.6000000E-3,
,,,-45.99999636E-3,1.4599999,,,,,-45.99999636E-3,799.999979790E-6,
,,,-45.95999792E-3,1.4599999,,,,,-45.95999792E-3,-1.6000000E-3,
,,,-45.91999575E-3,1.4399999,,,,,-45.91999575E-3,-2.3999999E-3,
,,,-45.87999731E-3,1.4599999,,,,,-45.87999731E-3,-3.99999972E-3,
,,,-45.83999887E-3,1.4399999,,,,,-45.83999887E-3,-3.99999972E-3,
,,,-45.79999670E-3,1.4399999,,,,,-45.79999670E-3,-4.79999976E-3,
,,,-45.75999826E-3,1.4399999,,,,,-45.75999826E-3,-6.39999984E-3,
,,,-45.71999609E-3,1.4399999,,,,,-45.71999609E-3,-5.59999980E-3,
,,,-45.67999765E-3,1.4399999,,,,,-45.67999765E-3,-8.799999952E-3,
,,,-45.63999549E-3,1.4200000,,,,,-45.63999549E-3,-10.4000000E-3,
,,,-45.59999704E-3,1.4200000,,,,,-45.59999704E-3,-10.4000000E-3,
,,,-45.55999860E-3,1.4200000,,,,,-45.55999860E-3,-11.1999996E-3,
,,,-45.51999643E-3,1.4200000,,,,,-45.51999643E-3,-12.7999997E-3,
,,,-45.47999799E-3,1.4000000,,,,,-45.47999799E-3,-12.7999997E-3,
,,,-45.43999583E-3,1.4000000,,,,,-45.43999583E-3,-14.3999998E-3,
,,,-45.39999738E-3,1.3800000,,,,,-45.39999738E-3,-15.1999993E-3,
,,,-45.35999894E-3,1.3800000,,,,,-45.35999894E-3,-15.9999989E-3,
,,,-45.31999677E-3,1.3800000,,,,,-45.31999677E-3,-15.9999989E-3,
,,,-45.27999833E-3,1.3600000,,,,,-45.27999833E-3,-17.5999999E-3,
,,,-45.23999617E-3,1.3600000,,,,,-45.23999617E-3,-18.4000004E-3,
,,,-45.19999772E-3,1.3600000,,,,,-45.19999772E-3,-19.1999990E-3,
,,,-45.15999556E-3,1.3399999,,,,,-45.15999556E-3,-19.9999996E-3,
,,,-45.11999711E-3,1.3199999,,,,,-45.11999711E-3,-20.80000006E-3,
,,,-45.07999867E-3,1.3199999,,,,,-45.07999867E-3,-21.59999870E-3,
,,,-45.03999650E-3,1.3199999,,,,,-45.03999650E-3,-23.19999970E-3,
,,,-44.99999806E-3,1.3000000,,,,,-44.99999806E-3,-24.00000021E-3,
,,,-44.95999590E-3,1.2800000,,,,,-44.95999590E-3,-24.79999885E-3,
,,,-44.91999745E-3,1.2800000,,,,,-44.91999745E-3,-26.39999986E-3,
,,,-44.87999529E-3,1.2600000,,,,,-44.87999529E-3,-27.19999850E-3,
,,,-44.83999684E-3,1.2600000,,,,,-44.83999684E-3,-27.99999900E-3,
,,,-44.79999840E-3,1.2400000,,,,,-44.79999840E-3,-28.79999951E-3,
,,,-44.75999624E-3,1.2400000,,,,,-44.75999624E-3,-29.60000001E-3,
,,,-44.71999779E-3,1.2200000,,,,,-44.71999779E-3,-30.39999865E-3,
,,,-44.67999563E-3,1.2200000,,,,,-44.67999563E-3,-31.99999779E-3,
,,,-44.63999718E-3,1.1799999,,,,,-44.63999718E-3,-31.99999779E-3,
,,,-44.59999874E-3,1.1799999,,,,,-44.59999874E-3,-32.80000016E-3,
,,,-44.55999658E-3,1.1600000,,,,,-44.55999658E-3,-34.39999744E-3,
,,,-44.51999813E-3,1.1600000,,,,,-44.51999813E-3,-30.39999865E-3,
,,,-44.47999597E-3,1.1400000,,,,,-44.47999597E-3,-35.99999845E-3,
,,,-44.43999752E-3,1.1200000,,,,,-44.43999752E-3,-36.80000082E-3,
,,,-44.39999536E-3,1.1200000,,,,,-44.39999536E-3,-37.59999946E-3,
,,,-44.35999691E-3,1.1000000,,,,,-44.35999691E-3,-37.59999946E-3,
,,,-44.31999847E-3,1.0799999,,,,,-44.31999847E-3,-38.39999810E-3,
,,,-44.27999631E-3,1.0599999,,,,,-44.27999631E-3,-39.99999911E-3,
,,,-44.23999786E-3,1.0599999,,,,,-44.23999786E-3,-39.20000046E-3,
,,,-44.19999570E-3,1.0400000,,,,,-44.19999570E-3,-41.60000011E-3,
,,,-44.15999725E-3,1.0200000,,,,,-44.15999725E-3,-43.19999740E-3,
,,,-44.11999881E-3,1.000000,,,,,-44.11999881E-3,-44.79999840E-3,
,,,-44.07999665E-3,979.999959469E-3,,,,,-44.07999665E-3,-43.99999976E-3,
,,,-44.03999820E-3,959.999978542E-3,,,,,-44.03999820E-3,-44.79999840E-3,
,,,-43.99999604E-3,939.999997616E-3,,,,,-43.99999604E-3,-46.39999941E-3,
,,,-43.95999759E-3,919.999957085E-3,,,,,-43.95999759E-3,-46.39999941E-3,
,,,-43.91999543E-3,899.999976158E-3,,,,,-43.91999543E-3,-46.39999941E-3,
,,,-43.87999699E-3,899.999976158E-3,,,,,-43.87999699E-3,-47.19999805E-3,
,,,-43.83999854E-3,879.999995232E-3,,,,,-43.83999854E-3,-48.79999906E-3,
,,,-43.79999638E-3,859.999954700E-3,,,,,-43.79999638E-3,-48.79999906E-3,
,,,-43.75999793E-3,839.999973774E-3,,,,,-43.75999793E-3,-49.59999770E-3,
,,,-43.71999577E-3,819.999992847E-3,,,,,-43.71999577E-3,-51.19999871E-3,
,,,-43.67999732E-3,799.999952316E-3,,,,,-43.67999732E-3,-54.39999700E-3,
,,,-43.63999888E-3,799.999952316E-3,,,,,-43.63999888E-3,-51.99999735E-3,
,,,-43.59999672E-3,779.999971390E-3,,,,,-43.59999672E-3,-53.59999835E-3,
,,,-43.55999827E-3,740.000009537E-3,,,,,-43.55999827E-3,-53.59999835E-3,
,,,-43.51999611E-3,740.000009537E-3,,,,,-43.51999611E-3,-54.39999700E-3,
,,,-43.47999766E-3,719.999969006E-3,,,,,-43.47999766E-3,-55.199999362E-3,
,,,-43.43999550E-3,699.999988079E-3,,,,,-43.43999550E-3,-55.999998003E-3,
,,,-43.39999706E-3,680.000007153E-3,,,,,-43.39999706E-3,-56.800000370E-3,
,,,-43.35999861E-3,659.999966621E-3,,,,,-43.35999861E-3,-59.999998659E-3,
,,,-43.31999645E-3,639.999985695E-3,,,,,-43.31999645E-3,-57.599999011E-3,
,,,-43.27999800E-3,620.000004768E-3,,,,,-43.27999800E-3,-57.599999011E-3,
,,,-43.23999584E-3,599.999964237E-3,,,,,-43.23999584E-3,-59.200000018E-3,
,,,-43.19999740E-3,579.999983311E-3,,,,,-43.19999740E-3,-59.999998659E-3,
,,,-43.15999895E-3,560.000002384E-3,,,,,-43.15999895E-3,-59.999998659E-3,
,,,-43.11999679E-3,539.999961853E-3,,,,,-43.11999679E-3,-61.599999666E-3,
,,,-43.07999834E-3,519.999980927E-3,,,,,-43.07999834E-3,-61.599999666E-3,
,,,-43.03999618E-3,500.000000000E-3,,,,,-43.03999618E-3,-59.999998659E-3,
,,,-42.99999774E-3,479.999989271E-3,,,,,-42.99999774E-3,-61.599999666E-3,
,,,-42.95999557E-3,439.999997616E-3,,,,,-42.95999557E-3,-62.399998307E-3,
,,,-42.91999713E-3,439.999997616E-3,,,,,-42.91999713E-3,-62.399998307E-3,
,,,-42.87999868E-3,419.999986887E-3,,,,,-42.87999868E-3,-63.199996948E-3,
,,,-42.83999652E-3,399.99997616E-3,,,,,-42.83999652E-3,-63.199996948E-3,
,,,-42.79999807E-3,359.99998450E-3,,,,,-42.79999807E-3,-64.800001681E-3,
,,,-42.75999591E-3,359.99998450E-3,,,,,-42.75999591E-3,-65.600000322E-3,
,,,-42.71999747E-3,340.00000358E-3,,,,,-42.71999747E-3,-64.800001681E-3,
,,,-42.67999902E-3,299.99998212E-3,,,,,-42.67999902E-3,-64.800001681E-3,
,,,-42.63999686E-3,280.00000119E-3,,,,,-42.63999686E-3,-65.600000322E-3,
,,,-42.59999841E-3,259.99999046E-3,,,,,-42.59999841E-3,-66.399998963E-3,
,,,-42.55999625E-3,239.99999464E-3,,,,,-42.55999625E-3,-67.199997604E-3,
,,,-42.51999781E-3,219.99999881E-3,,,,,-42.51999781E-3,-67.199997604E-3,
,,,-42.47999564E-3,199.99998808E-3,,,,,-42.47999564E-3,-67.199997604E-3,
,,,-42.43999720E-3,179.99999225E-3,,,,,-42.43999720E-3,-66.399998963E-3,
,,,-42.39999875E-3,159.99999642E-3,,,,,-42.39999875E-3,-66.399998963E-3,
,,,-42.35999659E-3,119.9999973E-3,,,,,-42.35999659E-3,-67.199997604E-3,
,,,-42.31999815E-3,99.999994040E-3,,,,,-42.31999815E-3,-69.600000978E-3,
,,,-42.27999598E-3,79.999998212E-3,,,,,-42.27999598E-3,-67.999996245E-3,
,,,-42.23999754E-3,79.999998212E-3,,,,,-42.23999754E-3,-68.799994886E-3,
,,,-42.19999537E-3,39.99999911E-3,,,,,-42.19999537E-3,-67.199997604E-3,
,,,-42.15999693E-3,19.9999996E-3,,,,,-42.15999693E-3,-68.799994886E-3,
,,,-42.11999848E-3,0.0,,,,,-42.11999848E-3,-67.999996245E-3,
,,,-42.07999632E-3,-19.9999996E-3,,,,,-42.07999632E-3,-71.999996901E-3,
,,,-42.03999788E-3,-39.99999911E-3,,,,,-42.03999788E-3,-69.600000978E-3,
,,,-41.99999571E-3,-59.999998659E-3,,,,,-41.99999571E-3,-67.999996245E-3,
,,,-41.95999727E-3,-79.999998212E-3,,,,,-41.95999727E-3,-68.799994886E-3,
,,,-41.91999882E-3,-99.999994040E-3,,,,,-41.91999882E-3,-69.600000978E-3,
,,,-41.87999666E-3,-119.9999973E-3,,,,,-41.87999666E-3,-68.799994886E-3,
,,,-41.83999822E-3,-140.0000006E-3,,,,,-41.83999822E-3,-68.799994886E-3,
,,,-41.79999605E-3,-179.99999225E-3,,,,,-41.79999605E-3,-68.799994886E-3,
,,,-41.75999761E-3,-199.99998808E-3,,,,,-41.75999761E-3,-67.999996245E-3,
,,,-41.71999544E-3,-219.99999881E-3,,,,,-41.71999544E-3,-67.999996245E-3,
,,,-41.67999700E-3,-239.99999464E-3,,,,,-41.67999700E-3,-68.799994886E-3,
,,,-41.63999856E-3,-259.99999046E-3,,,,,-41.63999856E-3,-69.600000978E-3,
,,,-41.59999639E-3,-280.00000119E-3,,,,,-41.59999639E-3,-68.799994886E-3,
,,,-41.55999795E-3,-299.99998212E-3,,,,,-41.55999795E-3,-67.999996245E-3,
,,,-41.51999578E-3,-319.99999285E-3,,,,,-41.51999578E-3,-67.999996245E-3,
,,,-41.47999734E-3,-340.00000358E-3,,,,,-41.47999734E-3,-67.199997604E-3,
,,,-41.43999889E-3,-359.99998450E-3,,,,,-41.43999889E-3,-67.999996245E-3,
,,,-41.39999673E-3,-379.99999523E-3,,,,,-41.39999673E-3,-66.399998963E-3,
,,,-41.35999829E-3,-399.99997616E-3,,,,,-41.35999829E-3,-67.199997604E-3,
,,,-41.31999612E-3,-419.999986887E-3,,,,,-41.31999612E-3,-67.199997604E-3,
,,,-41.27999768E-3,-459.999978542E-3,,,,,-41.27999768E-3,-66.399998963E-3,
,,,-41.23999551E-3,-479.999989271E-3,,,,,-41.23999551E-3,-66.399998963E-3,
,,,-41.19999707E-3,-500.000000000E-3,,,,,-41.19999707E-3,-67.199997604E-3,
,,,-41.15999863E-3,-519.999980927E-3,,,,,-41.15999863E-3,-67.199997604E-3,
,,,-41.11999646E-3,-539.999961853E-3,,,,,-41.11999646E-3,-67.199997604E-3,
,,,-41.07999802E-3,-560.000002384E-3,,,,,-41.07999802E-3,-65.600000322E-3,
,,,-41.03999585E-3,-560.000002384E-3,,,,,-41.03999585E-3,-66.399998963E-3,
,,,-40.99999741E-3,-579.999983311E-3,,,,,-40.99999741E-3,-65.600000322E-3,
,,,-40.95999897E-3,-620.000004768E-3,,,,,-40.95999897E-3,-64.800001681E-3,
,,,-40.91999680E-3,-620.000004768E-3,,,,,-40.91999680E-3,-65.600000322E-3,
,,,-40.87999836E-3,-639.999985695E-3,,,,,-40.87999836E-3,-63.999995589E-3,
,,,-40.83999619E-3,-659.999966621E-3,,,,,-40.83999619E-3,-65.600000322E-3,
,,,-40.79999775E-3,-680.000007153E-3,,,,,-40.79999775E-3,-63.999995589E-3,
,,,-40.75999558E-3,-699.999988079E-3,,,,,-40.75999558E-3,-59.999998659E-3,
,,,-40.71999714E-3,-719.999969006E-3,,,,,-40.71999714E-3,-63.199996948E-3,
,,,-40.67999870E-3,-740.000009537E-3,,,,,-40.67999870E-3,-62.399998307E-3,
,,,-40.63999653E-3,-759.999990463E-3,,,,,-40.63999653E-3,-59.999998659E-3,
,,,-40.59999809E-3,-779.999971390E-3,,,,,-40.59999809E-3,-61.599999666E-3,
,,,-40.55999592E-3,-779.999971390E-3,,,,,-40.55999592E-3,-60.799997300E-3,
,,,-40.51999748E-3,-819.999992847E-3,,,,,-40.51999748E-3,-60.799997300E-3,
,,,-40.47999904E-3,-819.999992847E-3,,,,,-40.47999904E-3,-60.799997300E-3,
,,,-40.43999687E-3,-839.999973774E-3,,,,,-40.43999687E-3,-58.399997652E-3,
,,,-40.39999843E-3,-859.999954700E-3,,,,,-40.39999843E-3,-59.200000018E-3,
,,,-40.35999626E-3,-879.999995232E-3,,,,,-40.35999626E-3,-59.200000018E-3,
,,,-40.31999782E-3,-899.999976158E-3,,,,,-40.31999782E-3,-59.999998659E-3,
,,,-40.27999565E-3,-899.999976158E-3,,,,,-40.27999565E-3,-58.399997652E-3,
,,,-40.23999721E-3,-919.999957085E-3,,,,,-40.23999721E-3,-57.599999011E-3,
,,,-40.19999877E-3,-939.999997616E-3,,,,,-40.19999877E-3,-56.800000370E-3,
,,,-40.15999660E-3,-959.999978542E-3,,,,,-40.15999660E-3,-56.800000370E-3,
,,,-40.11999816E-3,-979.999959469E-3,,,,,-40.11999816E-3,-55.999998003E-3,
,,,-40.07999599E-3,-1.000000,,,,,-40.07999599E-3,-53.59999835E-3,
,,,-40.03999755E-3,-1.000000,,,,,-40.03999755E-3,-52.79999971E-3,
,,,-39.99999911E-3,-1.0200000,,,,,-39.99999911E-3,-52.79999971E-3,
,,,-39.95999694E-3,-1.0400000,,,,,-39.95999694E-3,-51.99999735E-3,
,,,-39.91999850E-3,-1.0599999,,,,,-39.91999850E-3,-52.79999971E-3,
,,,-39.87999633E-3,-1.0599999,,,,,-39.87999633E-3,-52.79999971E-3,
,,,-39.83999789E-3,-1.0799999,,,,,-39.83999789E-3,-50.40000007E-3,
,,,-39.79999572E-3,-1.1000000,,,,,-39.79999572E-3,-50.40000007E-3,
,,,-39.75999728E-3,-1.1200000,,,,,-39.75999728E-3,-48.79999906E-3,
,,,-39.71999884E-3,-1.1200000,,,,,-39.71999884E-3,-48.00000042E-3,
,,,-39.67999667E-3,-1.1400000,,,,,-39.67999667E-3,-46.39999941E-3,
,,,-39.63999823E-3,-1.1400000,,,,,-39.63999823E-3,-47.19999805E-3,
,,,-39.59999606E-3,-1.1600000,,,,,-39.59999606E-3,-45.59999704E-3,
,,,-39.55999762E-3,-1.1600000,,,,,-39.55999762E-3,-45.59999704E-3,
,,,-39.51999545E-3,-1.1799999,,,,,-39.51999545E-3,-43.99999976E-3,
,,,-39.47999701E-3,-1.1999999,,,,,-39.47999701E-3,-43.99999976E-3,
,,,-39.43999857E-3,-1.1999999,,,,,-39.43999857E-3,-42.39999875E-3,
,,,-39.39999640E-3,-1.2200000,,,,,-39.39999640E-3,-41.60000011E-3,
,,,-39.35999796E-3,-1.2200000,,,,,-39.35999796E-3,-39.99999911E-3,
,,,-39.31999579E-3,-1.2400000,,,,,-39.31999579E-3,-41.60000011E-3,
,,,-39.27999735E-3,-1.2400000,,,,,-39.27999735E-3,-39.99999911E-3,
,,,-39.23999891E-3,-1.2600000,,,,,-39.23999891E-3,-38.39999810E-3,
,,,-39.19999674E-3,-1.2800000,,,,,-39.19999674E-3,-36.80000082E-3,
,,,-39.15999830E-3,-1.2800000,,,,,-39.15999830E-3,-39.20000046E-3,
,,,-39.11999613E-3,-1.2800000,,,,,-39.11999613E-3,-35.99999845E-3,
,,,-39.07999769E-3,-1.3000000,,,,,-39.07999769E-3,-34.39999744E-3,
,,,-39.03999552E-3,-1.3000000,,,,,-39.03999552E-3,-33.59999880E-3,
,,,-38.99999708E-3,-1.3000000,,,,,-38.99999708E-3,-32.80000016E-3,
,,,-38.95999864E-3,-1.3199999,,,,,-38.95999864E-3,-31.99999779E-3,
,,,-38.91999647E-3,-1.3199999,,,,,-38.91999647E-3,-30.39999865E-3,
,,,-38.87999803E-3,-1.3199999,,,,,-38.87999803E-3,-29.60000001E-3,
,,,-38.83999586E-3,-1.3399999,,,,,-38.83999586E-3,-28.79999951E-3,
