primer_informe/clase3/barrido_rlc_serie/Hz/400.csv

Record Length,2500,Points,-5.40000014E-3,-159.99999642E-3,,Record Length,2500,Points,-5.40000014E-3,-1.1000000,
Sample Interval,3.99999999E-6,s,-5.39600011E-3,-140.0000006E-3,,Sample Interval,3.99999999E-6,s,-5.39600011E-3,-1.0799999,
Trigger Point,1.3500001E3,Samples,-5.39200008E-3,-140.0000006E-3,,Trigger Point,1.3500001E3,Samples,-5.39200008E-3,-1.0799999,
,,,-5.38800005E-3,-119.9999973E-3,,,,,-5.38800005E-3,-1.0599999,
,,,-5.38400002E-3,-119.9999973E-3,,,,,-5.38400002E-3,-1.0599999,
,,,-5.37999999E-3,-99.999994040E-3,,,,,-5.37999999E-3,-1.0400000,
Source,CH1,,-5.37599996E-3,-99.999994040E-3,,Source,CH2,,-5.37599996E-3,-1.0400000,
Vertical Units,Volts,,-5.37199993E-3,-79.999998212E-3,,Vertical Units,Volts,,-5.37199993E-3,-1.0400000,
Vertical Scale,499.999988824E-3,,-5.36800036E-3,-59.999998659E-3,,Vertical Scale,499.999988824E-3,,-5.36800036E-3,-1.0200000,
Vertical Offset,0,,-5.36400033E-3,-59.999998659E-3,,Vertical Offset,0,,-5.36400033E-3,-1.0200000,
Horizontal Units,s,,-5.36000030E-3,-39.99999911E-3,,Horizontal Units,s,,-5.36000030E-3,-1.000000,
Horizontal Scale,1.000000E-3,,-5.35600027E-3,-39.99999911E-3,,Horizontal Scale,1.000000E-3,,-5.35600027E-3,-1.000000,
Pt Fmt,Y,,-5.35200024E-3,-19.9999996E-3,,Pt Fmt,Y,,-5.35200024E-3,-979.999959469E-3,
Yzero,0.0,,-5.34800021E-3,-19.9999996E-3,,Yzero,0.0,,-5.34800021E-3,-959.999978542E-3,
Probe Atten,1.000000,,-5.34400018E-3,0.0,,Probe Atten,1.000000,,-5.34400018E-3,-959.999978542E-3,
,,,-5.34000015E-3,0.0,,,,,-5.34000015E-3,-959.999978542E-3,
Note,TBS 1052B-EDU - 02:09:42 p.m.   05/09/2022,,-5.33600012E-3,19.9999996E-3,,Note,TBS 1052B-EDU - 02:09:42 p.m.   05/09/2022,,-5.33600012E-3,-939.999997616E-3,
,,,-5.33200009E-3,19.9999996E-3,,,,,-5.33200009E-3,-939.999997616E-3,
,,,-5.32800006E-3,39.99999911E-3,,,,,-5.32800006E-3,-919.999957085E-3,
,,,-5.32400003E-3,39.99999911E-3,,,,,-5.32400003E-3,-899.999976158E-3,
,,,-5.32000000E-3,59.999998659E-3,,,,,-5.32000000E-3,-899.999976158E-3,
,,,-5.31599997E-3,59.999998659E-3,,,,,-5.31599997E-3,-879.999995232E-3,
,,,-5.31199994E-3,79.999998212E-3,,,,,-5.31199994E-3,-879.999995232E-3,
,,,-5.30800037E-3,79.999998212E-3,,,,,-5.30800037E-3,-859.999954700E-3,
,,,-5.30400034E-3,99.999994040E-3,,,,,-5.30400034E-3,-859.999954700E-3,
,,,-5.30000031E-3,99.999994040E-3,,,,,-5.30000031E-3,-839.999973774E-3,
,,,-5.29600028E-3,119.9999973E-3,,,,,-5.29600028E-3,-819.999992847E-3,
,,,-5.29200025E-3,119.9999973E-3,,,,,-5.29200025E-3,-819.999992847E-3,
,,,-5.28800022E-3,140.0000006E-3,,,,,-5.28800022E-3,-799.999952316E-3,
,,,-5.28400019E-3,140.0000006E-3,,,,,-5.28400019E-3,-779.999971390E-3,
,,,-5.28000016E-3,159.99999642E-3,,,,,-5.28000016E-3,-779.999971390E-3,
,,,-5.27600013E-3,159.99999642E-3,,,,,-5.27600013E-3,-759.999990463E-3,
,,,-5.27200010E-3,179.99999225E-3,,,,,-5.27200010E-3,-759.999990463E-3,
,,,-5.26800007E-3,179.99999225E-3,,,,,-5.26800007E-3,-740.000009537E-3,
,,,-5.26400004E-3,199.99998808E-3,,,,,-5.26400004E-3,-740.000009537E-3,
,,,-5.26000001E-3,199.99998808E-3,,,,,-5.26000001E-3,-719.999969006E-3,
,,,-5.25599997E-3,219.99999881E-3,,,,,-5.25599997E-3,-699.999988079E-3,
,,,-5.25199994E-3,219.99999881E-3,,,,,-5.25199994E-3,-699.999988079E-3,
,,,-5.24799991E-3,239.99999464E-3,,,,,-5.24799991E-3,-680.000007153E-3,
,,,-5.24400035E-3,239.99999464E-3,,,,,-5.24400035E-3,-680.000007153E-3,
,,,-5.24000032E-3,259.99999046E-3,,,,,-5.24000032E-3,-659.999966621E-3,
,,,-5.23600029E-3,259.99999046E-3,,,,,-5.23600029E-3,-639.999985695E-3,
,,,-5.23200026E-3,280.00000119E-3,,,,,-5.23200026E-3,-639.999985695E-3,
,,,-5.22800023E-3,280.00000119E-3,,,,,-5.22800023E-3,-620.000004768E-3,
,,,-5.22400020E-3,299.99998212E-3,,,,,-5.22400020E-3,-599.999964237E-3,
,,,-5.22000017E-3,299.99998212E-3,,,,,-5.22000017E-3,-599.999964237E-3,
,,,-5.21600014E-3,319.99999285E-3,,,,,-5.21600014E-3,-579.999983311E-3,
,,,-5.21200011E-3,319.99999285E-3,,,,,-5.21200011E-3,-560.000002384E-3,
,,,-5.20800008E-3,340.00000358E-3,,,,,-5.20800008E-3,-560.000002384E-3,
,,,-5.20400004E-3,340.00000358E-3,,,,,-5.20400004E-3,-539.999961853E-3,
,,,-5.20000001E-3,359.99998450E-3,,,,,-5.20000001E-3,-519.999980927E-3,
,,,-5.19599998E-3,359.99998450E-3,,,,,-5.19599998E-3,-519.999980927E-3,
,,,-5.19199995E-3,379.99999523E-3,,,,,-5.19199995E-3,-500.000000000E-3,
,,,-5.18799992E-3,399.99997616E-3,,,,,-5.18799992E-3,-479.999989271E-3,
,,,-5.18400036E-3,399.99997616E-3,,,,,-5.18400036E-3,-479.999989271E-3,
,,,-5.18000033E-3,419.999986887E-3,,,,,-5.18000033E-3,-459.999978542E-3,
,,,-5.17600030E-3,419.999986887E-3,,,,,-5.17600030E-3,-439.999997616E-3,
,,,-5.17200027E-3,419.999986887E-3,,,,,-5.17200027E-3,-439.999997616E-3,
,,,-5.16800024E-3,439.999997616E-3,,,,,-5.16800024E-3,-419.999986887E-3,
,,,-5.16400021E-3,439.999997616E-3,,,,,-5.16400021E-3,-399.99997616E-3,
,,,-5.16000018E-3,459.999978542E-3,,,,,-5.16000018E-3,-379.99999523E-3,
,,,-5.15600014E-3,459.999978542E-3,,,,,-5.15600014E-3,-379.99999523E-3,
,,,-5.15200011E-3,479.999989271E-3,,,,,-5.15200011E-3,-359.99998450E-3,
,,,-5.14800008E-3,479.999989271E-3,,,,,-5.14800008E-3,-359.99998450E-3,
,,,-5.14400005E-3,500.000000000E-3,,,,,-5.14400005E-3,-340.00000358E-3,
,,,-5.14000002E-3,500.000000000E-3,,,,,-5.14000002E-3,-319.99999285E-3,
,,,-5.13599999E-3,519.999980927E-3,,,,,-5.13599999E-3,-319.99999285E-3,
,,,-5.13199996E-3,519.999980927E-3,,,,,-5.13199996E-3,-299.99998212E-3,
,,,-5.12799993E-3,519.999980927E-3,,,,,-5.12799993E-3,-280.00000119E-3,
,,,-5.12400037E-3,539.999961853E-3,,,,,-5.12400037E-3,-259.99999046E-3,
,,,-5.12000034E-3,539.999961853E-3,,,,,-5.12000034E-3,-239.99999464E-3,
,,,-5.11600031E-3,560.000002384E-3,,,,,-5.11600031E-3,-239.99999464E-3,
,,,-5.11200028E-3,560.000002384E-3,,,,,-5.11200028E-3,-219.99999881E-3,
,,,-5.10800024E-3,579.999983311E-3,,,,,-5.10800024E-3,-199.99998808E-3,
,,,-5.10400021E-3,579.999983311E-3,,,,,-5.10400021E-3,-199.99998808E-3,
,,,-5.10000018E-3,599.999964237E-3,,,,,-5.10000018E-3,-179.99999225E-3,
,,,-5.09600015E-3,599.999964237E-3,,,,,-5.09600015E-3,-159.99999642E-3,
,,,-5.09200012E-3,599.999964237E-3,,,,,-5.09200012E-3,-140.0000006E-3,
,,,-5.08800009E-3,620.000004768E-3,,,,,-5.08800009E-3,-140.0000006E-3,
,,,-5.08400006E-3,620.000004768E-3,,,,,-5.08400006E-3,-119.9999973E-3,
,,,-5.08000003E-3,639.999985695E-3,,,,,-5.08000003E-3,-99.999994040E-3,
,,,-5.07600000E-3,639.999985695E-3,,,,,-5.07600000E-3,-99.999994040E-3,
,,,-5.07199997E-3,639.999985695E-3,,,,,-5.07199997E-3,-79.999998212E-3,
,,,-5.06799994E-3,659.999966621E-3,,,,,-5.06799994E-3,-59.999998659E-3,
,,,-5.06399991E-3,659.999966621E-3,,,,,-5.06399991E-3,-39.99999911E-3,
,,,-5.06000035E-3,659.999966621E-3,,,,,-5.06000035E-3,-39.99999911E-3,
,,,-5.05600031E-3,680.000007153E-3,,,,,-5.05600031E-3,-19.9999996E-3,
,,,-5.05200028E-3,680.000007153E-3,,,,,-5.05200028E-3,-19.9999996E-3,
,,,-5.04800025E-3,699.999988079E-3,,,,,-5.04800025E-3,0.0,
,,,-5.04400022E-3,699.999988079E-3,,,,,-5.04400022E-3,19.9999996E-3,
,,,-5.04000019E-3,699.999988079E-3,,,,,-5.04000019E-3,39.99999911E-3,
,,,-5.03600016E-3,719.999969006E-3,,,,,-5.03600016E-3,59.999998659E-3,
,,,-5.03200013E-3,719.999969006E-3,,,,,-5.03200013E-3,59.999998659E-3,
,,,-5.02800010E-3,740.000009537E-3,,,,,-5.02800010E-3,79.999998212E-3,
,,,-5.02400007E-3,740.000009537E-3,,,,,-5.02400007E-3,99.999994040E-3,
,,,-5.02000004E-3,740.000009537E-3,,,,,-5.02000004E-3,99.999994040E-3,
,,,-5.01600001E-3,759.999990463E-3,,,,,-5.01600001E-3,119.9999973E-3,
,,,-5.01199998E-3,759.999990463E-3,,,,,-5.01199998E-3,140.0000006E-3,
,,,-5.00799995E-3,759.999990463E-3,,,,,-5.00799995E-3,140.0000006E-3,
,,,-5.00399992E-3,779.999971390E-3,,,,,-5.00399992E-3,159.99999642E-3,
,,,-5.00000035E-3,779.999971390E-3,,,,,-5.00000035E-3,179.99999225E-3,
,,,-4.99600032E-3,779.999971390E-3,,,,,-4.99600032E-3,199.99998808E-3,
,,,-4.99200029E-3,799.999952316E-3,,,,,-4.99200029E-3,199.99998808E-3,
,,,-4.98800026E-3,799.999952316E-3,,,,,-4.98800026E-3,219.99999881E-3,
,,,-4.98400023E-3,799.999952316E-3,,,,,-4.98400023E-3,239.99999464E-3,
,,,-4.98000020E-3,819.999992847E-3,,,,,-4.98000020E-3,239.99999464E-3,
,,,-4.97600017E-3,819.999992847E-3,,,,,-4.97600017E-3,259.99999046E-3,
,,,-4.97200014E-3,819.999992847E-3,,,,,-4.97200014E-3,280.00000119E-3,
,,,-4.96800011E-3,839.999973774E-3,,,,,-4.96800011E-3,280.00000119E-3,
,,,-4.96400008E-3,839.999973774E-3,,,,,-4.96400008E-3,299.99998212E-3,
,,,-4.96000005E-3,839.999973774E-3,,,,,-4.96000005E-3,319.99999285E-3,
,,,-4.95600002E-3,839.999973774E-3,,,,,-4.95600002E-3,340.00000358E-3,
,,,-4.95199999E-3,859.999954700E-3,,,,,-4.95199999E-3,359.99998450E-3,
,,,-4.94799996E-3,859.999954700E-3,,,,,-4.94799996E-3,359.99998450E-3,
,,,-4.94399993E-3,859.999954700E-3,,,,,-4.94399993E-3,379.99999523E-3,
,,,-4.94000036E-3,859.999954700E-3,,,,,-4.94000036E-3,399.99997616E-3,
,,,-4.93600033E-3,879.999995232E-3,,,,,-4.93600033E-3,399.99997616E-3,
,,,-4.93200030E-3,879.999995232E-3,,,,,-4.93200030E-3,419.999986887E-3,
,,,-4.92800027E-3,879.999995232E-3,,,,,-4.92800027E-3,439.999997616E-3,
,,,-4.92400024E-3,879.999995232E-3,,,,,-4.92400024E-3,439.999997616E-3,
,,,-4.92000021E-3,899.999976158E-3,,,,,-4.92000021E-3,459.999978542E-3,
,,,-4.91600018E-3,899.999976158E-3,,,,,-4.91600018E-3,459.999978542E-3,
,,,-4.91200015E-3,899.999976158E-3,,,,,-4.91200015E-3,479.999989271E-3,
,,,-4.90800012E-3,919.999957085E-3,,,,,-4.90800012E-3,500.000000000E-3,
,,,-4.90400009E-3,919.999957085E-3,,,,,-4.90400009E-3,500.000000000E-3,
,,,-4.90000006E-3,919.999957085E-3,,,,,-4.90000006E-3,519.999980927E-3,
,,,-4.89600003E-3,919.999957085E-3,,,,,-4.89600003E-3,539.999961853E-3,
,,,-4.89200000E-3,919.999957085E-3,,,,,-4.89200000E-3,560.000002384E-3,
,,,-4.88799997E-3,939.999997616E-3,,,,,-4.88799997E-3,560.000002384E-3,
,,,-4.88399994E-3,939.999997616E-3,,,,,-4.88399994E-3,579.999983311E-3,
,,,-4.88000037E-3,939.999997616E-3,,,,,-4.88000037E-3,579.999983311E-3,
,,,-4.87600034E-3,939.999997616E-3,,,,,-4.87600034E-3,599.999964237E-3,
,,,-4.87200031E-3,959.999978542E-3,,,,,-4.87200031E-3,620.000004768E-3,
,,,-4.86800028E-3,959.999978542E-3,,,,,-4.86800028E-3,639.999985695E-3,
,,,-4.86400025E-3,959.999978542E-3,,,,,-4.86400025E-3,639.999985695E-3,
,,,-4.86000022E-3,959.999978542E-3,,,,,-4.86000022E-3,659.999966621E-3,
,,,-4.85600019E-3,959.999978542E-3,,,,,-4.85600019E-3,680.000007153E-3,
,,,-4.85200016E-3,979.999959469E-3,,,,,-4.85200016E-3,680.000007153E-3,
,,,-4.84800013E-3,979.999959469E-3,,,,,-4.84800013E-3,699.999988079E-3,
,,,-4.84400010E-3,979.999959469E-3,,,,,-4.84400010E-3,699.999988079E-3,
,,,-4.84000007E-3,979.999959469E-3,,,,,-4.84000007E-3,719.999969006E-3,
,,,-4.83600004E-3,979.999959469E-3,,,,,-4.83600004E-3,740.000009537E-3,
,,,-4.83200001E-3,1.000000,,,,,-4.83200001E-3,740.000009537E-3,
,,,-4.82799998E-3,1.000000,,,,,-4.82799998E-3,759.999990463E-3,
,,,-4.82399995E-3,1.000000,,,,,-4.82399995E-3,759.999990463E-3,
,,,-4.81999991E-3,1.000000,,,,,-4.81999991E-3,779.999971390E-3,
,,,-4.81600035E-3,1.000000,,,,,-4.81600035E-3,779.999971390E-3,
,,,-4.81200032E-3,1.000000,,,,,-4.81200032E-3,799.999952316E-3,
,,,-4.80800029E-3,1.000000,,,,,-4.80800029E-3,819.999992847E-3,
,,,-4.80400026E-3,1.0200000,,,,,-4.80400026E-3,819.999992847E-3,
,,,-4.80000023E-3,1.0200000,,,,,-4.80000023E-3,839.999973774E-3,
,,,-4.79600020E-3,1.0200000,,,,,-4.79600020E-3,839.999973774E-3,
,,,-4.79200017E-3,1.0200000,,,,,-4.79200017E-3,859.999954700E-3,
,,,-4.78800014E-3,1.0200000,,,,,-4.78800014E-3,859.999954700E-3,
,,,-4.78400011E-3,1.0200000,,,,,-4.78400011E-3,879.999995232E-3,
,,,-4.78000008E-3,1.0200000,,,,,-4.78000008E-3,899.999976158E-3,
,,,-4.77600005E-3,1.0200000,,,,,-4.77600005E-3,919.999957085E-3,
,,,-4.77200001E-3,1.0200000,,,,,-4.77200001E-3,919.999957085E-3,
,,,-4.76799998E-3,1.0200000,,,,,-4.76799998E-3,919.999957085E-3,
,,,-4.76399995E-3,1.0200000,,,,,-4.76399995E-3,939.999997616E-3,
,,,-4.75999992E-3,1.0400000,,,,,-4.75999992E-3,959.999978542E-3,
,,,-4.75600036E-3,1.0400000,,,,,-4.75600036E-3,959.999978542E-3,
,,,-4.75200033E-3,1.0400000,,,,,-4.75200033E-3,959.999978542E-3,
,,,-4.74800030E-3,1.0400000,,,,,-4.74800030E-3,979.999959469E-3,
,,,-4.74400027E-3,1.0400000,,,,,-4.74400027E-3,979.999959469E-3,
,,,-4.74000024E-3,1.0400000,,,,,-4.74000024E-3,1.000000,
,,,-4.73600021E-3,1.0400000,,,,,-4.73600021E-3,1.0200000,
,,,-4.73200018E-3,1.0400000,,,,,-4.73200018E-3,1.0200000,
,,,-4.72800015E-3,1.0400000,,,,,-4.72800015E-3,1.0400000,
,,,-4.72400011E-3,1.0400000,,,,,-4.72400011E-3,1.0400000,
,,,-4.72000008E-3,1.0400000,,,,,-4.72000008E-3,1.0599999,
,,,-4.71600005E-3,1.0400000,,,,,-4.71600005E-3,1.0599999,
,,,-4.71200002E-3,1.0400000,,,,,-4.71200002E-3,1.0799999,
,,,-4.70799999E-3,1.0400000,,,,,-4.70799999E-3,1.0799999,
,,,-4.70399996E-3,1.0400000,,,,,-4.70399996E-3,1.1000000,
,,,-4.69999993E-3,1.0400000,,,,,-4.69999993E-3,1.1000000,
,,,-4.69600037E-3,1.0400000,,,,,-4.69600037E-3,1.1200000,
,,,-4.69200034E-3,1.0400000,,,,,-4.69200034E-3,1.1200000,
,,,-4.68800031E-3,1.0400000,,,,,-4.68800031E-3,1.1200000,
,,,-4.68400028E-3,1.0400000,,,,,-4.68400028E-3,1.1400000,
,,,-4.68000025E-3,1.0400000,,,,,-4.68000025E-3,1.1400000,
,,,-4.67600022E-3,1.0400000,,,,,-4.67600022E-3,1.1600000,
,,,-4.67200018E-3,1.0400000,,,,,-4.67200018E-3,1.1600000,
,,,-4.66800015E-3,1.0400000,,,,,-4.66800015E-3,1.1799999,
,,,-4.66400012E-3,1.0400000,,,,,-4.66400012E-3,1.1799999,
,,,-4.66000009E-3,1.0400000,,,,,-4.66000009E-3,1.1999999,
,,,-4.65600006E-3,1.0400000,,,,,-4.65600006E-3,1.1999999,
,,,-4.65200003E-3,1.0400000,,,,,-4.65200003E-3,1.1999999,
,,,-4.64800000E-3,1.0200000,,,,,-4.64800000E-3,1.2200000,
,,,-4.64399997E-3,1.0200000,,,,,-4.64399997E-3,1.2200000,
,,,-4.63999994E-3,1.0200000,,,,,-4.63999994E-3,1.2400000,
,,,-4.63599991E-3,1.0200000,,,,,-4.63599991E-3,1.2400000,
,,,-4.63200035E-3,1.0200000,,,,,-4.63200035E-3,1.2400000,
,,,-4.62800032E-3,1.0200000,,,,,-4.62800032E-3,1.2600000,
,,,-4.62400028E-3,1.0200000,,,,,-4.62400028E-3,1.2600000,
,,,-4.62000025E-3,1.0200000,,,,,-4.62000025E-3,1.2600000,
,,,-4.61600022E-3,1.0200000,,,,,-4.61600022E-3,1.2800000,
,,,-4.61200019E-3,1.0200000,,,,,-4.61200019E-3,1.2800000,
,,,-4.60800016E-3,1.000000,,,,,-4.60800016E-3,1.2800000,
,,,-4.60400013E-3,1.000000,,,,,-4.60400013E-3,1.2800000,
,,,-4.60000010E-3,1.000000,,,,,-4.60000010E-3,1.3000000,
,,,-4.59600007E-3,1.000000,,,,,-4.59600007E-3,1.3000000,
,,,-4.59200004E-3,1.000000,,,,,-4.59200004E-3,1.3000000,
,,,-4.58800001E-3,1.000000,,,,,-4.58800001E-3,1.3199999,
,,,-4.58399998E-3,1.000000,,,,,-4.58399998E-3,1.3199999,
,,,-4.57999995E-3,1.000000,,,,,-4.57999995E-3,1.3199999,
,,,-4.57599992E-3,979.999959469E-3,,,,,-4.57599992E-3,1.3199999,
,,,-4.57200035E-3,979.999959469E-3,,,,,-4.57200035E-3,1.3399999,
,,,-4.56800032E-3,979.999959469E-3,,,,,-4.56800032E-3,1.3399999,
,,,-4.56400029E-3,979.999959469E-3,,,,,-4.56400029E-3,1.3399999,
,,,-4.56000026E-3,979.999959469E-3,,,,,-4.56000026E-3,1.3600000,
,,,-4.55600023E-3,959.999978542E-3,,,,,-4.55600023E-3,1.3600000,
,,,-4.55200020E-3,959.999978542E-3,,,,,-4.55200020E-3,1.3600000,
,,,-4.54800017E-3,959.999978542E-3,,,,,-4.54800017E-3,1.3600000,
,,,-4.54400014E-3,959.999978542E-3,,,,,-4.54400014E-3,1.3600000,
,,,-4.54000011E-3,959.999978542E-3,,,,,-4.54000011E-3,1.3800000,
,,,-4.53600008E-3,939.999997616E-3,,,,,-4.53600008E-3,1.3800000,
,,,-4.53200005E-3,939.999997616E-3,,,,,-4.53200005E-3,1.3800000,
,,,-4.52800002E-3,939.999997616E-3,,,,,-4.52800002E-3,1.3800000,
,,,-4.52399999E-3,939.999997616E-3,,,,,-4.52399999E-3,1.3800000,
,,,-4.51999996E-3,919.999957085E-3,,,,,-4.51999996E-3,1.3800000,
,,,-4.51599993E-3,919.999957085E-3,,,,,-4.51599993E-3,1.4000000,
,,,-4.51200036E-3,919.999957085E-3,,,,,-4.51200036E-3,1.4000000,
,,,-4.50800033E-3,919.999957085E-3,,,,,-4.50800033E-3,1.4000000,
,,,-4.50400030E-3,899.999976158E-3,,,,,-4.50400030E-3,1.4000000,
,,,-4.50000027E-3,899.999976158E-3,,,,,-4.50000027E-3,1.4000000,
,,,-4.49600024E-3,899.999976158E-3,,,,,-4.49600024E-3,1.4000000,
,,,-4.49200021E-3,899.999976158E-3,,,,,-4.49200021E-3,1.4200000,
,,,-4.48800018E-3,879.999995232E-3,,,,,-4.48800018E-3,1.4200000,
,,,-4.48400015E-3,879.999995232E-3,,,,,-4.48400015E-3,1.4200000,
,,,-4.48000012E-3,879.999995232E-3,,,,,-4.48000012E-3,1.4200000,
,,,-4.47600009E-3,879.999995232E-3,,,,,-4.47600009E-3,1.4200000,
,,,-4.47200006E-3,859.999954700E-3,,,,,-4.47200006E-3,1.4200000,
,,,-4.46800003E-3,859.999954700E-3,,,,,-4.46800003E-3,1.4200000,
,,,-4.46400000E-3,859.999954700E-3,,,,,-4.46400000E-3,1.4200000,
,,,-4.45999997E-3,839.999973774E-3,,,,,-4.45999997E-3,1.4200000,
,,,-4.45599994E-3,839.999973774E-3,,,,,-4.45599994E-3,1.4200000,
,,,-4.45200037E-3,839.999973774E-3,,,,,-4.45200037E-3,1.4200000,
,,,-4.44800034E-3,839.999973774E-3,,,,,-4.44800034E-3,1.4200000,
,,,-4.44400031E-3,819.999992847E-3,,,,,-4.44400031E-3,1.4200000,
,,,-4.44000028E-3,819.999992847E-3,,,,,-4.44000028E-3,1.4200000,
,,,-4.43600025E-3,819.999992847E-3,,,,,-4.43600025E-3,1.4200000,
,,,-4.43200022E-3,799.999952316E-3,,,,,-4.43200022E-3,1.4200000,
,,,-4.42800019E-3,799.999952316E-3,,,,,-4.42800019E-3,1.4200000,
,,,-4.42400016E-3,799.999952316E-3,,,,,-4.42400016E-3,1.4200000,
,,,-4.42000013E-3,779.999971390E-3,,,,,-4.42000013E-3,1.4200000,
,,,-4.41600010E-3,779.999971390E-3,,,,,-4.41600010E-3,1.4200000,
,,,-4.41200007E-3,779.999971390E-3,,,,,-4.41200007E-3,1.4200000,
,,,-4.40800004E-3,759.999990463E-3,,,,,-4.40800004E-3,1.4200000,
,,,-4.40400001E-3,759.999990463E-3,,,,,-4.40400001E-3,1.4200000,
,,,-4.39999998E-3,759.999990463E-3,,,,,-4.39999998E-3,1.4200000,
,,,-4.39599995E-3,740.000009537E-3,,,,,-4.39599995E-3,1.4200000,
,,,-4.39199992E-3,740.000009537E-3,,,,,-4.39199992E-3,1.4200000,
,,,-4.38800035E-3,719.999969006E-3,,,,,-4.38800035E-3,1.4200000,
,,,-4.38400032E-3,719.999969006E-3,,,,,-4.38400032E-3,1.4200000,
,,,-4.38000029E-3,719.999969006E-3,,,,,-4.38000029E-3,1.4200000,
,,,-4.37600026E-3,699.999988079E-3,,,,,-4.37600026E-3,1.4200000,
,,,-4.37200023E-3,699.999988079E-3,,,,,-4.37200023E-3,1.4200000,
,,,-4.36800020E-3,699.999988079E-3,,,,,-4.36800020E-3,1.4200000,
,,,-4.36400017E-3,680.000007153E-3,,,,,-4.36400017E-3,1.4200000,
,,,-4.36000014E-3,680.000007153E-3,,,,,-4.36000014E-3,1.4200000,
,,,-4.35600011E-3,659.999966621E-3,,,,,-4.35600011E-3,1.4200000,
,,,-4.35200008E-3,659.999966621E-3,,,,,-4.35200008E-3,1.4200000,
,,,-4.34800005E-3,659.999966621E-3,,,,,-4.34800005E-3,1.4000000,
,,,-4.34400002E-3,639.999985695E-3,,,,,-4.34400002E-3,1.4000000,
,,,-4.33999998E-3,639.999985695E-3,,,,,-4.33999998E-3,1.4000000,
,,,-4.33599995E-3,639.999985695E-3,,,,,-4.33599995E-3,1.4000000,
,,,-4.33199992E-3,620.000004768E-3,,,,,-4.33199992E-3,1.4000000,
,,,-4.32800036E-3,620.000004768E-3,,,,,-4.32800036E-3,1.3800000,
,,,-4.32400033E-3,599.999964237E-3,,,,,-4.32400033E-3,1.3800000,
,,,-4.32000030E-3,599.999964237E-3,,,,,-4.32000030E-3,1.3800000,
,,,-4.31600027E-3,579.999983311E-3,,,,,-4.31600027E-3,1.3800000,
,,,-4.31200024E-3,579.999983311E-3,,,,,-4.31200024E-3,1.3800000,
,,,-4.30800021E-3,579.999983311E-3,,,,,-4.30800021E-3,1.3800000,
,,,-4.30400018E-3,560.000002384E-3,,,,,-4.30400018E-3,1.3800000,
,,,-4.30000015E-3,560.000002384E-3,,,,,-4.30000015E-3,1.3600000,
,,,-4.29600012E-3,539.999961853E-3,,,,,-4.29600012E-3,1.3600000,
,,,-4.29200009E-3,539.999961853E-3,,,,,-4.29200009E-3,1.3600000,
,,,-4.28800005E-3,519.999980927E-3,,,,,-4.28800005E-3,1.3600000,
,,,-4.28400002E-3,519.999980927E-3,,,,,-4.28400002E-3,1.3600000,
,,,-4.27999999E-3,500.000000000E-3,,,,,-4.27999999E-3,1.3399999,
,,,-4.27599996E-3,500.000000000E-3,,,,,-4.27599996E-3,1.3399999,
,,,-4.27199993E-3,479.999989271E-3,,,,,-4.27199993E-3,1.3399999,
,,,-4.26800037E-3,479.999989271E-3,,,,,-4.26800037E-3,1.3199999,
,,,-4.26400034E-3,459.999978542E-3,,,,,-4.26400034E-3,1.3199999,
,,,-4.26000031E-3,459.999978542E-3,,,,,-4.26000031E-3,1.3199999,
,,,-4.25600028E-3,439.999997616E-3,,,,,-4.25600028E-3,1.3199999,
,,,-4.25200025E-3,439.999997616E-3,,,,,-4.25200025E-3,1.3000000,
,,,-4.24800022E-3,439.999997616E-3,,,,,-4.24800022E-3,1.3000000,
,,,-4.24400019E-3,419.999986887E-3,,,,,-4.24400019E-3,1.2800000,
,,,-4.24000015E-3,419.999986887E-3,,,,,-4.24000015E-3,1.2800000,
