primer_informe/clase4/barrido_rc_pasaaltos/3500.csv

Record Length,2500,Points,-499.999965541E-6,1.4000000,,Record Length,2500,Points,-499.999965541E-6,1.1400000,
Sample Interval,400.00000467E-9,s,-499.599962495E-6,1.4000000,,Sample Interval,400.00000467E-9,s,-499.599962495E-6,1.1200000,
Trigger Point,1.2500000E3,Samples,-499.199959449E-6,1.4000000,,Trigger Point,1.2500000E3,Samples,-499.199959449E-6,1.1200000,
,,,-498.799956404E-6,1.4000000,,,,,-498.799956404E-6,1.1200000,
,,,-498.399953358E-6,1.4000000,,,,,-498.399953358E-6,1.1200000,
,,,-497.999950312E-6,1.4000000,,,,,-497.999950312E-6,1.1000000,
Source,CH1,,-497.599947266E-6,1.4000000,,Source,CH2,,-497.599947266E-6,1.1000000,
Vertical Units,Volts,,-497.199944220E-6,1.3800000,,Vertical Units,Volts,,-497.199944220E-6,1.1000000,
Vertical Scale,499.999988824E-3,,-496.799941175E-6,1.4000000,,Vertical Scale,499.999988824E-3,,-496.799941175E-6,1.0799999,
Vertical Offset,0,,-496.399938129E-6,1.3800000,,Vertical Offset,0,,-496.399938129E-6,1.0799999,
Horizontal Units,s,,-495.999993291E-6,1.3800000,,Horizontal Units,s,,-495.999993291E-6,1.0599999,
Horizontal Scale,100.0000012E-6,,-495.599990245E-6,1.3800000,,Horizontal Scale,100.0000012E-6,,-495.599990245E-6,1.0599999,
Pt Fmt,Y,,-495.199987199E-6,1.3600000,,Pt Fmt,Y,,-495.199987199E-6,1.0599999,
Yzero,0.0,,-494.799984153E-6,1.3800000,,Yzero,0.0,,-494.799984153E-6,1.0400000,
Probe Atten,1.000000,,-494.399981108E-6,1.3600000,,Probe Atten,1.000000,,-494.399981108E-6,1.0400000,
,,,-493.999978062E-6,1.3600000,,,,,-493.999978062E-6,1.0400000,
Note,TBS 1052B-EDU - 01:57:02 p.m.   12/09/2022,,-493.599975016E-6,1.3600000,,Note,TBS 1052B-EDU - 01:57:02 p.m.   12/09/2022,,-493.599975016E-6,1.0400000,
,,,-493.199971970E-6,1.3399999,,,,,-493.199971970E-6,1.0400000,
,,,-492.799968924E-6,1.3600000,,,,,-492.799968924E-6,1.0200000,
,,,-492.399965879E-6,1.3600000,,,,,-492.399965879E-6,1.0200000,
,,,-491.999962833E-6,1.3399999,,,,,-491.999962833E-6,1.000000,
,,,-491.599959787E-6,1.3399999,,,,,-491.599959787E-6,1.000000,
,,,-491.199956741E-6,1.3399999,,,,,-491.199956741E-6,979.999959469E-3,
,,,-490.799953695E-6,1.3199999,,,,,-490.799953695E-6,979.999959469E-3,
,,,-490.399950650E-6,1.3199999,,,,,-490.399950650E-6,979.999959469E-3,
,,,-489.999947604E-6,1.3199999,,,,,-489.999947604E-6,959.999978542E-3,
,,,-489.599944558E-6,1.3199999,,,,,-489.599944558E-6,959.999978542E-3,
,,,-489.199941512E-6,1.3000000,,,,,-489.199941512E-6,939.999997616E-3,
,,,-488.799938466E-6,1.3000000,,,,,-488.799938466E-6,939.999997616E-3,
,,,-488.399993628E-6,1.3000000,,,,,-488.399993628E-6,939.999997616E-3,
,,,-487.999961479E-6,1.2800000,,,,,-487.999961479E-6,939.999997616E-3,
,,,-487.599958433E-6,1.3000000,,,,,-487.599958433E-6,919.999957085E-3,
,,,-487.199955387E-6,1.2800000,,,,,-487.199955387E-6,919.999957085E-3,
,,,-486.799952341E-6,1.2800000,,,,,-486.799952341E-6,899.999976158E-3,
,,,-486.399978399E-6,1.2800000,,,,,-486.399978399E-6,879.999995232E-3,
,,,-485.999975353E-6,1.2600000,,,,,-485.999975353E-6,879.999995232E-3,
,,,-485.599972308E-6,1.2600000,,,,,-485.599972308E-6,879.999995232E-3,
,,,-485.199969262E-6,1.2600000,,,,,-485.199969262E-6,859.999954700E-3,
,,,-484.799966216E-6,1.2600000,,,,,-484.799966216E-6,859.999954700E-3,
,,,-484.399963170E-6,1.2400000,,,,,-484.399963170E-6,859.999954700E-3,
,,,-483.999960124E-6,1.2400000,,,,,-483.999960124E-6,859.999954700E-3,
,,,-483.599957079E-6,1.2400000,,,,,-483.599957079E-6,839.999973774E-3,
,,,-483.199954033E-6,1.2400000,,,,,-483.199954033E-6,819.999992847E-3,
,,,-482.799950987E-6,1.2200000,,,,,-482.799950987E-6,819.999992847E-3,
,,,-482.399977045E-6,1.1999999,,,,,-482.399977045E-6,799.999952316E-3,
,,,-481.999973999E-6,1.1999999,,,,,-481.999973999E-6,799.999952316E-3,
,,,-481.599970954E-6,1.1999999,,,,,-481.599970954E-6,799.999952316E-3,
,,,-481.199967908E-6,1.1999999,,,,,-481.199967908E-6,779.999971390E-3,
,,,-480.799964862E-6,1.1999999,,,,,-480.799964862E-6,779.999971390E-3,
,,,-480.399961816E-6,1.1799999,,,,,-480.399961816E-6,759.999990463E-3,
,,,-479.999958770E-6,1.1600000,,,,,-479.999958770E-6,759.999990463E-3,
,,,-479.599955725E-6,1.1600000,,,,,-479.599955725E-6,740.000009537E-3,
,,,-479.199952679E-6,1.1600000,,,,,-479.199952679E-6,740.000009537E-3,
,,,-478.799978737E-6,1.1600000,,,,,-478.799978737E-6,719.999969006E-3,
,,,-478.399975691E-6,1.1400000,,,,,-478.399975691E-6,719.999969006E-3,
,,,-477.999972645E-6,1.1400000,,,,,-477.999972645E-6,719.999969006E-3,
,,,-477.599969599E-6,1.1200000,,,,,-477.599969599E-6,680.000007153E-3,
,,,-477.199966554E-6,1.1200000,,,,,-477.199966554E-6,680.000007153E-3,
,,,-476.799963508E-6,1.1200000,,,,,-476.799963508E-6,680.000007153E-3,
,,,-476.399960462E-6,1.1200000,,,,,-476.399960462E-6,659.999966621E-3,
,,,-475.999957416E-6,1.1000000,,,,,-475.999957416E-6,659.999966621E-3,
,,,-475.599954370E-6,1.1000000,,,,,-475.599954370E-6,659.999966621E-3,
,,,-475.199951325E-6,1.0799999,,,,,-475.199951325E-6,639.999985695E-3,
,,,-474.799977383E-6,1.0799999,,,,,-474.799977383E-6,620.000004768E-3,
,,,-474.399974337E-6,1.0799999,,,,,-474.399974337E-6,620.000004768E-3,
,,,-473.999971291E-6,1.0599999,,,,,-473.999971291E-6,599.999964237E-3,
,,,-473.599968245E-6,1.0599999,,,,,-473.599968245E-6,599.999964237E-3,
,,,-473.199965199E-6,1.0599999,,,,,-473.199965199E-6,579.999983311E-3,
,,,-472.799962154E-6,1.0400000,,,,,-472.799962154E-6,579.999983311E-3,
,,,-472.399959108E-6,1.0400000,,,,,-472.399959108E-6,579.999983311E-3,
,,,-471.999956062E-6,1.0200000,,,,,-471.999956062E-6,560.000002384E-3,
,,,-471.599953016E-6,1.0200000,,,,,-471.599953016E-6,539.999961853E-3,
,,,-471.199979074E-6,1.0200000,,,,,-471.199979074E-6,539.999961853E-3,
,,,-470.799976029E-6,1.000000,,,,,-470.799976029E-6,539.999961853E-3,
,,,-470.399972983E-6,979.999959469E-3,,,,,-470.399972983E-6,519.999980927E-3,
,,,-469.999969937E-6,979.999959469E-3,,,,,-469.999969937E-6,500.000000000E-3,
,,,-469.599966891E-6,979.999959469E-3,,,,,-469.599966891E-6,500.000000000E-3,
,,,-469.199963845E-6,959.999978542E-3,,,,,-469.199963845E-6,500.000000000E-3,
,,,-468.799960800E-6,939.999997616E-3,,,,,-468.799960800E-6,479.999989271E-3,
,,,-468.399957754E-6,939.999997616E-3,,,,,-468.399957754E-6,459.999978542E-3,
,,,-467.999954708E-6,919.999957085E-3,,,,,-467.999954708E-6,459.999978542E-3,
,,,-467.599951662E-6,939.999997616E-3,,,,,-467.599951662E-6,439.999997616E-3,
,,,-467.199977720E-6,919.999957085E-3,,,,,-467.199977720E-6,419.999986887E-3,
,,,-466.799974674E-6,919.999957085E-3,,,,,-466.799974674E-6,419.999986887E-3,
,,,-466.399971629E-6,899.999976158E-3,,,,,-466.399971629E-6,399.99997616E-3,
,,,-465.999968583E-6,879.999995232E-3,,,,,-465.999968583E-6,399.99997616E-3,
,,,-465.599965537E-6,879.999995232E-3,,,,,-465.599965537E-6,379.99999523E-3,
,,,-465.199962491E-6,859.999954700E-3,,,,,-465.199962491E-6,379.99999523E-3,
,,,-464.799959445E-6,859.999954700E-3,,,,,-464.799959445E-6,359.99998450E-3,
,,,-464.399956400E-6,839.999973774E-3,,,,,-464.399956400E-6,359.99998450E-3,
,,,-463.999953354E-6,839.999973774E-3,,,,,-463.999953354E-6,340.00000358E-3,
,,,-463.599979412E-6,819.999992847E-3,,,,,-463.599979412E-6,340.00000358E-3,
,,,-463.199976366E-6,819.999992847E-3,,,,,-463.199976366E-6,340.00000358E-3,
,,,-462.799973320E-6,819.999992847E-3,,,,,-462.799973320E-6,319.99999285E-3,
,,,-462.399970274E-6,799.999952316E-3,,,,,-462.399970274E-6,299.99998212E-3,
,,,-461.999967229E-6,779.999971390E-3,,,,,-461.999967229E-6,299.99998212E-3,
,,,-461.599964183E-6,779.999971390E-3,,,,,-461.599964183E-6,280.00000119E-3,
,,,-461.199961137E-6,759.999990463E-3,,,,,-461.199961137E-6,259.99999046E-3,
,,,-460.799958091E-6,759.999990463E-3,,,,,-460.799958091E-6,259.99999046E-3,
,,,-460.399955045E-6,759.999990463E-3,,,,,-460.399955045E-6,239.99999464E-3,
,,,-459.999952000E-6,719.999969006E-3,,,,,-459.999952000E-6,239.99999464E-3,
,,,-459.599978058E-6,719.999969006E-3,,,,,-459.599978058E-6,219.99999881E-3,
,,,-459.199975012E-6,719.999969006E-3,,,,,-459.199975012E-6,219.99999881E-3,
,,,-458.799971966E-6,699.999988079E-3,,,,,-458.799971966E-6,199.99998808E-3,
,,,-458.399968920E-6,699.999988079E-3,,,,,-458.399968920E-6,179.99999225E-3,
,,,-457.999965874E-6,680.000007153E-3,,,,,-457.999965874E-6,179.99999225E-3,
,,,-457.599962829E-6,659.999966621E-3,,,,,-457.599962829E-6,159.99999642E-3,
,,,-457.199959783E-6,659.999966621E-3,,,,,-457.199959783E-6,159.99999642E-3,
,,,-456.799956737E-6,639.999985695E-3,,,,,-456.799956737E-6,159.99999642E-3,
,,,-456.399953691E-6,639.999985695E-3,,,,,-456.399953691E-6,140.0000006E-3,
,,,-455.999950645E-6,620.000004768E-3,,,,,-455.999950645E-6,119.9999973E-3,
,,,-455.599976704E-6,620.000004768E-3,,,,,-455.599976704E-6,99.999994040E-3,
,,,-455.199973658E-6,599.999964237E-3,,,,,-455.199973658E-6,99.999994040E-3,
,,,-454.799970612E-6,579.999983311E-3,,,,,-454.799970612E-6,79.999998212E-3,
,,,-454.399967566E-6,579.999983311E-3,,,,,-454.399967566E-6,79.999998212E-3,
,,,-453.999964520E-6,560.000002384E-3,,,,,-453.999964520E-6,59.999998659E-3,
,,,-453.599961475E-6,560.000002384E-3,,,,,-453.599961475E-6,39.99999911E-3,
,,,-453.199958429E-6,539.999961853E-3,,,,,-453.199958429E-6,39.99999911E-3,
,,,-452.799955383E-6,539.999961853E-3,,,,,-452.799955383E-6,19.9999996E-3,
,,,-452.399952337E-6,519.999980927E-3,,,,,-452.399952337E-6,19.9999996E-3,
,,,-451.999978395E-6,519.999980927E-3,,,,,-451.999978395E-6,19.9999996E-3,
,,,-451.599975349E-6,500.000000000E-3,,,,,-451.599975349E-6,0.0,
,,,-451.199972304E-6,500.000000000E-3,,,,,-451.199972304E-6,-19.9999996E-3,
,,,-450.799969258E-6,479.999989271E-3,,,,,-450.799969258E-6,-19.9999996E-3,
,,,-450.399966212E-6,459.999978542E-3,,,,,-450.399966212E-6,-39.99999911E-3,
,,,-449.999963166E-6,459.999978542E-3,,,,,-449.999963166E-6,-39.99999911E-3,
,,,-449.599960120E-6,459.999978542E-3,,,,,-449.599960120E-6,-59.999998659E-3,
,,,-449.199957075E-6,439.999997616E-3,,,,,-449.199957075E-6,-79.999998212E-3,
,,,-448.799954029E-6,419.999986887E-3,,,,,-448.799954029E-6,-79.999998212E-3,
,,,-448.399950983E-6,399.99997616E-3,,,,,-448.399950983E-6,-99.999994040E-3,
,,,-447.999977041E-6,399.99997616E-3,,,,,-447.999977041E-6,-119.9999973E-3,
,,,-447.599973995E-6,379.99999523E-3,,,,,-447.599973995E-6,-119.9999973E-3,
,,,-447.199970949E-6,359.99998450E-3,,,,,-447.199970949E-6,-119.9999973E-3,
,,,-446.799967904E-6,359.99998450E-3,,,,,-446.799967904E-6,-140.0000006E-3,
,,,-446.399964858E-6,340.00000358E-3,,,,,-446.399964858E-6,-159.99999642E-3,
,,,-445.999961812E-6,340.00000358E-3,,,,,-445.999961812E-6,-159.99999642E-3,
,,,-445.599958766E-6,340.00000358E-3,,,,,-445.599958766E-6,-159.99999642E-3,
,,,-445.199955720E-6,319.99999285E-3,,,,,-445.199955720E-6,-199.99998808E-3,
,,,-444.799952675E-6,299.99998212E-3,,,,,-444.799952675E-6,-199.99998808E-3,
,,,-444.399978733E-6,299.99998212E-3,,,,,-444.399978733E-6,-219.99999881E-3,
,,,-443.999975687E-6,280.00000119E-3,,,,,-443.999975687E-6,-219.99999881E-3,
,,,-443.599972641E-6,259.99999046E-3,,,,,-443.599972641E-6,-239.99999464E-3,
,,,-443.199969595E-6,239.99999464E-3,,,,,-443.199969595E-6,-239.99999464E-3,
,,,-442.799966550E-6,259.99999046E-3,,,,,-442.799966550E-6,-259.99999046E-3,
,,,-442.399963504E-6,219.99999881E-3,,,,,-442.399963504E-6,-259.99999046E-3,
,,,-441.999960458E-6,219.99999881E-3,,,,,-441.999960458E-6,-280.00000119E-3,
,,,-441.599957412E-6,199.99998808E-3,,,,,-441.599957412E-6,-280.00000119E-3,
,,,-441.199954366E-6,199.99998808E-3,,,,,-441.199954366E-6,-280.00000119E-3,
,,,-440.799951321E-6,179.99999225E-3,,,,,-440.799951321E-6,-299.99998212E-3,
,,,-440.399977379E-6,159.99999642E-3,,,,,-440.399977379E-6,-319.99999285E-3,
,,,-439.999974333E-6,159.99999642E-3,,,,,-439.999974333E-6,-319.99999285E-3,
,,,-439.599971287E-6,140.0000006E-3,,,,,-439.599971287E-6,-340.00000358E-3,
,,,-439.199968241E-6,140.0000006E-3,,,,,-439.199968241E-6,-340.00000358E-3,
,,,-438.799965195E-6,119.9999973E-3,,,,,-438.799965195E-6,-359.99998450E-3,
,,,-438.399962150E-6,99.999994040E-3,,,,,-438.399962150E-6,-359.99998450E-3,
,,,-437.999959104E-6,99.999994040E-3,,,,,-437.999959104E-6,-379.99999523E-3,
,,,-437.599956058E-6,79.999998212E-3,,,,,-437.599956058E-6,-399.99997616E-3,
,,,-437.199953012E-6,59.999998659E-3,,,,,-437.199953012E-6,-399.99997616E-3,
,,,-436.799979070E-6,59.999998659E-3,,,,,-436.799979070E-6,-399.99997616E-3,
,,,-436.399976024E-6,39.99999911E-3,,,,,-436.399976024E-6,-419.999986887E-3,
,,,-435.999972979E-6,39.99999911E-3,,,,,-435.999972979E-6,-439.999997616E-3,
,,,-435.599969933E-6,19.9999996E-3,,,,,-435.599969933E-6,-439.999997616E-3,
,,,-435.199966887E-6,19.9999996E-3,,,,,-435.199966887E-6,-459.999978542E-3,
,,,-434.799963841E-6,0.0,,,,,-434.799963841E-6,-479.999989271E-3,
,,,-434.399960795E-6,-19.9999996E-3,,,,,-434.399960795E-6,-479.999989271E-3,
,,,-433.999957750E-6,-19.9999996E-3,,,,,-433.999957750E-6,-479.999989271E-3,
,,,-433.599954704E-6,-39.99999911E-3,,,,,-433.599954704E-6,-500.000000000E-3,
,,,-433.199951658E-6,-59.999998659E-3,,,,,-433.199951658E-6,-500.000000000E-3,
,,,-432.799977716E-6,-79.999998212E-3,,,,,-432.799977716E-6,-519.999980927E-3,
,,,-432.399974670E-6,-79.999998212E-3,,,,,-432.399974670E-6,-539.999961853E-3,
,,,-431.999971624E-6,-99.999994040E-3,,,,,-431.999971624E-6,-539.999961853E-3,
,,,-431.599968579E-6,-99.999994040E-3,,,,,-431.599968579E-6,-539.999961853E-3,
,,,-431.199965533E-6,-119.9999973E-3,,,,,-431.199965533E-6,-560.000002384E-3,
,,,-430.799962487E-6,-119.9999973E-3,,,,,-430.799962487E-6,-560.000002384E-3,
,,,-430.399959441E-6,-140.0000006E-3,,,,,-430.399959441E-6,-579.999983311E-3,
,,,-429.999956395E-6,-140.0000006E-3,,,,,-429.999956395E-6,-579.999983311E-3,
,,,-429.599953350E-6,-159.99999642E-3,,,,,-429.599953350E-6,-599.999964237E-3,
,,,-429.199950304E-6,-179.99999225E-3,,,,,-429.199950304E-6,-599.999964237E-3,
,,,-428.799976362E-6,-199.99998808E-3,,,,,-428.799976362E-6,-620.000004768E-3,
,,,-428.399973316E-6,-199.99998808E-3,,,,,-428.399973316E-6,-620.000004768E-3,
,,,-427.999970270E-6,-219.99999881E-3,,,,,-427.999970270E-6,-620.000004768E-3,
,,,-427.599967225E-6,-239.99999464E-3,,,,,-427.599967225E-6,-659.999966621E-3,
,,,-427.199964179E-6,-259.99999046E-3,,,,,-427.199964179E-6,-659.999966621E-3,
,,,-426.799961133E-6,-239.99999464E-3,,,,,-426.799961133E-6,-659.999966621E-3,
,,,-426.399958087E-6,-259.99999046E-3,,,,,-426.399958087E-6,-680.000007153E-3,
,,,-425.999955041E-6,-280.00000119E-3,,,,,-425.999955041E-6,-699.999988079E-3,
,,,-425.599951996E-6,-280.00000119E-3,,,,,-425.599951996E-6,-699.999988079E-3,
,,,-425.199978054E-6,-299.99998212E-3,,,,,-425.199978054E-6,-699.999988079E-3,
,,,-424.799975008E-6,-319.99999285E-3,,,,,-424.799975008E-6,-719.999969006E-3,
,,,-424.399971962E-6,-319.99999285E-3,,,,,-424.399971962E-6,-740.000009537E-3,
,,,-423.999968916E-6,-340.00000358E-3,,,,,-423.999968916E-6,-740.000009537E-3,
,,,-423.599965870E-6,-340.00000358E-3,,,,,-423.599965870E-6,-740.000009537E-3,
,,,-423.199962825E-6,-359.99998450E-3,,,,,-423.199962825E-6,-759.999990463E-3,
,,,-422.799959779E-6,-379.99999523E-3,,,,,-422.799959779E-6,-759.999990463E-3,
,,,-422.399956733E-6,-379.99999523E-3,,,,,-422.399956733E-6,-759.999990463E-3,
,,,-421.999953687E-6,-399.99997616E-3,,,,,-421.999953687E-6,-779.999971390E-3,
,,,-421.599950641E-6,-399.99997616E-3,,,,,-421.599950641E-6,-779.999971390E-3,
,,,-421.199976699E-6,-419.999986887E-3,,,,,-421.199976699E-6,-779.999971390E-3,
,,,-420.799973654E-6,-439.999997616E-3,,,,,-420.799973654E-6,-799.999952316E-3,
,,,-420.399970608E-6,-439.999997616E-3,,,,,-420.399970608E-6,-819.999992847E-3,
,,,-419.999967562E-6,-459.999978542E-3,,,,,-419.999967562E-6,-819.999992847E-3,
,,,-419.599964516E-6,-459.999978542E-3,,,,,-419.599964516E-6,-819.999992847E-3,
,,,-419.199961470E-6,-479.999989271E-3,,,,,-419.199961470E-6,-839.999973774E-3,
,,,-418.799958425E-6,-500.000000000E-3,,,,,-418.799958425E-6,-859.999954700E-3,
,,,-418.399955379E-6,-500.000000000E-3,,,,,-418.399955379E-6,-839.999973774E-3,
,,,-417.999952333E-6,-519.999980927E-3,,,,,-417.999952333E-6,-859.999954700E-3,
,,,-417.599978391E-6,-539.999961853E-3,,,,,-417.599978391E-6,-859.999954700E-3,
,,,-417.199975345E-6,-539.999961853E-3,,,,,-417.199975345E-6,-879.999995232E-3,
,,,-416.799972299E-6,-539.999961853E-3,,,,,-416.799972299E-6,-879.999995232E-3,
,,,-416.399969254E-6,-560.000002384E-3,,,,,-416.399969254E-6,-899.999976158E-3,
,,,-415.999966208E-6,-560.000002384E-3,,,,,-415.999966208E-6,-899.999976158E-3,
,,,-415.599963162E-6,-579.999983311E-3,,,,,-415.599963162E-6,-899.999976158E-3,
,,,-415.199960116E-6,-599.999964237E-3,,,,,-415.199960116E-6,-919.999957085E-3,
,,,-414.799957070E-6,-599.999964237E-3,,,,,-414.799957070E-6,-919.999957085E-3,
,,,-414.399954025E-6,-599.999964237E-3,,,,,-414.399954025E-6,-939.999997616E-3,
,,,-413.999950979E-6,-620.000004768E-3,,,,,-413.999950979E-6,-939.999997616E-3,
,,,-413.599977037E-6,-639.999985695E-3,,,,,-413.599977037E-6,-939.999997616E-3,
,,,-413.199973991E-6,-639.999985695E-3,,,,,-413.199973991E-6,-959.999978542E-3,
,,,-412.799970945E-6,-659.999966621E-3,,,,,-412.799970945E-6,-959.999978542E-3,
,,,-412.399967900E-6,-659.999966621E-3,,,,,-412.399967900E-6,-959.999978542E-3,
,,,-411.999964854E-6,-680.000007153E-3,,,,,-411.999964854E-6,-979.999959469E-3,
,,,-411.599961808E-6,-680.000007153E-3,,,,,-411.599961808E-6,-979.999959469E-3,
,,,-411.199958762E-6,-699.999988079E-3,,,,,-411.199958762E-6,-1.000000,
,,,-410.799955716E-6,-699.999988079E-3,,,,,-410.799955716E-6,-1.000000,
,,,-410.399952671E-6,-719.999969006E-3,,,,,-410.399952671E-6,-1.000000,
,,,-409.999978729E-6,-740.000009537E-3,,,,,-409.999978729E-6,-1.000000,
,,,-409.599975683E-6,-740.000009537E-3,,,,,-409.599975683E-6,-1.0200000,
,,,-409.199972637E-6,-759.999990463E-3,,,,,-409.199972637E-6,-1.0200000,
,,,-408.799969591E-6,-779.999971390E-3,,,,,-408.799969591E-6,-1.0400000,
,,,-408.399966545E-6,-779.999971390E-3,,,,,-408.399966545E-6,-1.0400000,
,,,-407.999963500E-6,-779.999971390E-3,,,,,-407.999963500E-6,-1.0400000,
,,,-407.599960454E-6,-799.999952316E-3,,,,,-407.599960454E-6,-1.0400000,
,,,-407.199957408E-6,-799.999952316E-3,,,,,-407.199957408E-6,-1.0599999,
,,,-406.799954362E-6,-819.999992847E-3,,,,,-406.799954362E-6,-1.0599999,
,,,-406.399951316E-6,-839.999973774E-3,,,,,-406.399951316E-6,-1.0799999,
,,,-405.999977374E-6,-819.999992847E-3,,,,,-405.999977374E-6,-1.0599999,
,,,-405.599974329E-6,-839.999973774E-3,,,,,-405.599974329E-6,-1.0799999,
,,,-405.199971283E-6,-859.999954700E-3,,,,,-405.199971283E-6,-1.0799999,
,,,-404.799968237E-6,-859.999954700E-3,,,,,-404.799968237E-6,-1.0799999,
,,,-404.399965191E-6,-879.999995232E-3,,,,,-404.399965191E-6,-1.1000000,
,,,-403.999962145E-6,-879.999995232E-3,,,,,-403.999962145E-6,-1.1000000,
,,,-403.599959100E-6,-899.999976158E-3,,,,,-403.599959100E-6,-1.1000000,
,,,-403.19995605E-6,-899.999976158E-3,,,,,-403.19995605E-6,-1.1200000,
,,,-402.79995301E-6,-919.999957085E-3,,,,,-402.79995301E-6,-1.1200000,
,,,-402.39994996E-6,-919.999957085E-3,,,,,-402.39994996E-6,-1.1200000,
,,,-401.99997602E-6,-919.999957085E-3,,,,,-401.99997602E-6,-1.1200000,
,,,-401.59997297E-6,-939.999997616E-3,,,,,-401.59997297E-6,-1.1400000,
,,,-401.19996993E-6,-939.999997616E-3,,,,,-401.19996993E-6,-1.1200000,
,,,-400.79996688E-6,-959.999978542E-3,,,,,-400.79996688E-6,-1.1400000,
,,,-400.39996384E-6,-959.999978542E-3,,,,,-400.39996384E-6,-1.1600000,
,,,-399.99996079E-6,-979.999959469E-3,,,,,-399.99996079E-6,-1.1400000,
,,,-399.59995775E-6,-979.999959469E-3,,,,,-399.59995775E-6,-1.1600000,
,,,-399.19995470E-6,-1.000000,,,,,-399.19995470E-6,-1.1600000,
,,,-398.79995165E-6,-1.000000,,,,,-398.79995165E-6,-1.1600000,
,,,-398.39997771E-6,-1.0200000,,,,,-398.39997771E-6,-1.1799999,
,,,-397.99997467E-6,-1.0200000,,,,,-397.99997467E-6,-1.1600000,
,,,-397.59997162E-6,-1.0400000,,,,,-397.59997162E-6,-1.1799999,
,,,-397.19996857E-6,-1.0400000,,,,,-397.19996857E-6,-1.1799999,
,,,-396.79996553E-6,-1.0400000,,,,,-396.79996553E-6,-1.1799999,
,,,-396.39996248E-6,-1.0400000,,,,,-396.39996248E-6,-1.1799999,
,,,-395.99995944E-6,-1.0599999,,,,,-395.99995944E-6,-1.1999999,
,,,-395.59995639E-6,-1.0599999,,,,,-395.59995639E-6,-1.1999999,
