primer_informe/108ohms_100uH.csv

Record Length,2500,Points,-1.2100001E-6,19.9999996E-3,
Sample Interval,999.999967622E-12,s,-1.2090001E-6,0.0,
Trigger Point,1.2100001E3,Samples,-1.2080001E-6,0.0,
,,,-1.2070001E-6,0.0,
,,,-1.2060001E-6,0.0,
,,,-1.2050001E-6,19.9999996E-3,
Source,CH1,,-1.2040000E-6,19.9999996E-3,
Vertical Units,Volts,,-1.2030000E-6,-19.9999996E-3,
Vertical Scale,499.999988824E-3,,-1.2020000E-6,19.9999996E-3,
Vertical Offset,0,,-1.2010000E-6,0.0,
Horizontal Units,s,,-1.2000000E-6,0.0,
Horizontal Scale,249.99999293E-9,,-1.1990001E-6,0.0,
Pt Fmt,Y,,-1.1980001E-6,0.0,
Yzero,0.0,,-1.1970001E-6,19.9999996E-3,
Probe Atten,1.000000,,-1.1960001E-6,19.9999996E-3,
,,,-1.1950001E-6,39.99999911E-3,
Note,TBS 1052B-EDU - 02:46:22 p.m.   29/08/2022,,-1.1940001E-6,0.0,
,,,-1.1930000E-6,19.9999996E-3,
,,,-1.1920000E-6,19.9999996E-3,
,,,-1.1910000E-6,0.0,
,,,-1.1900000E-6,0.0,
,,,-1.1890000E-6,0.0,
,,,-1.1880001E-6,19.9999996E-3,
,,,-1.1870001E-6,0.0,
,,,-1.1860001E-6,0.0,
,,,-1.1850001E-6,0.0,
,,,-1.1840001E-6,0.0,
,,,-1.1830000E-6,19.9999996E-3,
,,,-1.1820000E-6,19.9999996E-3,
,,,-1.1810000E-6,0.0,
,,,-1.1800000E-6,0.0,
,,,-1.1790000E-6,19.9999996E-3,
,,,-1.1780000E-6,19.9999996E-3,
,,,-1.1770001E-6,0.0,
,,,-1.1760001E-6,19.9999996E-3,
,,,-1.1750001E-6,19.9999996E-3,
,,,-1.1740001E-6,0.0,
,,,-1.1730001E-6,39.99999911E-3,
,,,-1.1720000E-6,19.9999996E-3,
,,,-1.1710000E-6,19.9999996E-3,
,,,-1.1700000E-6,19.9999996E-3,
,,,-1.1690000E-6,39.99999911E-3,
,,,-1.1680000E-6,39.99999911E-3,
,,,-1.1670001E-6,39.99999911E-3,
,,,-1.1660001E-6,19.9999996E-3,
,,,-1.1650001E-6,0.0,
,,,-1.1640001E-6,19.9999996E-3,
,,,-1.1630001E-6,0.0,
,,,-1.1620001E-6,19.9999996E-3,
,,,-1.1610000E-6,0.0,
,,,-1.1600000E-6,19.9999996E-3,
,,,-1.1590000E-6,39.99999911E-3,
,,,-1.1580000E-6,19.9999996E-3,
,,,-1.1570000E-6,19.9999996E-3,
,,,-1.1560001E-6,19.9999996E-3,
,,,-1.1550001E-6,19.9999996E-3,
,,,-1.1540001E-6,0.0,
,,,-1.1530001E-6,0.0,
,,,-1.1520001E-6,19.9999996E-3,
,,,-1.1510001E-6,-19.9999996E-3,
,,,-1.1500000E-6,0.0,
,,,-1.1490000E-6,0.0,
,,,-1.1480000E-6,0.0,
,,,-1.1470000E-6,19.9999996E-3,
,,,-1.1460000E-6,0.0,
,,,-1.1450001E-6,19.9999996E-3,
,,,-1.1440001E-6,19.9999996E-3,
,,,-1.1430001E-6,0.0,
,,,-1.1420001E-6,19.9999996E-3,
,,,-1.1410001E-6,0.0,
,,,-1.1400001E-6,19.9999996E-3,
,,,-1.1390000E-6,19.9999996E-3,
,,,-1.1380000E-6,0.0,
,,,-1.1370000E-6,19.9999996E-3,
,,,-1.1360000E-6,19.9999996E-3,
,,,-1.1350000E-6,19.9999996E-3,
,,,-1.1340001E-6,19.9999996E-3,
,,,-1.1330001E-6,19.9999996E-3,
,,,-1.1320001E-6,0.0,
,,,-1.1310001E-6,19.9999996E-3,
,,,-1.1300001E-6,0.0,
,,,-1.1290000E-6,19.9999996E-3,
,,,-1.1280000E-6,19.9999996E-3,
,,,-1.1270000E-6,39.99999911E-3,
,,,-1.1260000E-6,0.0,
,,,-1.1250000E-6,19.9999996E-3,
,,,-1.1240001E-6,19.9999996E-3,
,,,-1.1230001E-6,39.99999911E-3,
,,,-1.1220001E-6,19.9999996E-3,
,,,-1.1210001E-6,19.9999996E-3,
,,,-1.1200001E-6,19.9999996E-3,
,,,-1.1190001E-6,0.0,
,,,-1.1180000E-6,0.0,
,,,-1.1170000E-6,19.9999996E-3,
,,,-1.1160000E-6,0.0,
,,,-1.1150000E-6,19.9999996E-3,
,,,-1.1140000E-6,19.9999996E-3,
,,,-1.1130001E-6,0.0,
,,,-1.1120001E-6,39.99999911E-3,
,,,-1.1110001E-6,19.9999996E-3,
,,,-1.1100001E-6,19.9999996E-3,
,,,-1.1090001E-6,19.9999996E-3,
,,,-1.1080001E-6,19.9999996E-3,
,,,-1.1070000E-6,19.9999996E-3,
,,,-1.1060000E-6,0.0,
,,,-1.1050000E-6,19.9999996E-3,
,,,-1.1040000E-6,19.9999996E-3,
,,,-1.1030000E-6,0.0,
,,,-1.1020001E-6,0.0,
,,,-1.1010001E-6,19.9999996E-3,
,,,-1.1000001E-6,19.9999996E-3,
,,,-1.0990001E-6,0.0,
,,,-1.0980001E-6,0.0,
,,,-1.0970001E-6,0.0,
,,,-1.0960000E-6,0.0,
,,,-1.0950000E-6,0.0,
,,,-1.0940000E-6,0.0,
,,,-1.0930000E-6,19.9999996E-3,
,,,-1.0920000E-6,19.9999996E-3,
,,,-1.0910001E-6,0.0,
,,,-1.0900001E-6,19.9999996E-3,
,,,-1.0890001E-6,0.0,
,,,-1.0880001E-6,19.9999996E-3,
,,,-1.0870001E-6,0.0,
,,,-1.0860000E-6,19.9999996E-3,
,,,-1.0850000E-6,39.99999911E-3,
,,,-1.0840000E-6,19.9999996E-3,
,,,-1.0830000E-6,19.9999996E-3,
,,,-1.0820000E-6,19.9999996E-3,
,,,-1.0810001E-6,0.0,
,,,-1.0800001E-6,19.9999996E-3,
,,,-1.0790001E-6,0.0,
,,,-1.0780001E-6,0.0,
,,,-1.0770001E-6,0.0,
,,,-1.0760001E-6,19.9999996E-3,
,,,-1.0750000E-6,19.9999996E-3,
,,,-1.0740000E-6,19.9999996E-3,
,,,-1.0730000E-6,0.0,
,,,-1.0720000E-6,19.9999996E-3,
,,,-1.0710000E-6,0.0,
,,,-1.0700001E-6,19.9999996E-3,
,,,-1.0690001E-6,0.0,
,,,-1.0680001E-6,0.0,
,,,-1.0670001E-6,0.0,
,,,-1.0660001E-6,19.9999996E-3,
,,,-1.0650001E-6,19.9999996E-3,
,,,-1.0640000E-6,19.9999996E-3,
,,,-1.0630000E-6,0.0,
,,,-1.0620000E-6,0.0,
,,,-1.0610000E-6,0.0,
,,,-1.0600000E-6,19.9999996E-3,
,,,-1.0590001E-6,0.0,
,,,-1.0580001E-6,19.9999996E-3,
,,,-1.0570001E-6,19.9999996E-3,
,,,-1.0560001E-6,19.9999996E-3,
,,,-1.0550001E-6,0.0,
,,,-1.0540001E-6,19.9999996E-3,
,,,-1.0530000E-6,0.0,
,,,-1.0520000E-6,0.0,
,,,-1.0510000E-6,0.0,
,,,-1.0500000E-6,19.9999996E-3,
,,,-1.0490000E-6,0.0,
,,,-1.0480001E-6,19.9999996E-3,
,,,-1.0470001E-6,19.9999996E-3,
,,,-1.0460001E-6,19.9999996E-3,
,,,-1.0450001E-6,19.9999996E-3,
,,,-1.0440001E-6,19.9999996E-3,
,,,-1.0430001E-6,0.0,
,,,-1.0420000E-6,19.9999996E-3,
,,,-1.0410000E-6,0.0,
,,,-1.0400000E-6,0.0,
,,,-1.0390000E-6,0.0,
,,,-1.0380001E-6,0.0,
,,,-1.0370001E-6,19.9999996E-3,
,,,-1.0360001E-6,0.0,
,,,-1.0350001E-6,0.0,
,,,-1.0340001E-6,0.0,
,,,-1.0330001E-6,19.9999996E-3,
,,,-1.0320000E-6,19.9999996E-3,
,,,-1.0310000E-6,0.0,
,,,-1.0300000E-6,19.9999996E-3,
,,,-1.0290000E-6,0.0,
,,,-1.0280000E-6,0.0,
,,,-1.0270001E-6,0.0,
,,,-1.0260001E-6,19.9999996E-3,
,,,-1.0250001E-6,0.0,
,,,-1.0240001E-6,19.9999996E-3,
,,,-1.0230001E-6,0.0,
,,,-1.0220001E-6,19.9999996E-3,
,,,-1.0210000E-6,39.99999911E-3,
,,,-1.0200000E-6,0.0,
,,,-1.0190000E-6,0.0,
,,,-1.0180000E-6,39.99999911E-3,
,,,-1.0170000E-6,19.9999996E-3,
,,,-1.0160001E-6,19.9999996E-3,
,,,-1.0150001E-6,0.0,
,,,-1.0140001E-6,19.9999996E-3,
,,,-1.0130001E-6,39.99999911E-3,
,,,-1.0120001E-6,39.99999911E-3,
,,,-1.0110001E-6,-19.9999996E-3,
,,,-1.0100000E-6,0.0,
,,,-1.0090000E-6,0.0,
,,,-1.0080000E-6,19.9999996E-3,
,,,-1.0070000E-6,0.0,
,,,-1.0060000E-6,19.9999996E-3,
,,,-1.0050001E-6,19.9999996E-3,
,,,-1.0040001E-6,19.9999996E-3,
,,,-1.0030001E-6,19.9999996E-3,
,,,-1.0020001E-6,0.0,
,,,-1.0010001E-6,0.0,
,,,-1.0000001E-6,19.9999996E-3,
,,,-999.000008051E-9,0.0,
,,,-998.000018626E-9,0.0,
,,,-997.000029201E-9,19.9999996E-3,
,,,-996.000039777E-9,0.0,
,,,-995.000050352E-9,0.0,
,,,-994.000060928E-9,19.9999996E-3,
,,,-993.000071503E-9,19.9999996E-3,
,,,-992.000082078E-9,0.0,
,,,-991.000092654E-9,0.0,
,,,-990.000103229E-9,19.9999996E-3,
,,,-989.000000118E-9,0.0,
,,,-988.000010693E-9,19.9999996E-3,
,,,-987.000021269E-9,39.99999911E-3,
,,,-986.000031844E-9,39.99999911E-3,
,,,-985.000042419E-9,19.9999996E-3,
,,,-984.000052995E-9,19.9999996E-3,
,,,-983.000063570E-9,0.0,
,,,-982.000074146E-9,0.0,
,,,-981.000084721E-9,0.0,
,,,-980.000095296E-9,0.0,
,,,-979.000105872E-9,-19.9999996E-3,
,,,-978.000002760E-9,-19.9999996E-3,
,,,-977.000013336E-9,0.0,
,,,-976.000023911E-9,0.0,
,,,-975.000034487E-9,0.0,
,,,-974.000045062E-9,-19.9999996E-3,
,,,-973.000055637E-9,0.0,
,,,-972.000066213E-9,0.0,
,,,-971.000076788E-9,0.0,
,,,-970.000087364E-9,0.0,
,,,-969.000097939E-9,0.0,
,,,-968.000108514E-9,0.0,
,,,-967.000005403E-9,0.0,
,,,-966.000015978E-9,0.0,
,,,-965.000026554E-9,19.9999996E-3,
,,,-964.000037129E-9,0.0,
,,,-963.000047705E-9,-19.9999996E-3,
,,,-962.000058280E-9,0.0,
,,,-961.000068855E-9,0.0,
,,,-960.000079431E-9,0.0,
,,,-959.000090006E-9,0.0,
,,,-958.000100582E-9,19.9999996E-3,
,,,-957.000111157E-9,19.9999996E-3,
,,,-956.000008046E-9,0.0,
,,,-955.000018621E-9,0.0,
,,,-954.000029196E-9,19.9999996E-3,
,,,-953.000039772E-9,19.9999996E-3,
,,,-952.000050347E-9,19.9999996E-3,
,,,-951.000060923E-9,0.0,
,,,-950.000071498E-9,-19.9999996E-3,
,,,-949.000082073E-9,0.0,
,,,-948.000035805E-9,-19.9999996E-3,
,,,-947.000046381E-9,0.0,
,,,-946.000056956E-9,0.0,
,,,-945.000067532E-9,19.9999996E-3,
,,,-944.000078107E-9,19.9999996E-3,
,,,-943.000031839E-9,0.0,
,,,-942.000042414E-9,0.0,
,,,-941.000052990E-9,19.9999996E-3,
,,,-940.000063565E-9,0.0,
,,,-939.000074140E-9,19.9999996E-3,
,,,-938.000084716E-9,0.0,
,,,-937.000038448E-9,19.9999996E-3,
,,,-936.000049023E-9,19.9999996E-3,
,,,-935.000059599E-9,19.9999996E-3,
,,,-934.000070174E-9,19.9999996E-3,
,,,-933.000080749E-9,19.9999996E-3,
,,,-932.000034481E-9,19.9999996E-3,
,,,-931.000045057E-9,19.9999996E-3,
,,,-930.000055632E-9,0.0,
,,,-929.000066208E-9,19.9999996E-3,
,,,-928.000076783E-9,19.9999996E-3,
,,,-927.000030515E-9,39.99999911E-3,
,,,-926.000041090E-9,0.0,
,,,-925.000051666E-9,19.9999996E-3,
,,,-924.000062241E-9,39.99999911E-3,
,,,-923.000072817E-9,19.9999996E-3,
,,,-922.000083392E-9,19.9999996E-3,
,,,-921.000037124E-9,19.9999996E-3,
,,,-920.000047699E-9,19.9999996E-3,
,,,-919.000058275E-9,19.9999996E-3,
,,,-918.000068850E-9,19.9999996E-3,
,,,-917.000079426E-9,0.0,
,,,-916.000033158E-9,0.0,
,,,-915.000043733E-9,0.0,
,,,-914.000054308E-9,19.9999996E-3,
,,,-913.000064884E-9,19.9999996E-3,
,,,-912.000075459E-9,0.0,
,,,-911.000086035E-9,19.9999996E-3,
,,,-910.000039767E-9,19.9999996E-3,
,,,-909.000050342E-9,19.9999996E-3,
,,,-908.000060917E-9,19.9999996E-3,
,,,-907.000071493E-9,19.9999996E-3,
,,,-906.000082068E-9,19.9999996E-3,
,,,-905.000035800E-9,19.9999996E-3,
,,,-904.000046376E-9,19.9999996E-3,
,,,-903.000056951E-9,39.99999911E-3,
,,,-902.000067526E-9,19.9999996E-3,
,,,-901.000078102E-9,0.0,
,,,-900.000031834E-9,19.9999996E-3,
,,,-899.000042409E-9,19.9999996E-3,
,,,-898.000052985E-9,39.99999911E-3,
,,,-897.000063560E-9,19.9999996E-3,
,,,-896.000074135E-9,19.9999996E-3,
,,,-895.000084711E-9,19.9999996E-3,
,,,-894.000038443E-9,19.9999996E-3,
,,,-893.000049018E-9,19.9999996E-3,
,,,-892.000059594E-9,0.0,
,,,-891.000070169E-9,19.9999996E-3,
,,,-890.000080744E-9,0.0,
,,,-889.000034476E-9,0.0,
,,,-888.000045052E-9,0.0,
,,,-887.000055627E-9,0.0,
,,,-886.000066203E-9,0.0,
,,,-885.000076778E-9,19.9999996E-3,
,,,-884.000087353E-9,0.0,
,,,-883.000041085E-9,0.0,
,,,-882.000051661E-9,0.0,
,,,-881.000062236E-9,19.9999996E-3,
,,,-880.000072812E-9,39.99999911E-3,
,,,-879.000083387E-9,19.9999996E-3,
,,,-878.000037119E-9,0.0,
,,,-877.000047694E-9,19.9999996E-3,
,,,-876.000058270E-9,19.9999996E-3,
,,,-875.000068845E-9,0.0,
,,,-874.000079421E-9,19.9999996E-3,
,,,-873.000033152E-9,19.9999996E-3,
,,,-872.000043728E-9,19.9999996E-3,
,,,-871.000054303E-9,0.0,
,,,-870.000064879E-9,0.0,
,,,-869.000075454E-9,19.9999996E-3,
,,,-868.000086029E-9,39.99999911E-3,
,,,-867.000039761E-9,79.999998212E-3,
,,,-866.000050337E-9,79.999998212E-3,
,,,-865.000060912E-9,99.999994040E-3,
,,,-864.000071488E-9,119.9999973E-3,
,,,-863.000082063E-9,119.9999973E-3,
,,,-862.000035795E-9,140.0000006E-3,
,,,-861.000046370E-9,99.999994040E-3,
,,,-860.000056946E-9,99.999994040E-3,
,,,-859.000067521E-9,99.999994040E-3,
,,,-858.000078097E-9,79.999998212E-3,
,,,-857.000088672E-9,59.999998659E-3,
,,,-856.000042404E-9,59.999998659E-3,
,,,-855.000052979E-9,39.99999911E-3,
,,,-854.000063555E-9,59.999998659E-3,
,,,-853.000074130E-9,39.99999911E-3,
,,,-852.000084706E-9,39.99999911E-3,
,,,-851.000038438E-9,19.9999996E-3,
,,,-850.000049013E-9,39.99999911E-3,
,,,-849.000059588E-9,59.999998659E-3,
,,,-848.000070164E-9,59.999998659E-3,
,,,-847.000080739E-9,79.999998212E-3,
,,,-846.000034471E-9,59.999998659E-3,
,,,-845.000045047E-9,79.999998212E-3,
,,,-844.000055622E-9,59.999998659E-3,
,,,-843.000066197E-9,79.999998212E-3,
,,,-842.000076773E-9,79.999998212E-3,
,,,-841.000087348E-9,59.999998659E-3,
,,,-840.000041080E-9,59.999998659E-3,
,,,-839.000051656E-9,59.999998659E-3,
,,,-838.000062231E-9,39.99999911E-3,
,,,-837.000072806E-9,59.999998659E-3,
,,,-836.000083382E-9,59.999998659E-3,
,,,-835.000037114E-9,59.999998659E-3,
,,,-834.000047689E-9,79.999998212E-3,
,,,-833.000058265E-9,79.999998212E-3,
,,,-832.000068840E-9,79.999998212E-3,
,,,-831.000079415E-9,99.999994040E-3,
,,,-830.000033147E-9,79.999998212E-3,
,,,-829.000043723E-9,59.999998659E-3,
,,,-828.000054298E-9,79.999998212E-3,
,,,-827.000064874E-9,79.999998212E-3,
,,,-826.000075449E-9,79.999998212E-3,
,,,-825.000086024E-9,79.999998212E-3,
,,,-824.000039756E-9,99.999994040E-3,
,,,-823.000050332E-9,79.999998212E-3,
,,,-822.000060907E-9,99.999994040E-3,
,,,-821.000071483E-9,99.999994040E-3,
,,,-820.000082058E-9,79.999998212E-3,
,,,-819.000035790E-9,99.999994040E-3,
,,,-818.000046365E-9,119.9999973E-3,
,,,-817.000056941E-9,119.9999973E-3,
,,,-816.000067516E-9,140.0000006E-3,
,,,-815.000078092E-9,140.0000006E-3,
,,,-814.000088667E-9,119.9999973E-3,
,,,-813.000042399E-9,119.9999973E-3,
,,,-812.000052974E-9,119.9999973E-3,
,,,-811.000063550E-9,119.9999973E-3,
,,,-810.000074125E-9,119.9999973E-3,
,,,-809.000084701E-9,119.9999973E-3,
,,,-808.000038433E-9,119.9999973E-3,
,,,-807.000049008E-9,119.9999973E-3,
,,,-806.000059583E-9,140.0000006E-3,
,,,-805.000070159E-9,140.0000006E-3,
,,,-804.000080734E-9,140.0000006E-3,
,,,-803.000034466E-9,119.9999973E-3,
,,,-802.000045041E-9,140.0000006E-3,
,,,-801.000055617E-9,140.0000006E-3,
,,,-800.000066192E-9,140.0000006E-3,
,,,-799.000076768E-9,140.0000006E-3,
,,,-798.000087343E-9,119.9999973E-3,
,,,-797.000041075E-9,140.0000006E-3,
,,,-796.000051650E-9,140.0000006E-3,
,,,-795.000062226E-9,140.0000006E-3,
,,,-794.000072801E-9,159.99999642E-3,
,,,-793.000083377E-9,140.0000006E-3,
,,,-792.000037109E-9,159.99999642E-3,
,,,-791.000047684E-9,140.0000006E-3,
,,,-790.000058259E-9,179.99999225E-3,
,,,-789.000068835E-9,179.99999225E-3,
,,,-788.000079410E-9,159.99999642E-3,
,,,-787.000089986E-9,159.99999642E-3,
,,,-786.000043718E-9,179.99999225E-3,
,,,-785.000054293E-9,179.99999225E-3,
,,,-784.000064868E-9,179.99999225E-3,
,,,-783.000075444E-9,179.99999225E-3,
,,,-782.000086019E-9,199.99998808E-3,
,,,-781.000039751E-9,159.99999642E-3,
,,,-780.000050327E-9,159.99999642E-3,
,,,-779.000060902E-9,179.99999225E-3,
,,,-778.000071477E-9,179.99999225E-3,
,,,-777.000082053E-9,199.99998808E-3,
,,,-776.000035785E-9,199.99998808E-3,
,,,-775.000046360E-9,199.99998808E-3,
,,,-774.000056936E-9,199.99998808E-3,
,,,-773.000067511E-9,219.99999881E-3,
,,,-772.000078086E-9,199.99998808E-3,
,,,-771.000088662E-9,199.99998808E-3,
,,,-770.000042394E-9,199.99998808E-3,
,,,-769.000052969E-9,199.99998808E-3,
,,,-768.000063545E-9,199.99998808E-3,
,,,-767.000074120E-9,219.99999881E-3,
,,,-766.000084695E-9,219.99999881E-3,
,,,-765.000038427E-9,239.99999464E-3,
,,,-764.000049003E-9,219.99999881E-3,
,,,-763.000059578E-9,219.99999881E-3,
,,,-762.000070154E-9,219.99999881E-3,
,,,-761.000080729E-9,219.99999881E-3,
,,,-760.000091304E-9,239.99999464E-3,
,,,-759.000045036E-9,219.99999881E-3,
,,,-758.000055612E-9,219.99999881E-3,
,,,-757.000066187E-9,239.99999464E-3,
,,,-756.000076763E-9,239.99999464E-3,
,,,-755.000087338E-9,219.99999881E-3,
,,,-754.000041070E-9,239.99999464E-3,
,,,-753.000051645E-9,219.99999881E-3,
,,,-752.000062221E-9,239.99999464E-3,
,,,-751.000072796E-9,219.99999881E-3,
,,,-750.000083372E-9,239.99999464E-3,
,,,-749.000037104E-9,239.99999464E-3,
,,,-748.000047679E-9,239.99999464E-3,
,,,-747.000058254E-9,239.99999464E-3,
,,,-746.000068830E-9,239.99999464E-3,
,,,-745.000079405E-9,239.99999464E-3,
,,,-744.000089981E-9,259.99999046E-3,
,,,-743.000043713E-9,259.99999046E-3,
,,,-742.000054288E-9,239.99999464E-3,
,,,-741.000064863E-9,280.00000119E-3,
,,,-740.000075439E-9,259.99999046E-3,
,,,-739.000086014E-9,259.99999046E-3,
,,,-738.000039746E-9,259.99999046E-3,
,,,-737.000050322E-9,259.99999046E-3,
,,,-736.000060897E-9,259.99999046E-3,
,,,-735.000071472E-9,280.00000119E-3,
,,,-734.000082048E-9,259.99999046E-3,
,,,-733.000035780E-9,280.00000119E-3,
,,,-732.000046355E-9,259.99999046E-3,
,,,-731.000056930E-9,259.99999046E-3,
,,,-730.000067506E-9,259.99999046E-3,
,,,-729.000078081E-9,280.00000119E-3,
,,,-728.000088657E-9,259.99999046E-3,
,,,-727.000042389E-9,280.00000119E-3,
,,,-726.000052964E-9,259.99999046E-3,
,,,-725.000063539E-9,280.00000119E-3,
,,,-724.000074115E-9,299.99998212E-3,
,,,-723.000084690E-9,280.00000119E-3,
,,,-722.000038422E-9,280.00000119E-3,
,,,-721.000048998E-9,299.99998212E-3,
,,,-720.000059573E-9,299.99998212E-3,
,,,-719.000070148E-9,299.99998212E-3,
,,,-718.000080724E-9,299.99998212E-3,
,,,-717.000091299E-9,340.00000358E-3,
,,,-716.000045031E-9,319.99999285E-3,
,,,-715.000055607E-9,319.99999285E-3,
,,,-714.000066182E-9,319.99999285E-3,
,,,-713.000076757E-9,299.99998212E-3,
,,,-712.000087333E-9,319.99999285E-3,
,,,-711.000041065E-9,299.99998212E-3,
,,,-710.000051640E-9,299.99998212E-3,
,,,-709.000062216E-9,319.99999285E-3,
,,,-708.000072791E-9,340.00000358E-3,
,,,-707.000083366E-9,299.99998212E-3,
,,,-706.000037098E-9,319.99999285E-3,
,,,-705.000047674E-9,319.99999285E-3,
,,,-704.000058249E-9,319.99999285E-3,
,,,-703.000068825E-9,340.00000358E-3,
,,,-702.000079400E-9,340.00000358E-3,
,,,-701.000089975E-9,319.99999285E-3,
,,,-700.000043707E-9,340.00000358E-3,
,,,-699.000054283E-9,319.99999285E-3,
,,,-698.000064858E-9,359.99998450E-3,
,,,-697.000075434E-9,319.99999285E-3,
,,,-696.000086009E-9,359.99998450E-3,
,,,-695.000039741E-9,340.00000358E-3,
,,,-694.000050316E-9,319.99999285E-3,
,,,-693.000060892E-9,340.00000358E-3,
,,,-692.000071467E-9,340.00000358E-3,
,,,-691.000082043E-9,340.00000358E-3,
,,,-690.000092618E-9,359.99998450E-3,
,,,-689.000046350E-9,340.00000358E-3,
,,,-688.000056925E-9,359.99998450E-3,
,,,-687.000067501E-9,340.00000358E-3,
,,,-686.000078076E-9,359.99998450E-3,
,,,-685.000088652E-9,379.99999523E-3,
,,,-684.000042384E-9,359.99998450E-3,
,,,-683.000052959E-9,359.99998450E-3,
,,,-682.000063534E-9,379.99999523E-3,
,,,-681.000074110E-9,359.99998450E-3,
,,,-680.000084685E-9,379.99999523E-3,
,,,-679.000038417E-9,359.99998450E-3,
,,,-678.000048993E-9,379.99999523E-3,
,,,-677.000059568E-9,359.99998450E-3,
,,,-676.000070143E-9,340.00000358E-3,
,,,-675.000080719E-9,379.99999523E-3,
,,,-674.000091294E-9,399.99997616E-3,
,,,-673.000045026E-9,359.99998450E-3,
,,,-672.000055602E-9,379.99999523E-3,
,,,-671.000066177E-9,379.99999523E-3,
,,,-670.000076752E-9,399.99997616E-3,
,,,-669.000087328E-9,379.99999523E-3,
,,,-668.000041060E-9,379.99999523E-3,
,,,-667.000051635E-9,379.99999523E-3,
,,,-666.000062211E-9,399.99997616E-3,
,,,-665.000072786E-9,379.99999523E-3,
,,,-664.000083361E-9,399.99997616E-3,
,,,-663.000093937E-9,399.99997616E-3,
,,,-662.000047669E-9,399.99997616E-3,
,,,-661.000058244E-9,399.99997616E-3,
,,,-660.000068819E-9,399.99997616E-3,
,,,-659.000079395E-9,359.99998450E-3,
,,,-658.000089970E-9,399.99997616E-3,
,,,-657.000043702E-9,379.99999523E-3,
,,,-656.000054278E-9,399.99997616E-3,
,,,-655.000064853E-9,419.999986887E-3,
,,,-654.000075428E-9,419.999986887E-3,
,,,-653.000086004E-9,419.999986887E-3,
,,,-652.000039736E-9,399.99997616E-3,
,,,-651.000050311E-9,419.999986887E-3,
,,,-650.000060887E-9,419.999986887E-3,
,,,-649.000071462E-9,419.999986887E-3,
,,,-648.000082037E-9,419.999986887E-3,
,,,-647.000092613E-9,439.999997616E-3,
,,,-646.000046345E-9,419.999986887E-3,
,,,-645.000056920E-9,439.999997616E-3,
,,,-644.000067496E-9,419.999986887E-3,
,,,-643.000078071E-9,439.999997616E-3,
,,,-642.000088646E-9,439.999997616E-3,
,,,-641.000042378E-9,439.999997616E-3,
,,,-640.000052954E-9,439.999997616E-3,
,,,-639.000063529E-9,439.999997616E-3,
,,,-638.000074105E-9,439.999997616E-3,
,,,-637.000084680E-9,439.999997616E-3,
,,,-636.000038412E-9,459.999978542E-3,
,,,-635.000048987E-9,459.999978542E-3,
,,,-634.000059563E-9,439.999997616E-3,
,,,-633.000070138E-9,459.999978542E-3,
,,,-632.000080714E-9,459.999978542E-3,
,,,-631.000091289E-9,439.999997616E-3,
,,,-630.000045021E-9,459.999978542E-3,
,,,-629.000055596E-9,439.999997616E-3,
,,,-628.000066172E-9,439.999997616E-3,
,,,-627.000076747E-9,439.999997616E-3,
,,,-626.000087323E-9,439.999997616E-3,
,,,-625.000041055E-9,439.999997616E-3,
,,,-624.000051630E-9,439.999997616E-3,
,,,-623.000062205E-9,459.999978542E-3,
,,,-622.000072781E-9,459.999978542E-3,
,,,-621.000083356E-9,479.999989271E-3,
,,,-620.000093932E-9,479.999989271E-3,
,,,-619.000047664E-9,459.999978542E-3,
,,,-618.000058239E-9,479.999989271E-3,
,,,-617.000068814E-9,459.999978542E-3,
,,,-616.000079390E-9,459.999978542E-3,
,,,-615.000089965E-9,459.999978542E-3,
