primer_informe/clase4/Barrido RC pasabajos/11000.csv

Record Length,2500,Points,-124.9999914E-6,-1.1200000,,Record Length,2500,Points,-124.9999914E-6,80.000005662E-3,
Sample Interval,100.0000012E-9,s,-124.8999906E-6,-1.1200000,,Sample Interval,100.0000012E-9,s,-124.8999906E-6,76.000005007E-3,
Trigger Point,1.2500000E3,Samples,-124.7999899E-6,-1.1400000,,Trigger Point,1.2500000E3,Samples,-124.7999899E-6,76.000005007E-3,
,,,-124.6999891E-6,-1.1400000,,,,,-124.6999891E-6,76.000005007E-3,
,,,-124.5999883E-6,-1.1400000,,,,,-124.5999883E-6,76.000005007E-3,
,,,-124.4999876E-6,-1.1400000,,,,,-124.4999876E-6,72.000004351E-3,
Source,CH1,,-124.3999868E-6,-1.1600000,,Source,CH2,,-124.3999868E-6,72.000004351E-3,
Vertical Units,Volts,,-124.2999861E-6,-1.1600000,,Vertical Units,Volts,,-124.2999861E-6,72.000004351E-3,
Vertical Scale,499.999988824E-3,,-124.1999853E-6,-1.1600000,,Vertical Scale,100.0000047E-3,,-124.1999853E-6,72.000004351E-3,
Vertical Offset,0,,-124.0999845E-6,-1.1600000,,Vertical Offset,0,,-124.0999845E-6,72.000004351E-3,
Horizontal Units,s,,-123.9999983E-6,-1.1799999,,Horizontal Units,s,,-123.9999983E-6,68.000003695E-3,
Horizontal Scale,25.00000029E-6,,-123.8999976E-6,-1.1799999,,Horizontal Scale,25.00000029E-6,,-123.8999976E-6,68.000003695E-3,
Pt Fmt,Y,,-123.7999968E-6,-1.1799999,,Pt Fmt,Y,,-123.7999968E-6,64.000003040E-3,
Yzero,0.0,,-123.6999960E-6,-1.1799999,,Yzero,0.0,,-123.6999960E-6,64.000003040E-3,
Probe Atten,1.000000,,-123.5999953E-6,-1.1999999,,Probe Atten,1.000000,,-123.5999953E-6,64.000003040E-3,
,,,-123.4999945E-6,-1.1999999,,,,,-123.4999945E-6,60.000002384E-3,
Note,TBS 1052B-EDU - 12:29:21 p.m.   12/09/2022,,-123.3999938E-6,-1.1999999,,Note,TBS 1052B-EDU - 12:29:21 p.m.   12/09/2022,,-123.3999938E-6,60.000002384E-3,
,,,-123.2999930E-6,-1.1999999,,,,,-123.2999930E-6,60.000002384E-3,
,,,-123.1999922E-6,-1.1999999,,,,,-123.1999922E-6,60.000002384E-3,
,,,-123.0999915E-6,-1.2200000,,,,,-123.0999915E-6,56.000001729E-3,
,,,-122.9999907E-6,-1.2200000,,,,,-122.9999907E-6,56.000001729E-3,
,,,-122.8999899E-6,-1.2200000,,,,,-122.8999899E-6,52.00000107E-3,
,,,-122.7999892E-6,-1.2200000,,,,,-122.7999892E-6,52.00000107E-3,
,,,-122.6999884E-6,-1.2400000,,,,,-122.6999884E-6,52.00000107E-3,
,,,-122.5999877E-6,-1.2200000,,,,,-122.5999877E-6,52.00000107E-3,
,,,-122.4999869E-6,-1.2400000,,,,,-122.4999869E-6,52.00000107E-3,
,,,-122.3999861E-6,-1.2400000,,,,,-122.3999861E-6,48.00000042E-3,
,,,-122.2999854E-6,-1.2400000,,,,,-122.2999854E-6,48.00000042E-3,
,,,-122.1999846E-6,-1.2600000,,,,,-122.1999846E-6,44.00000349E-3,
,,,-122.0999984E-6,-1.2600000,,,,,-122.0999984E-6,48.00000042E-3,
,,,-121.9999904E-6,-1.2600000,,,,,-121.9999904E-6,44.00000349E-3,
,,,-121.8999896E-6,-1.2600000,,,,,-121.8999896E-6,44.00000349E-3,
,,,-121.7999888E-6,-1.2600000,,,,,-121.7999888E-6,40.00000283E-3,
,,,-121.6999881E-6,-1.2600000,,,,,-121.6999881E-6,40.00000283E-3,
,,,-121.5999946E-6,-1.2800000,,,,,-121.5999946E-6,40.00000283E-3,
,,,-121.4999938E-6,-1.2800000,,,,,-121.4999938E-6,40.00000283E-3,
,,,-121.3999931E-6,-1.2800000,,,,,-121.3999931E-6,36.00000218E-3,
,,,-121.2999923E-6,-1.3000000,,,,,-121.2999923E-6,32.00000152E-3,
,,,-121.1999916E-6,-1.2800000,,,,,-121.1999916E-6,32.00000152E-3,
,,,-121.0999908E-6,-1.3000000,,,,,-121.0999908E-6,32.00000152E-3,
,,,-120.9999900E-6,-1.3000000,,,,,-120.9999900E-6,28.00000086E-3,
,,,-120.8999893E-6,-1.3000000,,,,,-120.8999893E-6,32.00000152E-3,
,,,-120.7999885E-6,-1.3000000,,,,,-120.7999885E-6,28.00000086E-3,
,,,-120.6999877E-6,-1.3199999,,,,,-120.6999877E-6,28.00000086E-3,
,,,-120.5999943E-6,-1.3199999,,,,,-120.5999943E-6,24.00000021E-3,
,,,-120.4999935E-6,-1.3000000,,,,,-120.4999935E-6,24.00000021E-3,
,,,-120.3999927E-6,-1.3199999,,,,,-120.3999927E-6,20.0000014E-3,
,,,-120.2999920E-6,-1.3199999,,,,,-120.2999920E-6,24.00000021E-3,
,,,-120.1999912E-6,-1.3399999,,,,,-120.1999912E-6,24.00000021E-3,
,,,-120.0999905E-6,-1.3199999,,,,,-120.0999905E-6,20.0000014E-3,
,,,-119.9999897E-6,-1.3399999,,,,,-119.9999897E-6,16.0000008E-3,
,,,-119.8999889E-6,-1.3199999,,,,,-119.8999889E-6,16.0000008E-3,
,,,-119.7999882E-6,-1.3399999,,,,,-119.7999882E-6,16.0000008E-3,
,,,-119.6999947E-6,-1.3399999,,,,,-119.6999947E-6,16.0000008E-3,
,,,-119.5999939E-6,-1.3399999,,,,,-119.5999939E-6,12.0000001E-3,
,,,-119.4999932E-6,-1.3399999,,,,,-119.4999932E-6,12.0000001E-3,
,,,-119.3999924E-6,-1.3399999,,,,,-119.3999924E-6,12.0000001E-3,
,,,-119.2999916E-6,-1.3399999,,,,,-119.2999916E-6,8.000000380E-3,
,,,-119.1999909E-6,-1.3399999,,,,,-119.1999909E-6,8.000000380E-3,
,,,-119.0999901E-6,-1.3399999,,,,,-119.0999901E-6,8.000000380E-3,
,,,-118.9999894E-6,-1.3399999,,,,,-118.9999894E-6,4.00000019E-3,
,,,-118.8999886E-6,-1.3399999,,,,,-118.8999886E-6,4.00000019E-3,
,,,-118.7999878E-6,-1.3600000,,,,,-118.7999878E-6,4.00000019E-3,
,,,-118.6999943E-6,-1.3600000,,,,,-118.6999943E-6,0.0,
,,,-118.5999936E-6,-1.3399999,,,,,-118.5999936E-6,0.0,
,,,-118.4999928E-6,-1.3600000,,,,,-118.4999928E-6,-4.00000019E-3,
,,,-118.3999921E-6,-1.3600000,,,,,-118.3999921E-6,0.0,
,,,-118.2999913E-6,-1.3600000,,,,,-118.2999913E-6,-4.00000019E-3,
,,,-118.1999905E-6,-1.3600000,,,,,-118.1999905E-6,-4.00000019E-3,
,,,-118.0999898E-6,-1.3800000,,,,,-118.0999898E-6,-4.00000019E-3,
,,,-117.9999890E-6,-1.3600000,,,,,-117.9999890E-6,-8.000000380E-3,
,,,-117.8999883E-6,-1.3800000,,,,,-117.8999883E-6,-8.000000380E-3,
,,,-117.7999948E-6,-1.3800000,,,,,-117.7999948E-6,-12.0000001E-3,
,,,-117.6999940E-6,-1.3800000,,,,,-117.6999940E-6,-12.0000001E-3,
,,,-117.5999932E-6,-1.3600000,,,,,-117.5999932E-6,-12.0000001E-3,
,,,-117.4999925E-6,-1.3600000,,,,,-117.4999925E-6,-12.0000001E-3,
,,,-117.3999917E-6,-1.3800000,,,,,-117.3999917E-6,-12.0000001E-3,
,,,-117.2999910E-6,-1.3800000,,,,,-117.2999910E-6,-16.0000008E-3,
,,,-117.1999902E-6,-1.3600000,,,,,-117.1999902E-6,-16.0000008E-3,
,,,-117.0999894E-6,-1.3800000,,,,,-117.0999894E-6,-16.0000008E-3,
,,,-116.9999887E-6,-1.3800000,,,,,-116.9999887E-6,-20.0000014E-3,
,,,-116.8999879E-6,-1.3800000,,,,,-116.8999879E-6,-20.0000014E-3,
,,,-116.7999944E-6,-1.3600000,,,,,-116.7999944E-6,-20.0000014E-3,
,,,-116.6999937E-6,-1.3800000,,,,,-116.6999937E-6,-24.00000021E-3,
,,,-116.5999929E-6,-1.3800000,,,,,-116.5999929E-6,-24.00000021E-3,
,,,-116.4999921E-6,-1.3800000,,,,,-116.4999921E-6,-24.00000021E-3,
,,,-116.3999914E-6,-1.3800000,,,,,-116.3999914E-6,-24.00000021E-3,
,,,-116.2999906E-6,-1.3800000,,,,,-116.2999906E-6,-28.00000086E-3,
,,,-116.1999899E-6,-1.3600000,,,,,-116.1999899E-6,-32.00000152E-3,
,,,-116.0999891E-6,-1.3600000,,,,,-116.0999891E-6,-32.00000152E-3,
,,,-115.9999883E-6,-1.3600000,,,,,-115.9999883E-6,-32.00000152E-3,
,,,-115.8999949E-6,-1.3800000,,,,,-115.8999949E-6,-32.00000152E-3,
,,,-115.7999941E-6,-1.3800000,,,,,-115.7999941E-6,-36.00000218E-3,
,,,-115.6999933E-6,-1.3800000,,,,,-115.6999933E-6,-36.00000218E-3,
,,,-115.5999926E-6,-1.3800000,,,,,-115.5999926E-6,-36.00000218E-3,
,,,-115.4999918E-6,-1.3800000,,,,,-115.4999918E-6,-40.00000283E-3,
,,,-115.3999910E-6,-1.3600000,,,,,-115.3999910E-6,-40.00000283E-3,
,,,-115.2999903E-6,-1.3800000,,,,,-115.2999903E-6,-40.00000283E-3,
,,,-115.1999895E-6,-1.3800000,,,,,-115.1999895E-6,-44.00000349E-3,
,,,-115.0999888E-6,-1.3800000,,,,,-115.0999888E-6,-44.00000349E-3,
,,,-114.9999880E-6,-1.3800000,,,,,-114.9999880E-6,-44.00000349E-3,
,,,-114.8999945E-6,-1.3800000,,,,,-114.8999945E-6,-44.00000349E-3,
,,,-114.7999938E-6,-1.3800000,,,,,-114.7999938E-6,-48.00000042E-3,
,,,-114.6999930E-6,-1.3800000,,,,,-114.6999930E-6,-48.00000042E-3,
,,,-114.5999922E-6,-1.3600000,,,,,-114.5999922E-6,-52.00000107E-3,
,,,-114.4999915E-6,-1.3800000,,,,,-114.4999915E-6,-52.00000107E-3,
,,,-114.3999907E-6,-1.3800000,,,,,-114.3999907E-6,-52.00000107E-3,
,,,-114.2999899E-6,-1.3600000,,,,,-114.2999899E-6,-52.00000107E-3,
,,,-114.1999892E-6,-1.3600000,,,,,-114.1999892E-6,-52.00000107E-3,
,,,-114.0999884E-6,-1.3600000,,,,,-114.0999884E-6,-56.000001729E-3,
,,,-113.9999877E-6,-1.3600000,,,,,-113.9999877E-6,-56.000001729E-3,
,,,-113.8999942E-6,-1.3800000,,,,,-113.8999942E-6,-56.000001729E-3,
,,,-113.7999934E-6,-1.3600000,,,,,-113.7999934E-6,-60.000002384E-3,
,,,-113.6999927E-6,-1.3600000,,,,,-113.6999927E-6,-60.000002384E-3,
,,,-113.5999919E-6,-1.3600000,,,,,-113.5999919E-6,-64.000003040E-3,
,,,-113.4999911E-6,-1.3600000,,,,,-113.4999911E-6,-60.000002384E-3,
,,,-113.3999904E-6,-1.3600000,,,,,-113.3999904E-6,-64.000003040E-3,
,,,-113.2999896E-6,-1.3600000,,,,,-113.2999896E-6,-68.000003695E-3,
,,,-113.1999888E-6,-1.3399999,,,,,-113.1999888E-6,-68.000003695E-3,
,,,-113.0999881E-6,-1.3399999,,,,,-113.0999881E-6,-68.000003695E-3,
,,,-112.9999946E-6,-1.3399999,,,,,-112.9999946E-6,-68.000003695E-3,
,,,-112.8999938E-6,-1.3399999,,,,,-112.8999938E-6,-68.000003695E-3,
,,,-112.7999931E-6,-1.3399999,,,,,-112.7999931E-6,-72.000004351E-3,
,,,-112.6999923E-6,-1.3399999,,,,,-112.6999923E-6,-68.000003695E-3,
,,,-112.5999916E-6,-1.3399999,,,,,-112.5999916E-6,-72.000004351E-3,
,,,-112.4999908E-6,-1.3399999,,,,,-112.4999908E-6,-72.000004351E-3,
,,,-112.3999900E-6,-1.3199999,,,,,-112.3999900E-6,-76.000005007E-3,
,,,-112.2999893E-6,-1.3399999,,,,,-112.2999893E-6,-76.000005007E-3,
,,,-112.1999885E-6,-1.3199999,,,,,-112.1999885E-6,-76.000005007E-3,
,,,-112.0999877E-6,-1.3399999,,,,,-112.0999877E-6,-76.000005007E-3,
,,,-111.9999943E-6,-1.3199999,,,,,-111.9999943E-6,-80.000005662E-3,
,,,-111.8999935E-6,-1.3199999,,,,,-111.8999935E-6,-80.000005662E-3,
,,,-111.7999927E-6,-1.3199999,,,,,-111.7999927E-6,-80.000005662E-3,
,,,-111.6999920E-6,-1.3199999,,,,,-111.6999920E-6,-80.000005662E-3,
,,,-111.5999912E-6,-1.3199999,,,,,-111.5999912E-6,-84.000006318E-3,
,,,-111.4999905E-6,-1.3000000,,,,,-111.4999905E-6,-84.000006318E-3,
,,,-111.3999897E-6,-1.3000000,,,,,-111.3999897E-6,-88.000006974E-3,
,,,-111.2999889E-6,-1.3000000,,,,,-111.2999889E-6,-88.000006974E-3,
,,,-111.1999882E-6,-1.3000000,,,,,-111.1999882E-6,-88.000006974E-3,
,,,-111.0999947E-6,-1.3000000,,,,,-111.0999947E-6,-92.000007629E-3,
,,,-110.9999939E-6,-1.2800000,,,,,-110.9999939E-6,-92.000007629E-3,
,,,-110.8999932E-6,-1.3000000,,,,,-110.8999932E-6,-92.000007629E-3,
,,,-110.7999924E-6,-1.2800000,,,,,-110.7999924E-6,-92.000007629E-3,
,,,-110.6999916E-6,-1.2800000,,,,,-110.6999916E-6,-96.000000834E-3,
,,,-110.5999909E-6,-1.2800000,,,,,-110.5999909E-6,-96.000000834E-3,
,,,-110.4999901E-6,-1.2800000,,,,,-110.4999901E-6,-96.000000834E-3,
,,,-110.3999894E-6,-1.2800000,,,,,-110.3999894E-6,-100.0000015E-3,
,,,-110.2999886E-6,-1.2800000,,,,,-110.2999886E-6,-96.000000834E-3,
,,,-110.1999878E-6,-1.2600000,,,,,-110.1999878E-6,-100.0000015E-3,
,,,-110.0999943E-6,-1.2600000,,,,,-110.0999943E-6,-100.0000015E-3,
,,,-109.9999936E-6,-1.2400000,,,,,-109.9999936E-6,-104.0000021E-3,
,,,-109.8999928E-6,-1.2400000,,,,,-109.8999928E-6,-104.0000021E-3,
,,,-109.7999921E-6,-1.2400000,,,,,-109.7999921E-6,-104.0000021E-3,
,,,-109.6999913E-6,-1.2400000,,,,,-109.6999913E-6,-104.0000021E-3,
,,,-109.5999905E-6,-1.2400000,,,,,-109.5999905E-6,-108.0000028E-3,
,,,-109.4999898E-6,-1.2200000,,,,,-109.4999898E-6,-108.0000028E-3,
,,,-109.3999890E-6,-1.2200000,,,,,-109.3999890E-6,-108.0000028E-3,
,,,-109.2999883E-6,-1.2200000,,,,,-109.2999883E-6,-108.0000028E-3,
,,,-109.1999948E-6,-1.2200000,,,,,-109.1999948E-6,-108.0000028E-3,
,,,-109.0999940E-6,-1.2200000,,,,,-109.0999940E-6,-112.0000035E-3,
,,,-108.9999932E-6,-1.2200000,,,,,-108.9999932E-6,-112.0000035E-3,
,,,-108.8999925E-6,-1.1999999,,,,,-108.8999925E-6,-112.0000035E-3,
,,,-108.7999917E-6,-1.2200000,,,,,-108.7999917E-6,-112.0000035E-3,
,,,-108.6999910E-6,-1.1999999,,,,,-108.6999910E-6,-116.0000041E-3,
,,,-108.5999902E-6,-1.1999999,,,,,-108.5999902E-6,-116.0000041E-3,
,,,-108.4999894E-6,-1.1799999,,,,,-108.4999894E-6,-116.0000041E-3,
,,,-108.3999887E-6,-1.1799999,,,,,-108.3999887E-6,-120.0000048E-3,
,,,-108.2999879E-6,-1.1799999,,,,,-108.2999879E-6,-120.0000048E-3,
,,,-108.1999944E-6,-1.1799999,,,,,-108.1999944E-6,-120.0000048E-3,
,,,-108.0999937E-6,-1.1600000,,,,,-108.0999937E-6,-120.0000048E-3,
,,,-107.9999929E-6,-1.1600000,,,,,-107.9999929E-6,-120.0000048E-3,
,,,-107.8999921E-6,-1.1600000,,,,,-107.8999921E-6,-120.0000048E-3,
,,,-107.7999914E-6,-1.1600000,,,,,-107.7999914E-6,-120.0000048E-3,
,,,-107.6999906E-6,-1.1400000,,,,,-107.6999906E-6,-124.0000054E-3,
,,,-107.5999899E-6,-1.1400000,,,,,-107.5999899E-6,-124.0000054E-3,
,,,-107.4999891E-6,-1.1400000,,,,,-107.4999891E-6,-124.0000054E-3,
,,,-107.3999883E-6,-1.1400000,,,,,-107.3999883E-6,-124.0000054E-3,
,,,-107.2999876E-6,-1.1200000,,,,,-107.2999876E-6,-128.0000061E-3,
,,,-107.1999941E-6,-1.1200000,,,,,-107.1999941E-6,-128.0000061E-3,
,,,-107.0999933E-6,-1.1200000,,,,,-107.0999933E-6,-128.0000061E-3,
,,,-106.9999926E-6,-1.1200000,,,,,-106.9999926E-6,-131.9999993E-3,
,,,-106.8999918E-6,-1.1000000,,,,,-106.8999918E-6,-128.0000061E-3,
,,,-106.7999910E-6,-1.1000000,,,,,-106.7999910E-6,-131.9999993E-3,
,,,-106.6999903E-6,-1.1000000,,,,,-106.6999903E-6,-131.9999993E-3,
,,,-106.5999895E-6,-1.0799999,,,,,-106.5999895E-6,-131.9999993E-3,
,,,-106.4999888E-6,-1.0799999,,,,,-106.4999888E-6,-136.0000074E-3,
,,,-106.3999880E-6,-1.0799999,,,,,-106.3999880E-6,-136.0000074E-3,
,,,-106.2999945E-6,-1.0599999,,,,,-106.2999945E-6,-136.0000074E-3,
,,,-106.1999938E-6,-1.0599999,,,,,-106.1999938E-6,-136.0000074E-3,
,,,-106.0999930E-6,-1.0599999,,,,,-106.0999930E-6,-140.0000006E-3,
,,,-105.9999922E-6,-1.0599999,,,,,-105.9999922E-6,-140.0000006E-3,
,,,-105.8999915E-6,-1.0400000,,,,,-105.8999915E-6,-140.0000006E-3,
,,,-105.7999907E-6,-1.0400000,,,,,-105.7999907E-6,-140.0000006E-3,
,,,-105.6999899E-6,-1.0400000,,,,,-105.6999899E-6,-140.0000006E-3,
,,,-105.5999892E-6,-1.0200000,,,,,-105.5999892E-6,-144.0000087E-3,
,,,-105.4999884E-6,-1.0200000,,,,,-105.4999884E-6,-144.0000087E-3,
,,,-105.3999877E-6,-1.000000,,,,,-105.3999877E-6,-144.0000087E-3,
,,,-105.2999942E-6,-1.000000,,,,,-105.2999942E-6,-144.0000087E-3,
,,,-105.1999934E-6,-1.000000,,,,,-105.1999934E-6,-148.0000019E-3,
,,,-105.0999927E-6,-979.999959469E-3,,,,,-105.0999927E-6,-144.0000087E-3,
,,,-104.9999919E-6,-979.999959469E-3,,,,,-104.9999919E-6,-144.0000087E-3,
,,,-104.8999911E-6,-979.999959469E-3,,,,,-104.8999911E-6,-148.0000019E-3,
,,,-104.7999904E-6,-979.999959469E-3,,,,,-104.7999904E-6,-148.0000019E-3,
,,,-104.6999896E-6,-959.999978542E-3,,,,,-104.6999896E-6,-144.0000087E-3,
,,,-104.5999888E-6,-959.999978542E-3,,,,,-104.5999888E-6,-148.0000019E-3,
,,,-104.4999881E-6,-939.999997616E-3,,,,,-104.4999881E-6,-152.00001001E-3,
,,,-104.3999946E-6,-939.999997616E-3,,,,,-104.3999946E-6,-152.00001001E-3,
,,,-104.2999938E-6,-939.999997616E-3,,,,,-104.2999938E-6,-152.00001001E-3,
,,,-104.1999931E-6,-939.999997616E-3,,,,,-104.1999931E-6,-152.00001001E-3,
,,,-104.0999923E-6,-919.999957085E-3,,,,,-104.0999923E-6,-152.00001001E-3,
,,,-103.9999916E-6,-919.999957085E-3,,,,,-103.9999916E-6,-156.00000322E-3,
,,,-103.8999908E-6,-899.999976158E-3,,,,,-103.8999908E-6,-156.00000322E-3,
,,,-103.7999900E-6,-899.999976158E-3,,,,,-103.7999900E-6,-152.00001001E-3,
,,,-103.6999893E-6,-899.999976158E-3,,,,,-103.6999893E-6,-156.00000322E-3,
,,,-103.5999885E-6,-879.999995232E-3,,,,,-103.5999885E-6,-156.00000322E-3,
,,,-103.4999877E-6,-879.999995232E-3,,,,,-103.4999877E-6,-156.00000322E-3,
,,,-103.3999943E-6,-859.999954700E-3,,,,,-103.3999943E-6,-156.00000322E-3,
,,,-103.2999935E-6,-859.999954700E-3,,,,,-103.2999935E-6,-160.00001132E-3,
,,,-103.1999927E-6,-859.999954700E-3,,,,,-103.1999927E-6,-160.00001132E-3,
,,,-103.0999920E-6,-859.999954700E-3,,,,,-103.0999920E-6,-160.00001132E-3,
,,,-102.9999912E-6,-839.999973774E-3,,,,,-102.9999912E-6,-160.00001132E-3,
,,,-102.8999905E-6,-839.999973774E-3,,,,,-102.8999905E-6,-164.00000453E-3,
,,,-102.7999897E-6,-819.999992847E-3,,,,,-102.7999897E-6,-160.00001132E-3,
,,,-102.6999889E-6,-819.999992847E-3,,,,,-102.6999889E-6,-160.00001132E-3,
,,,-102.5999882E-6,-819.999992847E-3,,,,,-102.5999882E-6,-164.00000453E-3,
,,,-102.4999947E-6,-799.999952316E-3,,,,,-102.4999947E-6,-164.00000453E-3,
,,,-102.3999939E-6,-799.999952316E-3,,,,,-102.3999939E-6,-164.00000453E-3,
,,,-102.2999932E-6,-779.999971390E-3,,,,,-102.2999932E-6,-164.00000453E-3,
,,,-102.1999924E-6,-779.999971390E-3,,,,,-102.1999924E-6,-164.00000453E-3,
,,,-102.0999916E-6,-759.999990463E-3,,,,,-102.0999916E-6,-168.00001264E-3,
,,,-101.9999909E-6,-759.999990463E-3,,,,,-101.9999909E-6,-164.00000453E-3,
,,,-101.8999901E-6,-759.999990463E-3,,,,,-101.8999901E-6,-168.00001264E-3,
,,,-101.7999894E-6,-759.999990463E-3,,,,,-101.7999894E-6,-168.00001264E-3,
,,,-101.6999886E-6,-740.000009537E-3,,,,,-101.6999886E-6,-168.00001264E-3,
,,,-101.5999878E-6,-740.000009537E-3,,,,,-101.5999878E-6,-168.00001264E-3,
,,,-101.4999943E-6,-719.999969006E-3,,,,,-101.4999943E-6,-168.00001264E-3,
,,,-101.3999936E-6,-719.999969006E-3,,,,,-101.3999936E-6,-168.00001264E-3,
,,,-101.2999928E-6,-699.999988079E-3,,,,,-101.2999928E-6,-172.00000584E-3,
,,,-101.1999921E-6,-699.999988079E-3,,,,,-101.1999921E-6,-172.00000584E-3,
,,,-101.0999913E-6,-680.000007153E-3,,,,,-101.0999913E-6,-168.00001264E-3,
,,,-100.9999905E-6,-680.000007153E-3,,,,,-100.9999905E-6,-172.00000584E-3,
,,,-100.8999898E-6,-680.000007153E-3,,,,,-100.8999898E-6,-172.00000584E-3,
,,,-100.7999890E-6,-680.000007153E-3,,,,,-100.7999890E-6,-172.00000584E-3,
,,,-100.6999883E-6,-659.999966621E-3,,,,,-100.6999883E-6,-172.00000584E-3,
,,,-100.5999875E-6,-659.999966621E-3,,,,,-100.5999875E-6,-172.00000584E-3,
,,,-100.4999940E-6,-639.999985695E-3,,,,,-100.4999940E-6,-172.00000584E-3,
,,,-100.3999932E-6,-639.999985695E-3,,,,,-100.3999932E-6,-172.00000584E-3,
,,,-100.2999925E-6,-620.000004768E-3,,,,,-100.2999925E-6,-172.00000584E-3,
,,,-100.1999917E-6,-620.000004768E-3,,,,,-100.1999917E-6,-176.00001395E-3,
,,,-100.0999910E-6,-599.999964237E-3,,,,,-100.0999910E-6,-172.00000584E-3,
,,,-99.999990198E-6,-599.999964237E-3,,,,,-99.999990198E-6,-176.00001395E-3,
,,,-99.899989436E-6,-599.999964237E-3,,,,,-99.899989436E-6,-172.00000584E-3,
,,,-99.799988675E-6,-579.999983311E-3,,,,,-99.799988675E-6,-176.00001395E-3,
,,,-99.699987913E-6,-579.999983311E-3,,,,,-99.699987913E-6,-176.00001395E-3,
,,,-99.599994428E-6,-560.000002384E-3,,,,,-99.599994428E-6,-176.00001395E-3,
,,,-99.499993667E-6,-560.000002384E-3,,,,,-99.499993667E-6,-176.00001395E-3,
,,,-99.399992905E-6,-539.999961853E-3,,,,,-99.399992905E-6,-176.00001395E-3,
,,,-99.299992144E-6,-539.999961853E-3,,,,,-99.299992144E-6,-176.00001395E-3,
,,,-99.199991382E-6,-519.999980927E-3,,,,,-99.199991382E-6,-176.00001395E-3,
,,,-99.099990621E-6,-519.999980927E-3,,,,,-99.099990621E-6,-176.00001395E-3,
,,,-98.999989859E-6,-500.000000000E-3,,,,,-98.999989859E-6,-176.00001395E-3,
,,,-98.899989098E-6,-500.000000000E-3,,,,,-98.899989098E-6,-176.00001395E-3,
,,,-98.799988336E-6,-500.000000000E-3,,,,,-98.799988336E-6,-176.00001395E-3,
,,,-98.699987575E-6,-479.999989271E-3,,,,,-98.699987575E-6,-176.00001395E-3,
,,,-98.599994089E-6,-479.999989271E-3,,,,,-98.599994089E-6,-176.00001395E-3,
,,,-98.499993328E-6,-459.999978542E-3,,,,,-98.499993328E-6,-176.00001395E-3,
,,,-98.399992567E-6,-459.999978542E-3,,,,,-98.399992567E-6,-176.00001395E-3,
,,,-98.299991805E-6,-439.999997616E-3,,,,,-98.299991805E-6,-180.00000715E-3,
,,,-98.199991044E-6,-439.999997616E-3,,,,,-98.199991044E-6,-176.00001395E-3,
,,,-98.099990282E-6,-419.999986887E-3,,,,,-98.099990282E-6,-180.00000715E-3,
,,,-97.999989521E-6,-419.999986887E-3,,,,,-97.999989521E-6,-180.00000715E-3,
,,,-97.899988759E-6,-419.999986887E-3,,,,,-97.899988759E-6,-180.00000715E-3,
,,,-97.799987998E-6,-399.99997616E-3,,,,,-97.799987998E-6,-180.00000715E-3,
,,,-97.699994512E-6,-399.99997616E-3,,,,,-97.699994512E-6,-176.00001395E-3,
,,,-97.599993751E-6,-379.99999523E-3,,,,,-97.599993751E-6,-180.00000715E-3,
,,,-97.499992989E-6,-379.99999523E-3,,,,,-97.499992989E-6,-180.00000715E-3,
,,,-97.399992228E-6,-359.99998450E-3,,,,,-97.399992228E-6,-180.00000715E-3,
,,,-97.299991467E-6,-359.99998450E-3,,,,,-97.299991467E-6,-180.00000715E-3,
,,,-97.199990705E-6,-340.00000358E-3,,,,,-97.199990705E-6,-180.00000715E-3,
,,,-97.099989944E-6,-340.00000358E-3,,,,,-97.099989944E-6,-180.00000715E-3,
