primer_informe/clase4/barrido_rl_pasabajos/kHz/60.csv

Record Length,2500,Points,-24.99999937E-6,-219.99999881E-3,,Record Length,2500,Points,-24.99999937E-6,680.000007153E-3,
Sample Interval,19.9999999E-9,s,-24.97999958E-6,-239.99999464E-3,,Sample Interval,19.9999999E-9,s,-24.97999958E-6,680.000007153E-3,
Trigger Point,1.2500000E3,Samples,-24.95999979E-6,-239.99999464E-3,,Trigger Point,1.2500000E3,Samples,-24.95999979E-6,680.000007153E-3,
,,,-24.94000000E-6,-239.99999464E-3,,,,,-24.94000000E-6,680.000007153E-3,
,,,-24.92000021E-6,-259.99999046E-3,,,,,-24.92000021E-6,659.999966621E-3,
,,,-24.89999861E-6,-280.00000119E-3,,,,,-24.89999861E-6,659.999966621E-3,
Source,CH1,,-24.87999882E-6,-299.99998212E-3,,Source,CH2,,-24.87999882E-6,680.000007153E-3,
Vertical Units,Volts,,-24.85999903E-6,-299.99998212E-3,,Vertical Units,Volts,,-24.85999903E-6,659.999966621E-3,
Vertical Scale,499.999988824E-3,,-24.83999924E-6,-299.99998212E-3,,Vertical Scale,499.999988824E-3,,-24.83999924E-6,659.999966621E-3,
Vertical Offset,0,,-24.81999945E-6,-319.99999285E-3,,Vertical Offset,0,,-24.81999945E-6,659.999966621E-3,
Horizontal Units,s,,-24.79999966E-6,-340.00000358E-3,,Horizontal Units,s,,-24.79999966E-6,639.999985695E-3,
Horizontal Scale,4.99999997E-6,,-24.77999988E-6,-340.00000358E-3,,Horizontal Scale,4.99999997E-6,,-24.77999988E-6,659.999966621E-3,
Pt Fmt,Y,,-24.76000009E-6,-359.99998450E-3,,Pt Fmt,Y,,-24.76000009E-6,639.999985695E-3,
Yzero,0.0,,-24.73999848E-6,-359.99998450E-3,,Yzero,0.0,,-24.73999848E-6,639.999985695E-3,
Probe Atten,1.000000,,-24.71999869E-6,-379.99999523E-3,,Probe Atten,1.000000,,-24.71999869E-6,639.999985695E-3,
,,,-24.69999890E-6,-379.99999523E-3,,,,,-24.69999890E-6,620.000004768E-3,
Note,TBS 1052B-EDU - 02:16:23 p.m.   12/09/2022,,-24.67999911E-6,-399.99997616E-3,,Note,TBS 1052B-EDU - 02:16:23 p.m.   12/09/2022,,-24.67999911E-6,620.000004768E-3,
,,,-24.65999933E-6,-399.99997616E-3,,,,,-24.65999933E-6,620.000004768E-3,
,,,-24.63999954E-6,-419.999986887E-3,,,,,-24.63999954E-6,620.000004768E-3,
,,,-24.61999975E-6,-419.999986887E-3,,,,,-24.61999975E-6,620.000004768E-3,
,,,-24.59999996E-6,-439.999997616E-3,,,,,-24.59999996E-6,599.999964237E-3,
,,,-24.58000017E-6,-439.999997616E-3,,,,,-24.58000017E-6,599.999964237E-3,
,,,-24.55999856E-6,-459.999978542E-3,,,,,-24.55999856E-6,599.999964237E-3,
,,,-24.53999878E-6,-479.999989271E-3,,,,,-24.53999878E-6,579.999983311E-3,
,,,-24.51999899E-6,-479.999989271E-3,,,,,-24.51999899E-6,599.999964237E-3,
,,,-24.49999920E-6,-500.000000000E-3,,,,,-24.49999920E-6,599.999964237E-3,
,,,-24.47999941E-6,-500.000000000E-3,,,,,-24.47999941E-6,579.999983311E-3,
,,,-24.45999962E-6,-519.999980927E-3,,,,,-24.45999962E-6,579.999983311E-3,
,,,-24.43999983E-6,-500.000000000E-3,,,,,-24.43999983E-6,579.999983311E-3,
,,,-24.42000005E-6,-519.999980927E-3,,,,,-24.42000005E-6,579.999983311E-3,
,,,-24.40000026E-6,-539.999961853E-3,,,,,-24.40000026E-6,560.000002384E-3,
,,,-24.37999865E-6,-539.999961853E-3,,,,,-24.37999865E-6,560.000002384E-3,
,,,-24.35999886E-6,-560.000002384E-3,,,,,-24.35999886E-6,560.000002384E-3,
,,,-24.33999907E-6,-560.000002384E-3,,,,,-24.33999907E-6,539.999961853E-3,
,,,-24.31999928E-6,-579.999983311E-3,,,,,-24.31999928E-6,539.999961853E-3,
,,,-24.29999950E-6,-579.999983311E-3,,,,,-24.29999950E-6,539.999961853E-3,
,,,-24.27999971E-6,-579.999983311E-3,,,,,-24.27999971E-6,519.999980927E-3,
,,,-24.25999992E-6,-599.999964237E-3,,,,,-24.25999992E-6,539.999961853E-3,
,,,-24.24000013E-6,-620.000004768E-3,,,,,-24.24000013E-6,519.999980927E-3,
,,,-24.21999852E-6,-620.000004768E-3,,,,,-24.21999852E-6,519.999980927E-3,
,,,-24.19999873E-6,-639.999985695E-3,,,,,-24.19999873E-6,519.999980927E-3,
,,,-24.17999895E-6,-639.999985695E-3,,,,,-24.17999895E-6,519.999980927E-3,
,,,-24.15999916E-6,-659.999966621E-3,,,,,-24.15999916E-6,519.999980927E-3,
,,,-24.13999937E-6,-659.999966621E-3,,,,,-24.13999937E-6,500.000000000E-3,
,,,-24.11999958E-6,-680.000007153E-3,,,,,-24.11999958E-6,500.000000000E-3,
,,,-24.09999979E-6,-680.000007153E-3,,,,,-24.09999979E-6,500.000000000E-3,
,,,-24.08000000E-6,-699.999988079E-3,,,,,-24.08000000E-6,479.999989271E-3,
,,,-24.06000021E-6,-699.999988079E-3,,,,,-24.06000021E-6,500.000000000E-3,
,,,-24.03999861E-6,-699.999988079E-3,,,,,-24.03999861E-6,479.999989271E-3,
,,,-24.01999882E-6,-719.999969006E-3,,,,,-24.01999882E-6,459.999978542E-3,
,,,-23.99999903E-6,-740.000009537E-3,,,,,-23.99999903E-6,459.999978542E-3,
,,,-23.97999924E-6,-719.999969006E-3,,,,,-23.97999924E-6,459.999978542E-3,
,,,-23.95999945E-6,-759.999990463E-3,,,,,-23.95999945E-6,459.999978542E-3,
,,,-23.93999966E-6,-759.999990463E-3,,,,,-23.93999966E-6,439.999997616E-3,
,,,-23.91999988E-6,-759.999990463E-3,,,,,-23.91999988E-6,439.999997616E-3,
,,,-23.90000009E-6,-779.999971390E-3,,,,,-23.90000009E-6,439.999997616E-3,
,,,-23.87999848E-6,-779.999971390E-3,,,,,-23.87999848E-6,439.999997616E-3,
,,,-23.85999869E-6,-799.999952316E-3,,,,,-23.85999869E-6,419.999986887E-3,
,,,-23.83999890E-6,-799.999952316E-3,,,,,-23.83999890E-6,419.999986887E-3,
,,,-23.81999911E-6,-799.999952316E-3,,,,,-23.81999911E-6,419.999986887E-3,
,,,-23.79999933E-6,-819.999992847E-3,,,,,-23.79999933E-6,419.999986887E-3,
,,,-23.77999954E-6,-819.999992847E-3,,,,,-23.77999954E-6,399.99997616E-3,
,,,-23.75999975E-6,-839.999973774E-3,,,,,-23.75999975E-6,399.99997616E-3,
,,,-23.73999996E-6,-839.999973774E-3,,,,,-23.73999996E-6,399.99997616E-3,
,,,-23.72000017E-6,-859.999954700E-3,,,,,-23.72000017E-6,399.99997616E-3,
,,,-23.69999856E-6,-859.999954700E-3,,,,,-23.69999856E-6,379.99999523E-3,
,,,-23.67999878E-6,-879.999995232E-3,,,,,-23.67999878E-6,379.99999523E-3,
,,,-23.65999899E-6,-879.999995232E-3,,,,,-23.65999899E-6,379.99999523E-3,
,,,-23.63999920E-6,-879.999995232E-3,,,,,-23.63999920E-6,379.99999523E-3,
,,,-23.61999941E-6,-899.999976158E-3,,,,,-23.61999941E-6,359.99998450E-3,
,,,-23.59999962E-6,-899.999976158E-3,,,,,-23.59999962E-6,359.99998450E-3,
,,,-23.57999983E-6,-899.999976158E-3,,,,,-23.57999983E-6,359.99998450E-3,
,,,-23.56000005E-6,-919.999957085E-3,,,,,-23.56000005E-6,340.00000358E-3,
,,,-23.54000026E-6,-919.999957085E-3,,,,,-23.54000026E-6,340.00000358E-3,
,,,-23.51999865E-6,-939.999997616E-3,,,,,-23.51999865E-6,340.00000358E-3,
,,,-23.49999886E-6,-939.999997616E-3,,,,,-23.49999886E-6,340.00000358E-3,
,,,-23.47999907E-6,-959.999978542E-3,,,,,-23.47999907E-6,319.99999285E-3,
,,,-23.45999928E-6,-959.999978542E-3,,,,,-23.45999928E-6,319.99999285E-3,
,,,-23.43999950E-6,-959.999978542E-3,,,,,-23.43999950E-6,319.99999285E-3,
,,,-23.41999971E-6,-979.999959469E-3,,,,,-23.41999971E-6,319.99999285E-3,
,,,-23.39999992E-6,-979.999959469E-3,,,,,-23.39999992E-6,299.99998212E-3,
,,,-23.38000013E-6,-1.000000,,,,,-23.38000013E-6,299.99998212E-3,
,,,-23.35999852E-6,-1.000000,,,,,-23.35999852E-6,299.99998212E-3,
,,,-23.33999873E-6,-1.000000,,,,,-23.33999873E-6,280.00000119E-3,
,,,-23.31999895E-6,-1.0200000,,,,,-23.31999895E-6,280.00000119E-3,
,,,-23.29999916E-6,-1.0200000,,,,,-23.29999916E-6,280.00000119E-3,
,,,-23.27999937E-6,-1.0200000,,,,,-23.27999937E-6,259.99999046E-3,
,,,-23.25999958E-6,-1.0400000,,,,,-23.25999958E-6,259.99999046E-3,
,,,-23.23999979E-6,-1.0400000,,,,,-23.23999979E-6,259.99999046E-3,
,,,-23.22000000E-6,-1.0400000,,,,,-23.22000000E-6,239.99999464E-3,
,,,-23.20000021E-6,-1.0599999,,,,,-23.20000021E-6,239.99999464E-3,
,,,-23.17999861E-6,-1.0799999,,,,,-23.17999861E-6,239.99999464E-3,
,,,-23.15999882E-6,-1.0599999,,,,,-23.15999882E-6,239.99999464E-3,
,,,-23.13999903E-6,-1.0799999,,,,,-23.13999903E-6,239.99999464E-3,
,,,-23.11999924E-6,-1.0799999,,,,,-23.11999924E-6,219.99999881E-3,
,,,-23.09999945E-6,-1.1000000,,,,,-23.09999945E-6,219.99999881E-3,
,,,-23.07999966E-6,-1.1000000,,,,,-23.07999966E-6,219.99999881E-3,
,,,-23.05999988E-6,-1.1000000,,,,,-23.05999988E-6,199.99998808E-3,
,,,-23.04000009E-6,-1.1000000,,,,,-23.04000009E-6,199.99998808E-3,
,,,-23.01999848E-6,-1.1200000,,,,,-23.01999848E-6,199.99998808E-3,
,,,-22.99999869E-6,-1.1200000,,,,,-22.99999869E-6,179.99999225E-3,
,,,-22.97999890E-6,-1.1400000,,,,,-22.97999890E-6,179.99999225E-3,
,,,-22.95999911E-6,-1.1400000,,,,,-22.95999911E-6,179.99999225E-3,
,,,-22.93999933E-6,-1.1400000,,,,,-22.93999933E-6,179.99999225E-3,
,,,-22.91999954E-6,-1.1400000,,,,,-22.91999954E-6,159.99999642E-3,
,,,-22.89999975E-6,-1.1400000,,,,,-22.89999975E-6,159.99999642E-3,
,,,-22.87999996E-6,-1.1600000,,,,,-22.87999996E-6,159.99999642E-3,
,,,-22.86000017E-6,-1.1600000,,,,,-22.86000017E-6,140.0000006E-3,
,,,-22.83999856E-6,-1.1799999,,,,,-22.83999856E-6,140.0000006E-3,
,,,-22.81999878E-6,-1.1799999,,,,,-22.81999878E-6,140.0000006E-3,
,,,-22.79999899E-6,-1.1799999,,,,,-22.79999899E-6,119.9999973E-3,
,,,-22.77999920E-6,-1.1999999,,,,,-22.77999920E-6,119.9999973E-3,
,,,-22.75999941E-6,-1.1799999,,,,,-22.75999941E-6,119.9999973E-3,
,,,-22.73999962E-6,-1.1999999,,,,,-22.73999962E-6,99.999994040E-3,
,,,-22.71999983E-6,-1.1999999,,,,,-22.71999983E-6,99.999994040E-3,
,,,-22.70000005E-6,-1.2200000,,,,,-22.70000005E-6,99.999994040E-3,
,,,-22.68000026E-6,-1.2200000,,,,,-22.68000026E-6,79.999998212E-3,
,,,-22.65999865E-6,-1.2200000,,,,,-22.65999865E-6,79.999998212E-3,
,,,-22.63999886E-6,-1.2400000,,,,,-22.63999886E-6,79.999998212E-3,
,,,-22.61999907E-6,-1.2400000,,,,,-22.61999907E-6,79.999998212E-3,
,,,-22.59999928E-6,-1.2600000,,,,,-22.59999928E-6,59.999998659E-3,
,,,-22.57999950E-6,-1.2400000,,,,,-22.57999950E-6,59.999998659E-3,
,,,-22.55999971E-6,-1.2400000,,,,,-22.55999971E-6,39.99999911E-3,
,,,-22.53999992E-6,-1.2600000,,,,,-22.53999992E-6,39.99999911E-3,
,,,-22.52000013E-6,-1.2600000,,,,,-22.52000013E-6,39.99999911E-3,
,,,-22.49999852E-6,-1.2800000,,,,,-22.49999852E-6,39.99999911E-3,
,,,-22.47999873E-6,-1.2600000,,,,,-22.47999873E-6,19.9999996E-3,
,,,-22.45999895E-6,-1.2800000,,,,,-22.45999895E-6,19.9999996E-3,
,,,-22.43999916E-6,-1.2800000,,,,,-22.43999916E-6,19.9999996E-3,
,,,-22.41999937E-6,-1.2800000,,,,,-22.41999937E-6,19.9999996E-3,
,,,-22.39999958E-6,-1.3000000,,,,,-22.39999958E-6,0.0,
,,,-22.37999979E-6,-1.3000000,,,,,-22.37999979E-6,-19.9999996E-3,
,,,-22.36000000E-6,-1.3000000,,,,,-22.36000000E-6,-19.9999996E-3,
,,,-22.34000021E-6,-1.3000000,,,,,-22.34000021E-6,-19.9999996E-3,
,,,-22.31999861E-6,-1.3000000,,,,,-22.31999861E-6,-19.9999996E-3,
,,,-22.29999882E-6,-1.3000000,,,,,-22.29999882E-6,-39.99999911E-3,
,,,-22.27999903E-6,-1.3199999,,,,,-22.27999903E-6,-19.9999996E-3,
,,,-22.25999924E-6,-1.3199999,,,,,-22.25999924E-6,-39.99999911E-3,
,,,-22.23999945E-6,-1.3199999,,,,,-22.23999945E-6,-59.999998659E-3,
,,,-22.21999966E-6,-1.3199999,,,,,-22.21999966E-6,-59.999998659E-3,
,,,-22.19999988E-6,-1.3399999,,,,,-22.19999988E-6,-59.999998659E-3,
,,,-22.18000009E-6,-1.3199999,,,,,-22.18000009E-6,-59.999998659E-3,
,,,-22.15999848E-6,-1.3399999,,,,,-22.15999848E-6,-59.999998659E-3,
,,,-22.13999869E-6,-1.3399999,,,,,-22.13999869E-6,-79.999998212E-3,
,,,-22.11999890E-6,-1.3600000,,,,,-22.11999890E-6,-79.999998212E-3,
,,,-22.09999911E-6,-1.3399999,,,,,-22.09999911E-6,-79.999998212E-3,
,,,-22.07999933E-6,-1.3600000,,,,,-22.07999933E-6,-79.999998212E-3,
,,,-22.05999954E-6,-1.3399999,,,,,-22.05999954E-6,-99.999994040E-3,
,,,-22.03999975E-6,-1.3600000,,,,,-22.03999975E-6,-99.999994040E-3,
,,,-22.01999996E-6,-1.3600000,,,,,-22.01999996E-6,-119.9999973E-3,
,,,-22.00000017E-6,-1.3600000,,,,,-22.00000017E-6,-119.9999973E-3,
,,,-21.97999856E-6,-1.3600000,,,,,-21.97999856E-6,-119.9999973E-3,
,,,-21.95999878E-6,-1.3800000,,,,,-21.95999878E-6,-119.9999973E-3,
,,,-21.93999899E-6,-1.3600000,,,,,-21.93999899E-6,-140.0000006E-3,
,,,-21.91999920E-6,-1.3600000,,,,,-21.91999920E-6,-140.0000006E-3,
,,,-21.89999941E-6,-1.3800000,,,,,-21.89999941E-6,-159.99999642E-3,
,,,-21.87999962E-6,-1.3800000,,,,,-21.87999962E-6,-159.99999642E-3,
,,,-21.85999983E-6,-1.3800000,,,,,-21.85999983E-6,-159.99999642E-3,
,,,-21.84000004E-6,-1.3800000,,,,,-21.84000004E-6,-159.99999642E-3,
,,,-21.82000026E-6,-1.3800000,,,,,-21.82000026E-6,-179.99999225E-3,
,,,-21.79999865E-6,-1.3800000,,,,,-21.79999865E-6,-179.99999225E-3,
,,,-21.77999886E-6,-1.3800000,,,,,-21.77999886E-6,-179.99999225E-3,
,,,-21.75999907E-6,-1.4000000,,,,,-21.75999907E-6,-179.99999225E-3,
,,,-21.73999928E-6,-1.3800000,,,,,-21.73999928E-6,-199.99998808E-3,
,,,-21.71999949E-6,-1.3800000,,,,,-21.71999949E-6,-199.99998808E-3,
,,,-21.69999971E-6,-1.4000000,,,,,-21.69999971E-6,-219.99999881E-3,
,,,-21.67999992E-6,-1.4000000,,,,,-21.67999992E-6,-219.99999881E-3,
,,,-21.66000013E-6,-1.4000000,,,,,-21.66000013E-6,-219.99999881E-3,
,,,-21.63999852E-6,-1.4200000,,,,,-21.63999852E-6,-219.99999881E-3,
,,,-21.61999873E-6,-1.4000000,,,,,-21.61999873E-6,-219.99999881E-3,
,,,-21.59999895E-6,-1.4000000,,,,,-21.59999895E-6,-239.99999464E-3,
,,,-21.57999916E-6,-1.4000000,,,,,-21.57999916E-6,-239.99999464E-3,
,,,-21.55999937E-6,-1.4000000,,,,,-21.55999937E-6,-239.99999464E-3,
,,,-21.53999958E-6,-1.4000000,,,,,-21.53999958E-6,-259.99999046E-3,
,,,-21.51999979E-6,-1.4000000,,,,,-21.51999979E-6,-259.99999046E-3,
,,,-21.50000000E-6,-1.4000000,,,,,-21.50000000E-6,-259.99999046E-3,
,,,-21.48000021E-6,-1.4000000,,,,,-21.48000021E-6,-259.99999046E-3,
,,,-21.45999861E-6,-1.4000000,,,,,-21.45999861E-6,-280.00000119E-3,
,,,-21.43999882E-6,-1.4000000,,,,,-21.43999882E-6,-280.00000119E-3,
,,,-21.41999903E-6,-1.4000000,,,,,-21.41999903E-6,-299.99998212E-3,
,,,-21.39999924E-6,-1.4200000,,,,,-21.39999924E-6,-299.99998212E-3,
,,,-21.37999945E-6,-1.4000000,,,,,-21.37999945E-6,-299.99998212E-3,
,,,-21.35999966E-6,-1.4000000,,,,,-21.35999966E-6,-299.99998212E-3,
,,,-21.33999988E-6,-1.4200000,,,,,-21.33999988E-6,-299.99998212E-3,
,,,-21.32000009E-6,-1.4000000,,,,,-21.32000009E-6,-319.99999285E-3,
,,,-21.30000030E-6,-1.4200000,,,,,-21.30000030E-6,-319.99999285E-3,
,,,-21.27999869E-6,-1.4000000,,,,,-21.27999869E-6,-319.99999285E-3,
,,,-21.25999890E-6,-1.4200000,,,,,-21.25999890E-6,-340.00000358E-3,
,,,-21.23999911E-6,-1.4000000,,,,,-21.23999911E-6,-340.00000358E-3,
,,,-21.21999933E-6,-1.4200000,,,,,-21.21999933E-6,-359.99998450E-3,
,,,-21.19999954E-6,-1.4000000,,,,,-21.19999954E-6,-340.00000358E-3,
,,,-21.17999975E-6,-1.4000000,,,,,-21.17999975E-6,-359.99998450E-3,
,,,-21.15999996E-6,-1.4000000,,,,,-21.15999996E-6,-359.99998450E-3,
,,,-21.14000017E-6,-1.4200000,,,,,-21.14000017E-6,-359.99998450E-3,
,,,-21.11999856E-6,-1.4200000,,,,,-21.11999856E-6,-379.99999523E-3,
,,,-21.09999878E-6,-1.4200000,,,,,-21.09999878E-6,-379.99999523E-3,
,,,-21.07999899E-6,-1.4000000,,,,,-21.07999899E-6,-379.99999523E-3,
,,,-21.05999920E-6,-1.4000000,,,,,-21.05999920E-6,-399.99997616E-3,
,,,-21.03999941E-6,-1.4000000,,,,,-21.03999941E-6,-379.99999523E-3,
,,,-21.01999962E-6,-1.4000000,,,,,-21.01999962E-6,-399.99997616E-3,
,,,-20.99999983E-6,-1.4000000,,,,,-20.99999983E-6,-419.999986887E-3,
,,,-20.98000004E-6,-1.4000000,,,,,-20.98000004E-6,-399.99997616E-3,
,,,-20.96000026E-6,-1.4200000,,,,,-20.96000026E-6,-399.99997616E-3,
,,,-20.93999865E-6,-1.4000000,,,,,-20.93999865E-6,-419.999986887E-3,
,,,-20.91999886E-6,-1.4000000,,,,,-20.91999886E-6,-419.999986887E-3,
,,,-20.89999907E-6,-1.4000000,,,,,-20.89999907E-6,-419.999986887E-3,
,,,-20.87999928E-6,-1.4000000,,,,,-20.87999928E-6,-439.999997616E-3,
,,,-20.85999949E-6,-1.3800000,,,,,-20.85999949E-6,-439.999997616E-3,
,,,-20.83999971E-6,-1.3800000,,,,,-20.83999971E-6,-439.999997616E-3,
,,,-20.81999992E-6,-1.3800000,,,,,-20.81999992E-6,-439.999997616E-3,
,,,-20.80000013E-6,-1.3800000,,,,,-20.80000013E-6,-439.999997616E-3,
,,,-20.77999852E-6,-1.3800000,,,,,-20.77999852E-6,-439.999997616E-3,
,,,-20.75999873E-6,-1.3800000,,,,,-20.75999873E-6,-459.999978542E-3,
,,,-20.73999894E-6,-1.3800000,,,,,-20.73999894E-6,-459.999978542E-3,
,,,-20.71999916E-6,-1.3800000,,,,,-20.71999916E-6,-479.999989271E-3,
,,,-20.69999937E-6,-1.3800000,,,,,-20.69999937E-6,-479.999989271E-3,
,,,-20.67999958E-6,-1.3800000,,,,,-20.67999958E-6,-479.999989271E-3,
,,,-20.65999979E-6,-1.3800000,,,,,-20.65999979E-6,-479.999989271E-3,
,,,-20.64000000E-6,-1.3800000,,,,,-20.64000000E-6,-500.000000000E-3,
,,,-20.62000021E-6,-1.3600000,,,,,-20.62000021E-6,-500.000000000E-3,
,,,-20.59999861E-6,-1.3600000,,,,,-20.59999861E-6,-500.000000000E-3,
,,,-20.57999882E-6,-1.3600000,,,,,-20.57999882E-6,-519.999980927E-3,
,,,-20.55999903E-6,-1.3600000,,,,,-20.55999903E-6,-500.000000000E-3,
,,,-20.53999924E-6,-1.3399999,,,,,-20.53999924E-6,-519.999980927E-3,
,,,-20.51999945E-6,-1.3600000,,,,,-20.51999945E-6,-519.999980927E-3,
,,,-20.49999966E-6,-1.3399999,,,,,-20.49999966E-6,-519.999980927E-3,
,,,-20.47999988E-6,-1.3399999,,,,,-20.47999988E-6,-519.999980927E-3,
,,,-20.46000009E-6,-1.3399999,,,,,-20.46000009E-6,-539.999961853E-3,
,,,-20.44000030E-6,-1.3399999,,,,,-20.44000030E-6,-539.999961853E-3,
,,,-20.41999869E-6,-1.3399999,,,,,-20.41999869E-6,-539.999961853E-3,
,,,-20.39999890E-6,-1.3399999,,,,,-20.39999890E-6,-539.999961853E-3,
,,,-20.37999911E-6,-1.3399999,,,,,-20.37999911E-6,-560.000002384E-3,
,,,-20.35999933E-6,-1.3199999,,,,,-20.35999933E-6,-560.000002384E-3,
,,,-20.33999954E-6,-1.3199999,,,,,-20.33999954E-6,-560.000002384E-3,
,,,-20.31999975E-6,-1.3199999,,,,,-20.31999975E-6,-560.000002384E-3,
,,,-20.29999996E-6,-1.3199999,,,,,-20.29999996E-6,-560.000002384E-3,
,,,-20.28000017E-6,-1.3000000,,,,,-20.28000017E-6,-560.000002384E-3,
,,,-20.25999856E-6,-1.3000000,,,,,-20.25999856E-6,-579.999983311E-3,
,,,-20.23999878E-6,-1.3000000,,,,,-20.23999878E-6,-579.999983311E-3,
,,,-20.21999899E-6,-1.3000000,,,,,-20.21999899E-6,-579.999983311E-3,
,,,-20.19999920E-6,-1.3000000,,,,,-20.19999920E-6,-599.999964237E-3,
,,,-20.17999941E-6,-1.3000000,,,,,-20.17999941E-6,-599.999964237E-3,
,,,-20.15999962E-6,-1.2800000,,,,,-20.15999962E-6,-599.999964237E-3,
,,,-20.13999983E-6,-1.2800000,,,,,-20.13999983E-6,-599.999964237E-3,
,,,-20.12000004E-6,-1.2800000,,,,,-20.12000004E-6,-599.999964237E-3,
,,,-20.10000026E-6,-1.2800000,,,,,-20.10000026E-6,-599.999964237E-3,
,,,-20.0799986E-6,-1.2600000,,,,,-20.0799986E-6,-620.000004768E-3,
,,,-20.0599989E-6,-1.2600000,,,,,-20.0599989E-6,-620.000004768E-3,
,,,-20.0399991E-6,-1.2600000,,,,,-20.0399991E-6,-620.000004768E-3,
,,,-20.0199993E-6,-1.2400000,,,,,-20.0199993E-6,-620.000004768E-3,
,,,-19.9999995E-6,-1.2600000,,,,,-19.9999995E-6,-620.000004768E-3,
,,,-19.9799997E-6,-1.2400000,,,,,-19.9799997E-6,-639.999985695E-3,
,,,-19.9599999E-6,-1.2400000,,,,,-19.9599999E-6,-639.999985695E-3,
,,,-19.9400001E-6,-1.2400000,,,,,-19.9400001E-6,-639.999985695E-3,
,,,-19.9199985E-6,-1.2400000,,,,,-19.9199985E-6,-639.999985695E-3,
,,,-19.8999987E-6,-1.2200000,,,,,-19.8999987E-6,-639.999985695E-3,
,,,-19.8799989E-6,-1.2200000,,,,,-19.8799989E-6,-639.999985695E-3,
,,,-19.8599992E-6,-1.2200000,,,,,-19.8599992E-6,-639.999985695E-3,
,,,-19.8399994E-6,-1.1999999,,,,,-19.8399994E-6,-659.999966621E-3,
,,,-19.8199996E-6,-1.2200000,,,,,-19.8199996E-6,-659.999966621E-3,
,,,-19.7999998E-6,-1.1799999,,,,,-19.7999998E-6,-659.999966621E-3,
,,,-19.7800000E-6,-1.1999999,,,,,-19.7800000E-6,-659.999966621E-3,
,,,-19.7600002E-6,-1.1799999,,,,,-19.7600002E-6,-659.999966621E-3,
,,,-19.7399986E-6,-1.1799999,,,,,-19.7399986E-6,-680.000007153E-3,
,,,-19.7199988E-6,-1.1799999,,,,,-19.7199988E-6,-659.999966621E-3,
,,,-19.6999990E-6,-1.1600000,,,,,-19.6999990E-6,-680.000007153E-3,
,,,-19.6799992E-6,-1.1600000,,,,,-19.6799992E-6,-680.000007153E-3,
,,,-19.6599995E-6,-1.1400000,,,,,-19.6599995E-6,-680.000007153E-3,
,,,-19.6399997E-6,-1.1400000,,,,,-19.6399997E-6,-680.000007153E-3,
,,,-19.6199999E-6,-1.1400000,,,,,-19.6199999E-6,-699.999988079E-3,
,,,-19.6000001E-6,-1.1400000,,,,,-19.6000001E-6,-699.999988079E-3,
,,,-19.5800003E-6,-1.1200000,,,,,-19.5800003E-6,-699.999988079E-3,
,,,-19.5599987E-6,-1.1200000,,,,,-19.5599987E-6,-699.999988079E-3,
,,,-19.5399989E-6,-1.1000000,,,,,-19.5399989E-6,-699.999988079E-3,
,,,-19.5199991E-6,-1.1200000,,,,,-19.5199991E-6,-699.999988079E-3,
,,,-19.4999993E-6,-1.1000000,,,,,-19.4999993E-6,-719.999969006E-3,
,,,-19.4799995E-6,-1.1000000,,,,,-19.4799995E-6,-719.999969006E-3,
,,,-19.4599997E-6,-1.1000000,,,,,-19.4599997E-6,-719.999969006E-3,
,,,-19.4400000E-6,-1.0799999,,,,,-19.4400000E-6,-719.999969006E-3,
